<?xml version="1.0" standalone="no"?>
<!--
Font Awesome Pro 5.13.0 by @fontawesome - https://fontawesome.com
License - https://fontawesome.com/license (Commercial License)
-->
<!DOCTYPE svg PUBLIC "-//W3C//DTD SVG 1.1//EN" "http://www.w3.org/Graphics/SVG/1.1/DTD/svg11.dtd" >
<svg xmlns="http://www.w3.org/2000/svg" version="1.1">
	<metadata>
		Created by FontForge 20190801 at Mon Mar 23 10:47:13 2020
		By Robert Madole
		Copyright (c) Font Awesome
	</metadata>
	<defs>
		<font id="FontAwesome5Pro-Solid" horiz-adv-x="640">
			<font-face
					font-family="Font Awesome 5 Pro Solid"
					font-weight="900"
					font-stretch="normal"
					units-per-em="512"
					panose-1="2 0 5 3 0 0 0 0 0 0"
					ascent="448"
					descent="-64"
					bbox="-0.0753686 -64.0754 640.024 448.081"
					underline-thickness="25"
					underline-position="-50"
					unicode-range="U+0020-F976"
			/>
			<missing-glyph/>
			<glyph glyph-name="futbol" unicode="&#xf1e3;" horiz-adv-x="512"
				   d="M504 192c0 -136.967 -111.033 -248 -248 -248s-248 111.033 -248 248s111.033 248 248 248s248 -111.033 248 -248zM456 192l-0.00292969 0.282227l-26.0645 -22.7412l-62.6787 58.5l16.4541 84.3555l34.3027 -3.07227
c-24.8887 34.2158 -60.0039 60.0889 -100.709 73.1406l13.6514 -31.9385l-74.9531 -41.5264l-74.9531 41.5254l13.6514 31.9385c-40.6309 -13.0283 -75.7803 -38.8701 -100.709 -73.1406l34.5645 3.07324l16.1924 -84.3555l-62.6777 -58.5l-26.0645 22.7412
l-0.00292969 -0.282227c0 -43.0146 13.4971 -83.9521 38.4717 -117.991l7.7041 33.8975l85.1387 -10.4473l36.3008 -77.8262l-29.9023 -17.7861c40.2021 -13.1221 84.29 -13.1475 124.572 0l-29.9023 17.7861l36.3008 77.8262l85.1387 10.4473l7.7041 -33.8975
c24.9756 34.0391 38.4727 74.9766 38.4727 117.991zM207.898 122.429l-29.8945 91.3125l77.9961 56.5264l77.9961 -56.5264l-29.6221 -91.3125h-96.4756z"/>
			<glyph glyph-name="baseball" unicode="&#xf432;"
				   d="M629.6 392c17.6006 -24.5996 12.3008 -59 -11.7998 -76.7998l-212.1 -156.2c-69.1006 -50.9004 -128.2 -77.5 -162.8 -92.7002l-62.2002 86.7002c24.7998 28.5 68.0996 77.4004 137.2 128.3l212 156.3c24.2998 17.8008 58.1992 12.4004 75.7998 -12.1992zM145.5 14.9004
c-31.7998 -19.7002 -48.2002 -32 -56.4004 -37.9004c15.2002 -19.0996 0.5 -33.4004 -2.2998 -35.5996c-10.8994 -8.80078 -25.8994 -6.10059 -33.7002 3.69922l-47.8994 60c-8.2998 10.3008 -6.60059 25.4004 3.7002 33.7002
c0.799805 0.600586 18.1992 15.7002 37.3994 -8.39941c9 6.59961 26 18.7998 56 44.7998zM122.9 93.2002c13.5 12.5996 26.3994 25.7002 39 39.2002l55.7998 -77.8008c-16.5 -8 -32.9004 -16.3994 -48.7998 -25.5zM494.9 96c44.0996 0 79.7998 -35.7998 79.7998 -80
s-35.7002 -80 -79.7998 -80c-44.1006 0 -79.8008 35.7998 -79.8008 80s35.7002 80 79.8008 80z"/>
			<glyph glyph-name="bowling-pins" unicode="&#xf437;" horiz-adv-x="448"
				   d="M314.8 288c-0.799805 35.7998 -20.8994 59.0996 -18.7998 96c1.90039 34.2002 22.7002 63.9004 56 64c33.4004 -0.0996094 54.0996 -29.7002 56 -64c2.09961 -36.9004 -18 -60.2998 -18.7998 -96h-74.4004zM443.7 128c11.3994 -51 -0.600586 -140.5 -26.6006 -192h-130
c-26.0996 51.5 -38.1992 140.9 -26.6992 192c10.7998 48.0996 39.8994 82.7998 50.6992 128h81.9004c10.7998 -45.2002 39.9004 -79.9004 50.7002 -128zM133.2 288h-74.4004c-0.799805 35.7998 -20.8994 59.0996 -18.7998 96c1.90039 34.2002 22.5996 63.9004 56 64
c33.2998 -0.0996094 54.0996 -29.7998 56 -64c2.09961 -36.9004 -18 -60.2002 -18.7998 -96zM136.9 256c10.7998 -45.2002 40 -79.9004 50.7998 -128c11.3994 -51.0996 -0.600586 -140.5 -26.7002 -192h-130c-26.0996 51.5 -38.0996 140.9 -26.5996 192
c10.6992 48.0996 39.8994 82.7998 50.6992 128h81.8008z"/>
			<glyph glyph-name="boxing-glove" unicode="&#xf438;" horiz-adv-x="448"
				   d="M384 288c35.2998 0 64 -28.7002 64 -64c0 -13.7998 2.7998 -61.0996 -37.5 -101.5l-58.5 -58.5h-40c-4.40039 0 -8 -3.59961 -8 -8v-16c0 -4.40039 3.59961 -8 8 -8h40v-64c0 -17.7002 -14.2998 -32 -32 -32h-256c-17.7002 0 -32 14.2998 -32 32v64h40
c4.40039 0 8 3.59961 8 8v16c0 4.40039 -3.59961 8 -8 8h-40l-16.2002 97.2998c-10.5 63 -15.7998 126.9 -15.7998 190.8c0 52.8008 43.2998 95.9004 96 95.9004h192c53 0 96 -43 96 -96v-32.2002c-29.0996 0 -67.5996 5.60059 -96 -32.5v0.5h-146.8
c-22.4004 0 -43.6006 7.90039 -60.5 22.2998c-3.2002 2.7002 -7.90039 2.60059 -10.9004 -0.399414l-11.2998 -11.2998c-3.2998 -3.30078 -3.09961 -8.60059 0.400391 -11.7002c22.7998 -19.9004 51.6992 -30.7998 82.2998 -30.7998h132.5
c-1 -5.2002 -1.60059 -10.5 -1.60059 -16c0 -41.1006 31.2002 -75.1006 71.2002 -79.5c4.7002 -0.5 8.7998 3.2998 8.7998 8v16c0 4 -2.89941 7.5 -6.89941 8.09961c-23.5 3.2998 -41.6006 23.7998 -41.1006 48.4004c0.5 26.2998 22.5 47.0996 48.8008 47.0996h31.0996z
M260.8 6.40039c2.60059 3.5 1.90039 8.59961 -1.59961 11.1992l-40.5 30.4004l40.5 30.4004c3.5 2.69922 4.2002 7.69922 1.59961 11.1992l-9.59961 12.8008c-2.60059 3.5 -7.7002 4.2998 -11.2002 1.59961l-48 -36l-48 36c-3.5 2.7002 -8.59961 1.90039 -11.2002 -1.59961
l-9.59961 -12.8008c-2.7002 -3.5 -1.90039 -8.59961 1.59961 -11.1992l40.5 -30.4004l-40.5 -30.4004c-3.5 -2.69922 -4.2002 -7.69922 -1.59961 -11.1992l9.59961 -12.8008c2.60059 -3.5 7.7002 -4.2998 11.2002 -1.59961l48 36l48 -36
c3.5 -2.7002 8.59961 -1.90039 11.2002 1.59961z"/>
			<glyph glyph-name="cricket" unicode="&#xf449;"
				   d="M421.5 126.5l-263.5 -184.5c-8.90039 -6.2002 -20.5 -7.90039 -30.4004 -3.5c-72.7998 32.5 -121.899 102.6 -127.5 182.1c-0.799805 10.8008 4.80078 21.2002 13.7002 27.4004l263.5 184.5l-30.8994 -175.1zM635.7 417.6
c7.59961 -10.8994 4.89941 -25.8994 -5.90039 -33.5l-144.1 -101.899c-14.5 -10.2002 -18 -30.1006 -7.90039 -44.6006l24.5 -35c5.10059 -7.2998 3.2998 -17.1992 -3.89941 -22.2998l-21.3008 -14.8994l-175.1 30.8994l30.9004 175.101l21.2998 14.8994
c7.2998 5.10059 17.2002 3.2998 22.2998 -3.89941l21.9004 -31.3008c10.1992 -14.5 30.0996 -18 44.5996 -7.89941l144 100.5c10.9004 7.59961 25.9004 4.89941 33.5 -5.90039zM496 96c44.2002 0 80 -35.7998 80 -80s-35.7998 -80 -80 -80s-80 35.7998 -80 80
s35.7998 80 80 80z"/>
			<glyph glyph-name="curling" unicode="&#xf44a;"
				   d="M554.1 256h-468.199c13.1992 37.2002 48.3994 64 90.0996 64h48v16c0 61.9004 50.0996 112 112 112h128c8.7998 0 16 -7.2002 16 -16v-32c0 -8.7998 -7.2002 -16 -16 -16c-117.7 0 -176 11.4004 -176 -48v-16h176c41.7002 0 76.9004 -26.7998 90.0996 -64zM0 32v32h640
v-32c0 -53 -43 -96 -96 -96h-448c-53 0 -96 43 -96 96zM544 208c53 0 96 -43 96 -96v-16h-640v16c0 53 43 96 96 96h448z"/>
			<glyph glyph-name="dumbbell" unicode="&#xf44b;"
				   d="M104 352c13.2998 0 24 -10.7002 24 -24v-272c0 -13.2998 -10.7002 -24 -24 -24h-48c-13.2998 0 -24 10.7002 -24 24v104h-24c-4.40039 0 -8 3.59961 -8 8v48c0 4.40039 3.59961 8 8 8h24v104c0 13.2998 10.7002 24 24 24h48zM632 224c4.40039 0 8 -3.59961 8 -8v-48
c0 -4.40039 -3.59961 -8 -8 -8h-24v-104c0 -13.2998 -10.7002 -24 -24 -24h-48c-13.2998 0 -24 10.7002 -24 24v272c0 13.2998 10.7002 24 24 24h48c13.2998 0 24 -10.7002 24 -24v-104h24zM456 416c13.2998 0 24 -10.7002 24 -24v-400c0 -13.2998 -10.7002 -24 -24 -24h-48
c-13.2998 0 -24 10.7002 -24 24v168h-128v-168c0 -13.2998 -10.7002 -24 -24 -24h-48c-13.2998 0 -24 10.7002 -24 24v400c0 13.2998 10.7002 24 24 24h48c13.2998 0 24 -10.7002 24 -24v-168h128v168c0 13.2998 10.7002 24 24 24h48z"/>
			<glyph glyph-name="field-hockey" unicode="&#xf44c;"
				   d="M560.7 448h67.2998c6.59961 0 12 -5.40039 12 -12v-124.9c0 -3.19922 -1.2998 -6.19922 -3.5 -8.5l-44.5 -44.5996l-113 113.1l73.2998 73.3008c2.2002 2.2998 5.2002 3.59961 8.40039 3.59961zM507.3 173.3c-99.5996 19.1006 -187.399 -68 -168.1 -168.5
c-14.9004 -14.7998 -61.2998 -68 -147.4 -68c-106.2 0 -191.8 86 -191.8 192c0 51.2998 19.9004 99.5 56.2002 135.8c31.2002 31.2002 81.7998 31.2002 113 0c31.2002 -31.1992 31.2002 -81.8994 0 -113.1c-29.7998 -29.9004 15.2002 -75.2002 45.2002 -45.2998l230.699 231
l113 -113.101zM480.2 128c53 0 95.8994 -43 95.8994 -96s-42.8994 -96 -95.8994 -96s-95.9004 43 -95.9004 96s42.9004 96 95.9004 96z"/>
			<glyph glyph-name="football-helmet" unicode="&#xf44f;" horiz-adv-x="512"
				   d="M480 128c17.7002 0 32 -14.2998 32 -32v-112c0 -12.2998 -9.5 -32 -32 -32c-2.7998 0 -1.2998 -0.0996094 -45.2998 5.40039c-47.9004 6 -86.4004 43.8994 -95.9004 91.2998l-9.5 47.2998h-42.8994c5.89941 -14.7998 31.1992 -60.5 -5 -96.7002
c-20 -20 -50.5 -24.8994 -75.7002 -12.2998l-85.7002 45h-53.5c-5 0 -9.7002 2.2002 -12.7998 6.09961c-40.4004 50.9004 -61.2998 117.9 -51.1006 190c15.2002 107.301 102 194.2 209.301 209.301c136 19.1992 254.3 -72 279.1 -196.9
c1.7002 -8.90039 -4.90039 -17.5 -13.9004 -18.7002l-136.8 -17.7998l15.2002 -76h124.5zM176 88c13.2998 0 24 10.7002 24 24s-10.7002 24 -24 24s-24 -10.7002 -24 -24s10.7002 -24 24 -24zM273.6 128h49.3008l-14.4004 71.9004l-19.5996 -2.60059
c-20.7002 -2.7002 -33.4004 -24.2002 -25.6006 -43.5996zM480 -16v45.9004h-101.4c12.1006 -22 34.2002 -37.5 60.1006 -40.7002zM480 64v32h-118.1l6.39941 -32h111.7z"/>
			<glyph glyph-name="golf-ball" unicode="&#xf450;" horiz-adv-x="416"
				   d="M96 32h224c0 -17.7002 -14.2998 -32 -32 -32h-16c-17.7002 0 -32 -14.2998 -32 -32v-20c0 -6.59961 -5.40039 -12 -12 -12h-40c-6.59961 0 -12 5.40039 -12 12v20c0 17.7002 -14.2998 32 -32 32h-16c-17.7002 0 -32 14.2998 -32 32zM416 240
c0 -74.2002 -39 -139.2 -97.5 -176h-221c-58.5 36.7998 -97.5 101.8 -97.5 176c0 114.9 93.0996 208 208 208s208 -93.0996 208 -208zM235.9 196.1c18.2998 0 33.0996 14.8008 33.0996 33.1006c0 14.3994 -9.2998 26.2998 -22.0996 30.8994
c9.59961 -26.7998 -15.6006 -51.2998 -41.9004 -41.8994c4.59961 -12.7998 16.5 -22.1006 30.9004 -22.1006zM285 149.2c0 14.3994 -9.2998 26.2998 -22.0996 30.8994c9.59961 -26.7998 -15.6006 -51.2998 -41.9004 -41.8994
c4.59961 -12.7998 16.5 -22.1006 30.9004 -22.1006c18.2998 0 33.0996 14.9004 33.0996 33.1006zM349 213.2c0 14.3994 -9.2998 26.2998 -22.0996 30.8994c9.59961 -26.7998 -15.6006 -51.2998 -41.9004 -41.8994c4.59961 -12.7998 16.5 -22.1006 30.9004 -22.1006
c18.2998 0 33.0996 14.9004 33.0996 33.1006z"/>
			<glyph glyph-name="golf-club" unicode="&#xf451;"
				   d="M638.4 418.1l-214.101 -445.8c-10.7002 -22.2002 -33.0996 -36.2998 -57.7002 -36.2998h-302.6c-35.2998 0 -64 28.7002 -64 64v8h120c4.40039 0 8 3.59961 8 8v32c0 4.40039 -3.59961 8 -8 8h-120v48h120c4.40039 0 8 3.59961 8 8v32c0 4.40039 -3.59961 8 -8 8h-120
v26.9004c0 40.0996 36.4004 70.2998 75.7998 62.8994l389.7 -73.0996l129.7 270.3c3.7998 8 13.3994 11.2998 21.3994 7.40039l14.4004 -6.90039c7.90039 -3.90039 11.2002 -13.5 7.40039 -21.4004z"/>
			<glyph glyph-name="hockey-puck" unicode="&#xf453;" horiz-adv-x="512"
				   d="M0 288c0 53 114.6 96 256 96s256 -43 256 -96s-114.6 -96 -256 -96s-256 43 -256 96zM0 205.8c113.5 -82.3994 398.6 -82.2998 512 0v-109.8c0 -53 -114.6 -96 -256 -96s-256 43 -256 96v109.8z"/>
			<glyph glyph-name="luchador" unicode="&#xf455;" horiz-adv-x="448"
				   d="M190.2 192h-46.2002c-26.5 0 -48 23.9004 -48 53.2998v10.7002h48c26.5 0 48 -23.9004 48 -53.2998v-8.7002c-0.599609 -0.700195 -1.2002 -1.2998 -1.7998 -2zM224 128h-38.7002c6.7998 14.7998 18.5 33.4004 38.7002 53.2998
c20.2002 -19.8994 31.9004 -38.5 38.7002 -53.2998h-38.7002zM160 96h128c17.5996 0 32 -14.4004 32 -32s-14.4004 -32 -32 -32h-128c-17.5996 0 -32 14.4004 -32 32s14.4004 32 32 32zM256 202.7c0 29.3994 21.5 53.2998 48 53.2998h48v-10.7002
c0 -29.3994 -21.5 -53.2998 -48 -53.2998h-46.2002c-0.599609 0.700195 -1.2002 1.2998 -1.7998 2v8.7002zM448 224v-128c0 -88.4004 -71.5996 -160 -160 -160h-128c-88.4004 0 -160 71.5996 -160 160v128c0 123.7 100.3 224 224 224s224 -100.3 224 -224zM384 276
c0 6.59961 -5.40039 12 -12 12h-68c-37.9004 0 -69.2998 -28.2998 -77.5 -66.2002c-0.900391 0.700195 -4.2002 0.700195 -5.09961 0c-8.10059 37.9004 -39.4004 66.2002 -77.4004 66.2002h-68c-6.59961 0 -12 -5.40039 -12 -12v-30.7002
c0 -47.0996 35.7998 -85.2998 80 -85.2998h22.4004c-7.40039 -12.2002 -12.5 -23.5 -15.8008 -32.9004c-30.8994 -4.59961 -54.5996 -31 -54.5996 -63.0996c0 -35.5 29.4004 -64 64.9004 -64h126.1c35.5 0 64.9004 28.5 64.9004 64
c0 32.0996 -23.7002 58.5 -54.6006 63.0996c-3.2998 9.5 -8.39941 20.7002 -15.7998 32.9004h22.5c44.2002 0 80 38.2002 80 85.2998v30.7002z"/>
			<glyph glyph-name="quidditch" unicode="&#xf458;"
				   d="M256.5 231.2l86.7002 -109.2s-16.6006 -102.4 -76.6006 -150.1c-59.8994 -47.7002 -266.6 -34.1006 -266.6 -34.1006s3.7998 23.1006 11 55.4004l94.5996 112.2c4 4.69922 -0.899414 11.5996 -6.59961 9.5l-60.4004 -22.1006c14.4004 41.7002 32.7002 80 54.6006 97.5
c59.8994 47.7998 163.3 40.9004 163.3 40.9004zM494.5 96.2002c44 0 79.7998 -35.7002 79.7998 -79.9004c0 -44.0996 -35.7002 -79.8994 -79.7998 -79.8994s-79.7998 35.7998 -79.7998 79.8994c0 44.1006 35.7998 79.9004 79.7998 79.9004zM636.5 417
c5.5 -6.90039 4.40039 -17 -2.5 -22.5l-232.5 -177.9l34.0996 -42.8994c5.10059 -6.40039 1.7002 -15.9004 -6.2998 -17.6006l-58.7998 -12.3994l-86.7002 109.2l25.2998 54.5996c3.5 7.40039 13.5 8.59961 18.6006 2.2002l34.0996 -43l232.5 177.899
c6.90039 5.40039 16.9004 4.30078 22.4004 -2.59961z"/>
			<glyph glyph-name="racquet" unicode="&#xf45a;"
				   d="M125.9 101.5l56.6992 -80l-120.699 -82.5996c-7.2002 -5 -17.2002 -3.30078 -22.2002 3.89941l-36.7998 51.7998c-5.10059 7.2002 -3.40039 17.1006 3.69922 22.3008c0.100586 -0.100586 119.301 84.5996 119.301 84.5996zM528.7 118.2
c-49.1006 -34.7998 -103.9 -52 -153.5 -52c-27.6006 0 -84.5 15.0996 -171.9 -18.6006l-45.7002 64.5c32.7002 38.2002 56.7002 83.2002 67.7002 132.7c12.2002 54.7002 49.5 110.5 106.8 151.101c100.5 71.1992 228.2 70.1992 283.4 -7.7002
c54.2998 -76.7002 15.4004 -197.601 -86.7998 -270zM257.5 112.3c-11.7002 12.2998 -12 11.7002 -21.2002 29.7002c-7.89941 -14.0996 -16.2998 -27.9004 -26.2002 -41c15.7002 4.90039 31.5 8.5 47.4004 11.2998zM485.9 384c-106.4 0 -178.601 -90 -195 -141.1
c-21.3008 -66.2002 13.2998 -112.801 83.8994 -112.801c84.1006 0 171.101 66.8008 195 141.101c21.2998 66.0996 -13.2998 112.8 -83.8994 112.8z"/>
			<glyph glyph-name="shuttlecock" unicode="&#xf45b;" horiz-adv-x="512"
				   d="M484 256c15.4004 0 28 -12.5996 28 -28v-54.5996c0 -10.9004 -6.40039 -20.8008 -16.2002 -25.4004l-250.3 -116.5l-39.2002 -39.2002l-150 150l39.2002 39.2002l116.5 250.3c4.59961 9.90039 14.5996 16.2002 25.4004 16.2002h54.5996c15.4004 0 28 -12.5996 28 -28v-20
c-12.2998 0 -56.5996 1.2998 -71.0996 -44.7002l-28.8008 -91.2002l-45.3994 -26.3994l-36.2998 -78l25.6992 -25.7002l70.8008 70.7998l44.5 140.8c4.19922 13.3008 16.5 22.4004 30.5 22.4004h94.0996c15.5 0 28 -12.5 28 -28v-94.0996
c0 -13.9004 -9.09961 -26.3008 -22.4004 -30.5l-140.8 -44.5l-70.7998 -70.8008l25.7002 -25.7998l78 36.2998l26.3994 45.4004l91.2002 28.7998c49 15.5 44.7002 65.2002 44.7002 71.2002h20zM31.0996 117l2.60059 2.59961l150 -150l-2.60059 -2.59961
c-41.3994 -41.4004 -108.6 -41.4004 -150 0c-41.3994 41.4004 -41.3994 108.6 0 150z"/>
			<glyph glyph-name="table-tennis" unicode="&#xf45d;" horiz-adv-x="512"
				   d="M496.2 151.5c-64.1006 43.2002 -149.5 27.9004 -195.601 -34.2002l-211.5 211.5l56 56.1006c83.9004 84.0996 220 84.0996 303.9 0c63 -63.1006 78.7002 -155.601 47.2002 -233.4zM278.3 71.7998c-3.7002 -12.7002 -6.2998 -25.8994 -6.2002 -39.7002
c0 -19.5 3.90039 -38.0996 11 -55.0996c-25.6992 2.7998 -50.5996 13.5996 -70.2998 33.2998l-35.7002 35.7002l-89.2998 -103.3c-7.5 -8.60059 -20.7002 -9.10059 -28.7002 -1l-53.3994 53.5c-8.10059 8.09961 -7.60059 21.2998 1 28.7998l103 89.4004l-34.5 34.5996
c-39 39.0996 -44.6006 98.7998 -17.2998 144.1zM416 128c53 0 96 -43 96 -96s-43 -96 -96 -96s-96 43 -96 96s43 96 96 96z"/>
		</font>
	</defs>
</svg>
