<?xml version="1.0" standalone="no"?>
<!--
Font Awesome Pro 5.13.0 by @fontawesome - https://fontawesome.com
License - https://fontawesome.com/license (Commercial License)
-->
<!DOCTYPE svg PUBLIC "-//W3C//DTD SVG 1.1//EN" "http://www.w3.org/Graphics/SVG/1.1/DTD/svg11.dtd" >
<svg xmlns="http://www.w3.org/2000/svg" version="1.1">
	<metadata>
		Created by FontForge 20190801 at Mon Mar 23 10:47:28 2020
		By Robert Madole
		Copyright (c) Font Awesome
	</metadata>
	<defs>
		<font id="FontAwesome5Pro-Solid" horiz-adv-x="496">
			<font-face
					font-family="Font Awesome 5 Pro Solid"
					font-weight="900"
					font-stretch="normal"
					units-per-em="512"
					panose-1="2 0 5 3 0 0 0 0 0 0"
					ascent="448"
					descent="-64"
					bbox="-0.0328251 -64.4209 640.007 448.427"
					underline-thickness="25"
					underline-position="-50"
					unicode-range="U+0020-F976"
			/>
			<missing-glyph/>
			<glyph glyph-name="times" unicode="&#xf00d;" horiz-adv-x="352"
				   d="M242.72 192l100.07 -100.07c12.2803 -12.29 12.2803 -32.1992 0 -44.4795l-22.2402 -22.2402c-12.2803 -12.2803 -32.2002 -12.2803 -44.4795 0l-100.07 100.07l-100.07 -100.07c-12.2793 -12.2803 -32.1992 -12.2803 -44.4795 0l-22.2402 22.2402
c-12.2803 12.29 -12.2803 32.2002 0 44.4795l100.07 100.07l-100.07 100.07c-12.2803 12.29 -12.2803 32.1992 0 44.4795l22.2402 22.2402c12.29 12.2803 32.2002 12.2803 44.4795 0l100.07 -100.07l100.07 100.07c12.29 12.2803 32.1992 12.2803 44.4795 0
l22.2402 -22.2402c12.2803 -12.29 12.2803 -32.2002 0 -44.4795z"/>
			<glyph glyph-name="step-backward" unicode="&#xf048;" horiz-adv-x="448"
				   d="M64 -20v424c0 6.59961 5.40039 12 12 12h48c6.59961 0 12 -5.40039 12 -12v-176.4l195.5 181c20.5996 17.1006 52.5 2.80078 52.5 -24.5996v-384c0 -27.4004 -31.9004 -41.7002 -52.5 -24.5996l-195.5 179.899v-175.3c0 -6.59961 -5.40039 -12 -12 -12h-48
c-6.59961 0 -12 5.40039 -12 12z"/>
			<glyph glyph-name="step-forward" unicode="&#xf051;" horiz-adv-x="448"
				   d="M384 404v-424c0 -6.59961 -5.40039 -12 -12 -12h-48c-6.59961 0 -12 5.40039 -12 12v176.4l-195.5 -181c-20.5996 -17.1006 -52.5 -2.80078 -52.5 24.5996v384c0 27.4004 31.9004 41.7002 52.5 24.5996l195.5 -179.899v175.3c0 6.59961 5.40039 12 12 12h48
c6.59961 0 12 -5.40039 12 -12z"/>
			<glyph glyph-name="globe" unicode="&#xf0ac;"
				   d="M336.5 288h-177c14.5 89.2998 48.7002 152 88.5 152s74 -62.7002 88.5 -152zM152 192c0 22.2002 1.2002 43.5 3.2998 64h185.3c2.10059 -20.5 3.30078 -41.7998 3.30078 -64s-1.2002 -43.5 -3.30078 -64h-185.3c-2.09961 20.5 -3.2998 41.7998 -3.2998 64zM476.7 288
h-108c-8.7998 56.9004 -25.6006 107.8 -50 141.6c71.5 -21.1992 129.399 -73.6992 158 -141.6zM177.2 429.6c-24.4004 -33.7998 -41.2002 -84.6992 -49.9004 -141.6h-108c28.5 67.9004 86.5 120.4 157.9 141.6zM487.4 256c5.39941 -20.5 8.5 -41.7998 8.5 -64
s-3.10059 -43.5 -8.60059 -64h-114.6c2.09961 21 3.2998 42.5 3.2998 64s-1.2002 43 -3.2998 64h114.7zM120 192c0 -21.5 1.2002 -43 3.2002 -64h-114.601c-5.39941 20.5 -8.59961 41.7998 -8.59961 64s3.2002 43.5 8.59961 64h114.7
c-2.09961 -21 -3.2998 -42.5 -3.2998 -64zM159.5 96h177c-14.5 -89.2998 -48.7002 -152 -88.5 -152s-74 62.7002 -88.5 152zM318.8 -45.5996c24.4004 33.7998 41.2002 84.6992 50 141.6h108c-28.5996 -67.9004 -86.5996 -120.4 -158 -141.6zM19.2998 96h108
c8.7998 -56.9004 25.6006 -107.8 50 -141.6c-71.5 21.1992 -129.399 73.6992 -158 141.6z"/>
			<glyph glyph-name="filter" unicode="&#xf0b0;" horiz-adv-x="512"
				   d="M487.976 448c21.3623 0 32.0459 -25.8965 16.9717 -40.9707l-184.947 -184.971v-262.039c0 -19.5127 -21.9805 -30.71 -37.7627 -19.6611l-80 55.9795c-6.41602 4.49219 -10.2373 11.8311 -10.2373 19.6621v206.059l-184.942 184.971
c-15.1045 15.1045 -4.34766 40.9707 16.9707 40.9707h463.947z"/>
			<glyph glyph-name="smile" unicode="&#xf118;"
				   d="M248 440c137 0 248 -111 248 -248s-111 -248 -248 -248s-248 111 -248 248s111 248 248 248zM328 272c-17.7002 0 -32 -14.2998 -32 -32s14.2998 -32 32 -32s32 14.2998 32 32s-14.2998 32 -32 32zM168 272c-17.7002 0 -32 -14.2998 -32 -32s14.2998 -32 32 -32
s32 14.2998 32 32s-14.2998 32 -32 32zM362.8 101.8c13.5 16.2998 -11.2002 36.7002 -24.5996 20.5c-22.4004 -26.7998 -55.2002 -42.2002 -90.2002 -42.2002s-67.7998 15.3008 -90.2002 42.2002c-13.5996 16.2002 -38.2002 -4.2002 -24.5996 -20.5
c28.5 -34.2002 70.2998 -53.7998 114.8 -53.7998s86.2998 19.5996 114.8 53.7998z"/>
			<glyph glyph-name="frown" unicode="&#xf119;"
				   d="M248 440c137 0 248 -111 248 -248s-111 -248 -248 -248s-248 111 -248 248s111 248 248 248zM328 272c-17.7002 0 -32 -14.2998 -32 -32s14.2998 -32 32 -32s32 14.2998 32 32s-14.2998 32 -32 32zM168 272c-17.7002 0 -32 -14.2998 -32 -32s14.2998 -32 32 -32
s32 14.2998 32 32s-14.2998 32 -32 32zM338.2 53.7998c13.5 -16.2998 38.0996 4.2002 24.5 20.4004c-28.4004 34.2002 -70.2998 53.7998 -114.7 53.7998s-86.2998 -19.5996 -114.8 -53.7002c-13.5 -16.2998 11.0996 -36.7998 24.5996 -20.5
c22.4004 26.7998 55.2998 42.2002 90.2002 42.2002s67.7998 -15.4004 90.2002 -42.2002z"/>
			<glyph glyph-name="meh" unicode="&#xf11a;"
				   d="M248 440c137 0 248 -111 248 -248s-111 -248 -248 -248s-248 111 -248 248s111 248 248 248zM168 272c-17.7002 0 -32 -14.2998 -32 -32s14.2998 -32 32 -32s32 14.2998 32 32s-14.2998 32 -32 32zM344 80c21.2002 0 21.2002 32 0 32h-192c-21.2002 0 -21.2002 -32 0 -32
h192zM328 208c17.7002 0 32 14.2998 32 32s-14.2998 32 -32 32s-32 -14.2998 -32 -32s14.2998 -32 32 -32z"/>
			<glyph glyph-name="level-up" unicode="&#xf148;" horiz-adv-x="352"
				   d="M345.04 304c9.30664 -9.38379 9.27637 -24.5264 -0.0703125 -33.8711l-22.0557 -22.0557c-9.61914 -9.61914 -25.3008 -9.3291 -34.5566 0.638672l-56.3574 60.4482v-349.16c0 -13.2549 -10.7451 -24 -24 -24h-195.976c-10.6914 0 -16.0459 12.9258 -8.48535 20.4854
l56 56c1.93945 1.93945 5.74023 3.51465 8.4834 3.51465h0.00195312h83.9756v293.16l-56.3584 -60.4492c-9.25586 -9.96777 -24.9375 -10.2578 -34.5566 -0.638672l-22.0557 22.0557c-9.34668 9.3457 -9.37598 24.4883 -0.0693359 33.8721l136.001 136.901
c9.3877 9.46484 24.6914 9.46484 34.0791 0z"/>
			<glyph glyph-name="compass" unicode="&#xf14e;"
				   d="M225.38 214.63c12.4902 12.4902 32.75 12.4902 45.25 0s12.5 -32.75 0 -45.25c-12.4902 -12.5 -32.7598 -12.5 -45.25 0c-12.5 12.4902 -12.5 32.75 0 45.25zM248 440c136.97 0 248 -111.03 248 -248s-111.03 -248 -248 -248s-248 111.03 -248 248s111.03 248 248 248z
M374.14 291.95c7.61035 16.6494 -9.54004 33.7998 -26.1895 26.2002l-144.34 -65.9707c-5.97461 -2.73047 -13.04 -9.7959 -15.7705 -15.7695l-65.9795 -144.351c-7.61035 -16.6494 9.5498 -33.8096 26.1992 -26.1992l144.341 65.9697
c5.97363 2.73047 13.0391 9.7959 15.7695 15.7695z"/>
			<glyph glyph-name="dollar-sign" unicode="&#xf155;" horiz-adv-x="288"
				   d="M209.2 214.6c57.8994 -16.8994 94 -80.0996 72.5 -141.699c-15.4004 -44.1006 -59.1006 -71.8008 -105.7 -72.7002v-48.2002c0 -8.7998 -7.2002 -16 -16 -16h-32c-8.7998 0 -16 7.2002 -16 16v48c-31.4004 0.0996094 -62 10.7998 -86.5 30
c-7.90039 6.09961 -8.90039 17.5996 -1.7998 24.5l34.7998 34c5.2002 5.09961 13.4004 6.09961 19.5 2c10 -6.7998 22 -10.5 34.2002 -10.5h66.2998c16.2998 0 29.5 13.2002 29.5 29.5c0 13 -8.7002 24.5996 -21.2002 28.2998l-102.5 30
c-44.3994 13 -79.5996 50.5 -83.7998 96.6006c-5.90039 64.8994 45.2998 119.6 109 119.6h2.5v48c0 8.7998 7.2002 16 16 16h32c8.7998 0 16 -7.2002 16 -16v-48c31.4004 -0.0996094 62 -10.7998 86.5 -30c7.90039 -6.09961 8.90039 -17.5996 1.7998 -24.5l-34.7998 -34
c-5.2002 -5.09961 -13.4004 -6.09961 -19.5 -2c-10 6.7998 -22 10.5 -34.2002 10.5h-66.2998c-16.2998 0 -29.5 -13.2002 -29.5 -29.5c0 -13 8.7002 -24.7002 21.2002 -28.2998z"/>
			<glyph glyph-name="moon" unicode="&#xf186;" horiz-adv-x="512"
				   d="M283.211 -64c-141.489 0 -256 114.691 -256 256c0 141.489 114.691 256 256 256c13.0176 -0.00195312 33.9727 -1.91895 46.7754 -4.28027c11.0059 -2.0332 13.4414 -16.7178 3.75586 -22.2295c-62.8359 -35.7588 -101.498 -102.172 -101.498 -174.395
c0 -125.378 114.059 -220.607 238.262 -196.954c10.9229 2.08008 18.6299 -10.6416 11.5625 -19.3496c-47.7783 -58.8672 -119.896 -94.792 -198.857 -94.792z"/>
			<glyph glyph-name="university" unicode="&#xf19c;" horiz-adv-x="512"
				   d="M496 320v-16c0 -4.41602 -3.58398 -8 -8 -8h-24v-12c0 -6.62695 -5.37305 -12 -12 -12h-392c-6.62695 0 -12 5.37305 -12 12v12h-24c-4.41602 0 -8 3.58398 -8 8v16c0 2.95215 2.21387 6.26367 4.94141 7.3916l232 88
c0.810547 0.335938 2.18066 0.608398 3.05859 0.608398s2.24805 -0.272461 3.05859 -0.608398l232 -88c2.72754 -1.12793 4.94141 -4.43945 4.94141 -7.3916zM472 16c13.2549 0 24 -10.7451 24 -24v-16c0 -4.41602 -3.58398 -8 -8 -8h-464c-4.41602 0 -8 3.58398 -8 8v16
c0 13.2549 10.7451 24 24 24h432zM96 256h64v-192h64v192h64v-192h64v192h64v-192h36c6.62695 0 12 -5.37305 12 -12v-20h-416v20c0 6.62695 5.37305 12 12 12h36v192z"/>
			<glyph glyph-name="wifi" unicode="&#xf1eb;" horiz-adv-x="640"
				   d="M634.91 293.12c6.66016 -6.16016 6.79004 -16.5898 0.359375 -22.9805l-34.2393 -33.9697c-6.14062 -6.08984 -16.0205 -6.22949 -22.4004 -0.379883c-145.95 133.71 -371.33 133.68 -517.25 0c-6.37988 -5.84961 -16.2598 -5.71973 -22.3994 0.379883l-34.2402 33.9697
c-6.44043 6.39062 -6.31055 16.8203 0.349609 22.9805c177.101 163.81 452.65 163.87 629.82 0zM320 96c35.3496 0 64 -28.6504 64 -64s-28.6504 -64 -64 -64s-64 28.6504 -64 64s28.6504 64 64 64zM522.67 179.59c6.88965 -6.08984 7.12012 -16.6895 0.560547 -23.1494
l-34.4404 -33.9902c-6 -5.93066 -15.6602 -6.32031 -22.0498 -0.799805c-83.75 72.4092 -209.54 72.5693 -293.49 0c-6.38965 -5.52051 -16.0498 -5.12012 -22.0498 0.799805l-34.4404 33.9902c-6.5498 6.45996 -6.33008 17.0498 0.570312 23.1494
c115.13 101.82 290.08 101.93 405.34 0z"/>
			<glyph glyph-name="ship" unicode="&#xf21a;" horiz-adv-x="640"
				   d="M496.616 75.3613c17.8418 -44.3604 58.5664 -75.3613 119.384 -75.3613c13.2549 0 24 -10.7451 24 -24v-16c0 -13.2549 -10.7451 -24 -24 -24c-61.0322 0 -107.505 20.6162 -143.258 59.3965c-14.4189 -34.8281 -48.7637 -59.3965 -88.7422 -59.3965h-128
c-39.9785 0 -74.3232 24.5684 -88.7422 59.3965c-35.7588 -38.7861 -82.2344 -59.3965 -143.258 -59.3965c-13.2549 0 -24 10.7451 -24 24v16c0 13.2549 10.7451 24 24 24c61.5869 0 101.828 31.7129 119.384 75.3613l-70.0117 70.0117
c-16.918 16.9189 -9.91699 45.7793 12.8359 53.0918l41.792 13.4336v140.102c0 17.6729 14.3271 32 32 32h64v40c0 13.2549 10.7451 24 24 24h144c13.2549 0 24 -10.7451 24 -24v-40h64c17.6729 0 32 -14.3271 32 -32v-140.102l41.792 -13.4336
c22.7783 -7.32129 29.7354 -36.1914 12.8359 -53.0918zM192 320v-87.5312l118.208 37.9951c2.63574 0.847656 7.02344 1.53516 9.79199 1.53516s7.15625 -0.6875 9.79199 -1.53516l118.208 -37.9951v87.5312h-256z"/>
			<glyph glyph-name="venus" unicode="&#xf221;" horiz-adv-x="288"
				   d="M288 272c0 -68.5 -47.9004 -125.9 -112 -140.4v-51.5996h36c6.59961 0 12 -5.40039 12 -12v-40c0 -6.59961 -5.40039 -12 -12 -12h-36v-36c0 -6.59961 -5.40039 -12 -12 -12h-40c-6.59961 0 -12 5.40039 -12 12v36h-36c-6.59961 0 -12 5.40039 -12 12v40
c0 6.59961 5.40039 12 12 12h36v51.5996c-64.0996 14.5 -112 71.9004 -112 140.4c0 79.5 64.5 144 144 144s144 -64.5 144 -144zM64 272c0 -44.0996 35.9004 -80 80 -80s80 35.9004 80 80s-35.9004 80 -80 80s-80 -35.9004 -80 -80z"/>
			<glyph glyph-name="genderless" unicode="&#xf22d;" horiz-adv-x="288"
				   d="M144 272c-44.0996 0 -80 -35.9004 -80 -80s35.9004 -80 80 -80s80 35.9004 80 80s-35.9004 80 -80 80zM144 336c79.5 0 144 -64.5 144 -144s-64.5 -144 -144 -144s-144 64.5 -144 144s64.5 144 144 144z"/>
			<glyph glyph-name="user-circle" unicode="&#xf2bd;"
				   d="M248 440c137 0 248 -111 248 -248s-111 -248 -248 -248s-248 111 -248 248s111 248 248 248zM248 344c-48.5996 0 -88 -39.4004 -88 -88s39.4004 -88 88 -88s88 39.4004 88 88s-39.4004 88 -88 88zM248 0c58.7002 0 111.3 26.5996 146.5 68.2002
c-18.7998 35.3994 -55.5996 59.7998 -98.5 59.7998c-2.40039 0 -4.7998 -0.400391 -7.09961 -1.09961c-12.9004 -4.2002 -26.6006 -6.90039 -40.9004 -6.90039s-27.9004 2.7002 -40.9004 6.90039c-2.2998 0.699219 -4.69922 1.09961 -7.09961 1.09961
c-42.9004 0 -79.7002 -24.4004 -98.5 -59.7998c35.2002 -41.6006 87.7998 -68.2002 146.5 -68.2002z"/>
			<glyph glyph-name="usd-circle" unicode="&#xf2e8;"
				   d="M248 440c137 0 248 -111 248 -248s-111 -248 -248 -248s-248 111 -248 248s111 248 248 248zM272 64c37.5996 0.200195 68.2002 32.0996 68 71.4004c0 31.5996 -20.2002 59.7998 -49.2002 68.5996l-72 21.9004c-8.89941 2.7998 -15.2002 12.0996 -15.2002 22.6992
c0 12.9004 9.2002 23.4004 20.5 23.4004h45c7 0 13.8008 -1.7998 19.9004 -5.40039c6.40039 -3.7998 14.2998 -3.5 19.7002 1.60059l12 11.2998c7.7002 7.09961 6.39941 19.2998 -2.2998 25.2002c-13.8008 9.2998 -29.9004 14.5 -46.4004 15.0996v16.2002
c0 8.7998 -7.2002 16 -16 16h-16c-8.7998 0 -16 -7.2002 -16 -16v-16c-37.5996 -0.0996094 -68.2002 -32.0996 -68.2002 -71.4004c0 -31.5996 20.2002 -59.7998 49.2002 -68.5996l72.2002 -21.9004c8.89941 -2.7998 15.2002 -12.0996 15.2002 -22.6992
c0 -12.9004 -9.2002 -23.4004 -20.5 -23.4004h-45c-7 0 -13.8008 1.7998 -19.9004 5.40039c-6.40039 3.7998 -14.2998 3.5 -19.7002 -1.60059l-12 -11.2998c-7.7002 -7.09961 -6.39941 -19.2998 2.2998 -25.2002c13.8008 -9.2998 29.9004 -14.5 46.4004 -15.0996v-16.2002
c0 -8.7998 7.2002 -16 16 -16h16c8.7998 0 16 7.2002 16 16v16z"/>
			<glyph glyph-name="scrubber" unicode="&#xf2f8;"
				   d="M248 440c137 0 248 -111 248 -248s-111 -248 -248 -248s-248 111 -248 248s111 248 248 248zM248 128c35.2998 0 64 28.7002 64 64s-28.7002 64 -64 64s-64 -28.7002 -64 -64s28.7002 -64 64 -64z"/>
			<glyph glyph-name="arrow-alt-down" unicode="&#xf354;" horiz-adv-x="448"
				   d="M176 416h96c13.2998 0 24 -10.7002 24 -24v-200h103.8c21.4004 0 32.1006 -25.7998 17 -41l-175.8 -176c-9.40039 -9.40039 -24.5996 -9.40039 -34 0l-175.7 176c-15.0996 15.0996 -4.39941 41 17 41h103.7v200c0 13.2998 10.7002 24 24 24z"/>
			<glyph glyph-name="arrow-alt-up" unicode="&#xf357;" horiz-adv-x="448"
				   d="M272 -32h-96c-13.2998 0 -24 10.7002 -24 24v200h-103.8c-21.4004 0 -32.1006 25.7998 -17 41l175.8 176c9.40039 9.40039 24.5996 9.40039 34 0l175.8 -176c15.1006 -15.0996 4.40039 -41 -17 -41h-103.8v-200c0 -13.2998 -10.7002 -24 -24 -24z"/>
			<glyph glyph-name="baseball-ball" unicode="&#xf433;"
				   d="M368.5 84.0996c12.9004 -26.6992 30.2998 -50.1992 51.4004 -70.5996c-44.6006 -43 -105.101 -69.5 -171.9 -69.5c-66.9004 0 -127.5 26.5996 -172 69.7002c21.2002 20.3994 38.5996 44 51.5 70.7002l-28.7998 13.8994c-11.1006 -23 -26.1006 -43.2998 -44.2998 -61
c-34 42.4004 -54.4004 96.1006 -54.4004 154.7s20.4004 112.3 54.4004 154.8c17.7998 -17.2998 32.5 -37.0996 43.5 -59.3994l28.6992 14.0996c-12.7998 25.9004 -30 48.9004 -50.6992 68.7998c44.5996 43.1006 105.199 69.7002 172.1 69.7002
c67 0 127.6 -26.7002 172.2 -69.7998c-20.7998 -20 -38 -43 -50.7998 -69l28.6992 -14.1006c11 22.4004 25.8008 42.2002 43.6006 59.5c33.7998 -42.3994 54.2002 -96.0996 54.2002 -154.6c0 -58.5996 -20.5 -112.4 -54.5 -154.9c-18.1006 17.7002 -33 38 -44.1006 60.9004z
M140.2 116.1c17.2998 53.9004 14.2998 108.2 -0.700195 153.801l-30.4004 -10c13.3008 -40.2002 15.5 -87.6006 0.600586 -134zM356.5 269.5c-15 -45.5 -18 -99.7998 -0.700195 -153.8l30.5 9.7998c-14.8994 46.5 -12.5996 93.9004 0.600586 134z"/>
			<glyph glyph-name="basketball-ball" unicode="&#xf434;"
				   d="M212.3 437.7c-1.5 -50 -17 -95.4004 -44.7998 -131.2l-77.4004 77.4004c36 29.6992 78.4004 47.5 122.2 53.7998zM248 226l-46.2998 46.2998c37.2002 45.4004 57.5 103.8 58.7002 167.7c51.8994 -2.59961 103.1 -21.0996 145.5 -56.0996zM56.0996 349.9l77.4004 -77.4004
c-35.7002 -27.7998 -81.2002 -43.2998 -131.2 -44.7998c6.2998 43.7998 24.1006 86.2002 53.7998 122.2zM328.3 145.7l-46.2998 46.2998l157.9 157.9c35 -42.4004 53.5 -93.6006 56.0996 -145.5c-64 -1.30078 -122.4 -21.6006 -167.7 -58.7002zM248 158l46.2998 -46.2998
c-37.0996 -45.2998 -57.3994 -103.7 -58.7002 -167.7c-51.8994 2.59961 -103.1 21.2002 -145.5 56.0996zM439.9 34.0996l-77.4004 77.4004c35.7002 27.7002 81.0996 43.2002 131.2 44.7998c-6.2998 -43.7998 -24.1006 -86.2002 -53.7998 -122.2zM167.7 238.3
l46.2998 -46.2998l-157.9 -157.9c-35 42.4004 -53.5 93.6006 -56.0996 145.5c63.9004 1.10059 122.3 21.5 167.7 58.7002zM283.7 -53.7002c1.59961 50 17.0996 95.5 44.7998 131.2l77.4004 -77.4004c-36 -29.6992 -78.4004 -47.5 -122.2 -53.7998z"/>
			<glyph glyph-name="bowling-ball" unicode="&#xf436;"
				   d="M248 440c137 0 248 -111 248 -248s-111 -248 -248 -248s-248 111 -248 248s111 248 248 248zM120 256c17.7002 0 32 14.2998 32 32s-14.2998 32 -32 32s-32 -14.2998 -32 -32s14.2998 -32 32 -32zM184 352c0 -17.7002 14.2998 -32 32 -32s32 14.2998 32 32
s-14.2998 32 -32 32s-32 -14.2998 -32 -32zM232 208c17.7002 0 32 14.2998 32 32s-14.2998 32 -32 32s-32 -14.2998 -32 -32s14.2998 -32 32 -32z"/>
			<glyph glyph-name="football-ball" unicode="&#xf44e;"
				   d="M481.5 387.7c6.2998 -23.9004 13.7002 -61 14.5 -104.5l-156.6 156.8c43.5996 -0.900391 80.8994 -8.5 104.8 -14.9004c18.2002 -4.89941 32.5 -19.1992 37.2998 -37.3994zM14.5 -3.7002c-6.2998 23.9004 -13.7002 61 -14.5 104.5l156.6 -156.8
c-43.5996 0.900391 -80.8994 8.5 -104.8 14.9004c-18.2002 4.89941 -32.5 19.1992 -37.2998 37.3994zM4.2002 164.6c22.5996 152.7 138.899 252 271.399 271.4l216.301 -216.6c-22.7002 -152.7 -139 -252 -271.5 -271.4zM321.5 288.2l-28.2998 -28.5l-28.2998 28.2998
c-3.10059 3.09961 -8.2002 3.09961 -11.3008 0l-11.2998 -11.2998c-3.09961 -3.10059 -3.09961 -8.2002 0 -11.2998l28.2998 -28.3008l-22.5996 -22.5996l-28.2998 28.2998c-3.10059 3.10059 -8.2002 3.10059 -11.2998 0l-11.3008 -11.2998
c-3.09961 -3.09961 -3.09961 -8.2002 0 -11.2998l28.3008 -28.2998l-22.6006 -22.6006l-28.2998 28.2998c-3.09961 3.10059 -8.2002 3.10059 -11.2998 0l-11.2998 -11.2998c-3.10059 -3.09961 -3.10059 -8.2002 0 -11.2998l28.2998 -28.2002l-28.2998 -28.2998
c-3.10059 -3.09961 -3.10059 -8.2002 0 -11.2998l11.2998 -11.2998c3.09961 -3.10059 8.2002 -3.10059 11.2998 0l28.2998 28.2998l28.2998 -28.2998c3.10059 -3.10059 8.2002 -3.10059 11.3008 0l11.2998 11.2998c3.09961 3.09961 3.09961 8.2002 0 11.2998
l-28.2998 28.2998l22.5996 22.6006l28.2998 -28.3008c3.10059 -3.09961 8.2002 -3.09961 11.2998 0l11.3008 11.3008c3.09961 3.09961 3.09961 8.19922 0 11.2998l-28.3008 28.2998l22.6006 22.7002l28.2998 -28.2998c3.09961 -3.10059 8.2002 -3.10059 11.2998 0
l11.2998 11.2998c3.10059 3.09961 3.10059 8.2002 0 11.2998l-28.2998 28.2998l28.2998 28.2998c3.10059 3.10059 3.10059 8.2002 0 11.3008l-11.2998 11.2998c-3.09961 3.09961 -8.2002 3.09961 -11.2998 0z"/>
			<glyph glyph-name="tennis-ball" unicode="&#xf45e;"
				   d="M219 368.9c2.2002 -71.2002 -69 -149.7 -147.9 -147.801c-28 1.2002 -52.3994 -5.5 -71.0996 -18.3994c5.7998 134.7 113.8 232.1 237.4 237.3c-12.8008 -18.7002 -19.3008 -43.2002 -18.4004 -71.0996zM426.4 211.1c-46.8008 1.90039 -101.5 -21.5996 -138.7 -58.7998
c-37.1006 -37.0996 -60.2002 -91.5996 -58.7002 -138.7c0.599609 -19.5996 -3.2002 -64.6992 -55 -58.6992c-37.2002 11.5996 -72.2002 31.8994 -101.7 61.3994s-49.7998 64.5 -61.3994 101.7c-6.2002 51.9004 39.0996 55.5 58.6992 55
c47.4004 -1.7998 101.601 21.5 138.7 58.7998c37.1006 37.1006 60.2002 91.6006 58.7002 138.7c-0.599609 19.5 3.09961 64.7002 54.7998 58.7002c37.2002 -11.6006 72.2998 -32 101.8 -61.5s49.9004 -64.6006 61.5 -101.8
c6.10059 -51.7002 -39.2998 -55.2002 -58.6992 -54.8008zM424.9 163c27.8994 -0.900391 52.3994 5.59961 71 18.4004c-5.80078 -137.301 -116.4 -232.301 -237.4 -237.4c12.9004 18.7002 19.4004 43.2002 18.5 71.0996c-2.40039 77.5 76.4004 150.5 147.9 147.9z"/>
			<glyph glyph-name="heart-circle" unicode="&#xf4c7;"
				   d="M248 440c137 0 248 -111 248 -248s-111 -248 -248 -248s-248 111 -248 248s111 248 248 248zM371.5 167.7c32.2002 33.2002 30.2998 88.2002 -5.5 118.8c-31.2998 26.7002 -77.9004 21.9004 -106.6 -7.7002l-11.3008 -11.5996l-11.2998 11.5996
c-28.7002 29.6006 -75.2998 34.4004 -106.6 7.7002c-35.9004 -30.5996 -37.7998 -85.5996 -5.7002 -118.8l110.5 -114.2c7.2002 -7.40039 18.7998 -7.40039 25.9004 0z"/>
			<glyph glyph-name="smile-wink" unicode="&#xf4da;"
				   d="M0 192c0 137 111 248 248 248s248 -111 248 -248s-111 -248 -248 -248s-248 111 -248 248zM200 240c0 17.7002 -14.2998 32 -32 32s-32 -14.2998 -32 -32s14.2998 -32 32 -32s32 14.2998 32 32zM358.5 223.5l9.7002 -8.5c8.39941 -7.5 21.5 -0.299805 19.7998 10.7998
c-4 25.2002 -34.2002 42.1006 -59.9004 42.1006c-25.6992 0 -55.8994 -16.9004 -59.8994 -42.1006c-1.7998 -11.2002 11.5 -18.2002 19.7998 -10.7998l9.5 8.5c14.7998 13.2002 46.2002 13.2002 61 0zM157.8 122.2c-13.3994 16.2998 -38.0996 -4.10059 -24.5996 -20.4004
c28.5 -34.2002 70.2998 -53.7998 114.8 -53.7998s86.2998 19.5996 114.8 53.7002c13.5 16.2998 -11 36.7002 -24.5996 20.5c-22.4004 -26.7998 -55.2002 -42.2002 -90.2002 -42.2002s-67.7998 15.2998 -90.2002 42.2002z"/>
			<glyph glyph-name="wine-glass" unicode="&#xf4e3;" horiz-adv-x="288"
				   d="M216 -16c22.0898 0 40 -17.9102 40 -40c0 -4.41992 -3.58008 -8 -8 -8h-208c-4.41992 0 -8 3.58008 -8 8c0 22.0898 17.9102 40 40 40h40v117.18c-68.4697 15.8906 -118.05 79.9102 -111.4 154.16l15.96 178.11c0.730469 8.24023 7.55078 14.5498 15.7002 14.5498h223.48
c8.16016 0 14.9697 -6.30957 15.71 -14.5498l15.9502 -178.101c6.64941 -74.25 -42.9307 -138.27 -111.4 -154.159v-117.19h40z"/>
			<glyph glyph-name="compact-disc" unicode="&#xf51f;"
				   d="M248 440c137 0 248 -111 248 -248s-111 -248 -248 -248s-248 111 -248 248s111 248 248 248zM88 192c0 88.2002 71.7998 160 160 160v32c-105.9 0 -192 -86.0996 -192 -192h32zM248 96c53 0 96 43 96 96s-43 96 -96 96s-96 -43 -96 -96s43 -96 96 -96zM248 224
c17.7002 0 32 -14.2998 32 -32s-14.2998 -32 -32 -32s-32 14.2998 -32 32s14.2998 32 32 32z"/>
			<glyph glyph-name="store" unicode="&#xf54e;" horiz-adv-x="616"
				   d="M602 329.4c33.5996 -53.6006 3.7998 -128 -59 -136.4c-4.5 -0.599609 -9 -0.900391 -13.7002 -0.900391c-29.5 0 -55.7002 13 -73.7998 33.1006c-18 -20.1006 -44.2002 -33.1006 -73.7998 -33.1006c-29.5 0 -55.7998 13 -73.7998 33.1006
c-18 -20.1006 -44.2002 -33.1006 -73.8008 -33.1006c-29.5 0 -55.7998 13 -73.7998 33.1006c-18 -20.1006 -44.2002 -33.1006 -73.7998 -33.1006c-4.59961 0 -9.2002 0.300781 -13.7002 0.900391c-62.5996 8.5 -92.2998 82.9004 -58.7998 136.4l64.9004 103.6
c5.7998 9.2998 16.0996 15 27.0996 15h404c11 0 21.2998 -5.7002 27.0996 -15zM529.5 160c6.09961 0 12.0996 0.400391 18.2002 1.2002c5.59961 0.700195 11 2 16.3994 3.59961v-196.8c0 -17.7002 -14.2998 -32 -32 -32h-448c-17.6992 0 -32 14.2998 -32 32v196.8
c5.30078 -1.5 10.8008 -2.7998 16.4004 -3.59961c5.90039 -0.799805 12 -1.2002 18 -1.2002c10 0 19.9004 1.59961 29.5 3.7998v-99.7998h384v99.7998c9.59961 -2.2998 19.5 -3.7998 29.5 -3.7998z"/>
			<glyph glyph-name="angry" unicode="&#xf556;"
				   d="M248 440c137 0 248 -111 248 -248s-111 -248 -248 -248s-248 111 -248 248s111 248 248 248zM136 208c0 -17.7002 14.4004 -32 32.0996 -32c17.7002 0 32 14.2998 32 32c0 2.90039 -1 5.5 -1.69922 8.2002c0.599609 0 1.19922 -0.200195 1.69922 -0.200195
c6.90039 0 13.2002 4.5 15.3008 11.4004c2.59961 8.39941 -2.2002 17.3994 -10.7002 19.8994l-80 24c-8.5 2.5 -17.4004 -2.2002 -19.9004 -10.7002c-2.59961 -8.39941 2.2002 -17.3994 10.7002 -19.8994l31 -9.2998c-6.40039 -5.90039 -10.5 -14.1006 -10.5 -23.4004z
M304 53.7998c13.4004 -16.0996 38.2998 4 24.5 20.5c-20 24 -49.4004 37.7998 -80.5996 37.7998c-31.2002 0 -60.6006 -13.7998 -80.6006 -37.7998c-13.5996 -16.2998 11.1006 -36.7998 24.6006 -20.5c27.8994 33.4004 84.2998 33.4004 112.1 0zM380.6 240.7
c8.5 2.5 13.3008 11.3994 10.8008 19.8994c-2.5 8.40039 -11.5 13.2002 -19.9004 10.7002l-80 -24c-8.40039 -2.5 -13.2002 -11.3994 -10.7002 -19.8994c2.10059 -6.90039 8.40039 -11.4004 15.2998 -11.4004c0.600586 0 1.10059 0.0996094 1.7002 0.200195
c-0.799805 -2.60059 -1.7002 -5.2998 -1.7002 -8.2002c0 -17.7002 14.3008 -32 32 -32c17.7002 0 32 14.2998 32 32c0 9.2998 -4.19922 17.5996 -10.5 23.4004z"/>
			<glyph glyph-name="dizzy" unicode="&#xf567;"
				   d="M248 440c137 0 248 -111 248 -248s-111 -248 -248 -248s-248 111 -248 248s111 248 248 248zM152 233.4l28.7002 -28.7002c14.7002 -14.7998 37.7998 7.39941 22.5996 22.5996l-28.7002 28.7002l28.7002 28.7002c15 14.8994 -7.59961 37.5996 -22.5996 22.5996
l-28.7002 -28.7002l-28.7002 28.7002c-14.8994 15 -37.5996 -7.59961 -22.5996 -22.5996l28.7002 -28.7002l-28.7002 -28.7002c-15.2002 -15.0996 7.7998 -37.3994 22.5996 -22.5996zM248 32c35.2998 0 64 28.7002 64 64s-28.7002 64 -64 64s-64 -28.7002 -64 -64
s28.7002 -64 64 -64zM395.3 227.3l-28.7002 28.7002l28.7002 28.7002c15 14.8994 -7.59961 37.5996 -22.5996 22.5996l-28.7002 -28.7002l-28.7002 28.7002c-14.8994 15 -37.5996 -7.59961 -22.5996 -22.5996l28.7002 -28.7002l-28.7002 -28.7002
c-15.2002 -15.0996 7.7998 -37.3994 22.5996 -22.5996l28.7002 28.7002l28.7002 -28.7002c14.7002 -14.7998 37.7998 7.39941 22.5996 22.5996z"/>
			<glyph glyph-name="flushed" unicode="&#xf579;"
				   d="M344 248c13.2998 0 24 -10.7002 24 -24s-10.7002 -24 -24 -24s-24 10.7002 -24 24s10.7002 24 24 24zM152 248c13.2998 0 24 -10.7002 24 -24s-10.7002 -24 -24 -24s-24 10.7002 -24 24s10.7002 24 24 24zM248 440c137 0 248 -111 248 -248s-111 -248 -248 -248
s-248 111 -248 248s111 248 248 248zM80 224c0 -39.7998 32.2002 -72 72 -72s72 32.2002 72 72s-32.2002 72 -72 72s-72 -32.2002 -72 -72zM312 48c21.2002 0 21.2002 32 0 32h-128c-21.2002 0 -21.2002 -32 0 -32h128zM344 152c39.7998 0 72 32.2002 72 72
s-32.2002 72 -72 72s-72 -32.2002 -72 -72s32.2002 -72 72 -72z"/>
			<glyph glyph-name="frown-open" unicode="&#xf57a;"
				   d="M248 440c137 0 248 -111 248 -248s-111 -248 -248 -248s-248 111 -248 248s111 248 248 248zM136 240c0 -17.7002 14.2998 -32 32 -32s32 14.2998 32 32s-14.2998 32 -32 32s-32 -14.2998 -32 -32zM323.3 56.7002c11.4004 -3.5 22.5 6.2002 20.5 18.0996
c-7 39.9004 -60.0996 61.2002 -95.7998 61.2002s-88.7998 -21.2002 -95.7998 -61.2002c-2 -11.7998 9 -21.5996 20.5 -18.0996c31.2002 9.59961 59.3994 15.2998 75.2998 15.2998s44.0996 -5.7002 75.2998 -15.2998zM328 208c17.7002 0 32 14.2998 32 32s-14.2998 32 -32 32
s-32 -14.2998 -32 -32s14.2998 -32 32 -32z"/>
			<glyph glyph-name="globe-africa" unicode="&#xf57c;"
				   d="M248 440c136.97 0 248 -111.03 248 -248s-111.03 -248 -248 -248s-248 111.03 -248 248s111.03 248 248 248zM408 224.5c0 8.55957 6.94043 15.5 15.5 15.5h18.4297c-19.0693 76.9805 -82.6992 136.37 -161.92 149.21v-21.7002c0 -8.55957 -6.93945 -15.5 -15.5 -15.5
h-24.21c-5.17969 0 -10.0195 -2.58984 -12.8896 -6.89941l-8.08008 -12.1104c-2.13965 -3.20996 -5.40039 -5.5 -9.13965 -6.44043l-14.4502 -3.60938c-6.90039 -1.73047 -11.7402 -7.93066 -11.7402 -15.04v-4.40039c0 -8.55957 6.94043 -15.5 15.5 -15.5h90.0498
h0.00292969c3.54297 0 8.45215 -2.0332 10.957 -4.54004l6.91992 -6.91992c2.91016 -2.91016 6.85059 -4.54004 10.96 -4.54004h10.0908c8.55957 0 15.5 -6.93945 15.5 -15.5c0 -6.66992 -4.27051 -12.5898 -10.6006 -14.7002l-47.3096 -15.7695
c-3.90039 -1.2998 -8.15039 -1 -11.8301 0.839844l-14.7207 7.36035c-7.5791 3.7998 -15.9492 5.76953 -24.4297 5.76953h-0.889648c-10.0527 -0.00195312 -24.7383 -4.89941 -32.7803 -10.9297l-27.5801 -20.6904c-13.75 -10.3193 -21.8496 -26.5098 -21.8496 -43.6992
v-14.0605c0.00195312 -12.4902 7.16992 -29.7959 16 -38.6299c10.25 -10.2402 24.1396 -16 38.6299 -16h25.8799c8.55957 0 15.5 -6.94043 15.5 -15.5v-29.8896v-0.00390625c0 -10.2822 3.73145 -26.0898 8.33008 -35.2861
c4.7002 -9.40039 14.3096 -15.3398 24.8203 -15.3398c8.19824 0.000976562 18.542 5.53809 23.0898 12.3594l13.0293 19.5498c5.9248 8.88477 17.125 21.9482 25 29.1602c2.4707 2.27051 4.14062 5.27051 4.76074 8.56055l4.2998 22.8301
c0.439453 2.3291 1.41016 4.5293 2.83008 6.42969l18.7402 24.9795c2.00977 2.68066 3.09961 5.9502 3.09961 9.30078v11.3398c0 8.55957 -6.94043 15.5 -15.5 15.5h-8.20996c-5.17969 0 -10.0205 2.58984 -12.8896 6.89941l-13.2402 19.8604
c-5.66992 8.50977 -1.70996 20.0703 7.99023 23.2998l2.64941 0.879883c1.31641 0.4375 3.50977 0.792969 4.89746 0.792969c2.5918 0 6.44531 -1.16602 8.60254 -2.60254l18.21 -12.1396c2.15527 -1.43945 6.00781 -2.60742 8.59961 -2.60742
c2.01953 0 5.125 0.733398 6.93066 1.63672l15.3896 7.7002c5.25 2.62012 8.57031 7.99023 8.57031 13.8604v6.92969z"/>
			<glyph glyph-name="globe-americas" unicode="&#xf57d;"
				   d="M248 440c136.97 0 248 -111.03 248 -248s-111.03 -248 -248 -248s-248 111.03 -248 248s111.03 248 248 248zM330.29 82.4004c7.56934 7.52832 13.7168 22.3037 13.7197 32.9795v0.00488281c0 6.97266 -4 16.6338 -8.92969 21.5654l-13.6904 13.6895
c-6.00977 6 -14.1396 9.37012 -22.6299 9.37012h-66.75c-9.41016 4.70996 -21.4795 32 -32 32c-10.5195 0 -20.8994 2.4502 -30.3096 7.16016l-11.0801 5.54004c-4.0498 2.03027 -6.61035 6.16016 -6.61035 10.6904v0.00292969c0 4.75391 3.66016 9.83301 8.16992 11.3369
l31.1699 10.3896c1.3584 0.452148 3.62305 0.818359 5.05469 0.818359c3.30078 0 8.00293 -1.75488 10.4961 -3.91797l9.2793 -8.06055c1.4502 -1.25977 3.31055 -1.95996 5.24023 -1.95996h5.63965c5.94043 0 9.81055 6.25977 7.15039 11.5801l-15.5898 31.1904
c-0.464844 0.931641 -0.84082 2.53223 -0.84082 3.57227c0 1.86621 1.08398 4.43555 2.4209 5.7373l9.91992 9.65039c1.5 1.45996 3.5 2.26953 5.58008 2.26953h8.99023h0.00292969c1.82812 0 4.3623 1.04883 5.65625 2.33984l8 8
c3.12012 3.12012 3.12012 8.19043 0 11.3105l-4.68945 4.68945c-3.12012 3.12012 -3.12012 8.19043 0 11.3105l10.3398 10.3398l4.69043 4.67969c6.25 6.25 6.25 16.3799 0 22.6299l-28.3008 28.3008c-8.26953 -0.310547 -16.3994 -1.12988 -24.3896 -2.41992v-11.3008
c0 -11.8994 -12.5195 -19.6299 -23.1602 -14.3096l-24.0098 12.0098c-45.8398 -19.8496 -82.7305 -56.3896 -103.2 -101.89c9.92969 -14.7197 25.21 -37.3701 34.5898 -51.1406c4.29395 -6.3252 12.3848 -15.6172 18.0605 -20.7393l0.799805 -0.720703
c9.5498 -8.60938 20.1699 -15.9697 31.6504 -21.75c14 -7.0498 34.4395 -18.1592 48.8096 -26.1094c10.1904 -5.62988 16.46 -16.3301 16.46 -27.9707v-32.0098c0 -8.49023 3.37012 -16.6299 9.37012 -22.6299c14.9902 -14.9902 24.3203 -38.6299 22.6299 -51.25v-27.3799
c14.6504 0 28.8896 1.69043 42.6504 4.69043l17.3896 46.8496c2.04004 5.49023 3.25977 11.21 4.76953 16.8701c1.07031 4.00977 3.18066 7.70996 6.1709 10.71c3.31934 3.33008 7.40918 7.39941 11.3096 11.2803zM417 173.75l29.1797 -7.29004
c1.08008 8.37988 1.82031 16.8701 1.82031 25.54c0 32.1299 -7.7998 62.4102 -21.3203 89.3301l-12.9795 -6.49023c-3.74023 -1.85938 -6.91992 -4.67969 -9.24023 -8.14941l-19.5898 -29.3809c-2.22754 -3.33594 -4.03516 -9.29883 -4.03516 -13.3096
s1.80762 -9.97363 4.03516 -13.3096l17.9795 -26.9707c3.31055 -4.96973 8.36035 -8.51953 14.1504 -9.96973z"/>
			<glyph glyph-name="globe-asia" unicode="&#xf57e;"
				   d="M248 440c136.97 0 248 -111.03 248 -248s-111.03 -248 -248 -248s-248 111.03 -248 248s111.03 248 248 248zM236.66 199.77l17.3701 28.9502c1.7998 2.99023 6.2002 2.82031 7.75977 -0.299805c1.34961 -2.70996 4.12012 -4.41992 7.15039 -4.41992h3.05957
c4.41992 0 8 3.58008 8 8v78.1201c0 6.05957 -3.41992 11.5996 -8.83984 14.3096l-10.8301 5.41016c-5.49023 2.75 -5.96973 10.4004 -0.860352 13.8105l50.1602 38.5293c-19.4297 6.31055 -40.1201 9.82031 -61.6299 9.82031c-110.28 0 -200 -89.7197 -200 -200
c0 -10.9199 1.12012 -21.5498 2.80957 -31.9902h62.5703c4.24023 0 8.31055 1.69043 11.3105 4.69043l19.4697 19.46c3.85938 3.85938 10.3701 2.7998 12.8096 -2.08008l22.6201 -45.2305c2.70996 -5.42969 8.25 -8.84961 14.3105 -8.84961h6.10938
c8.83984 0 16 7.16016 16 16v9.37012c0 4.24023 -1.68945 8.30957 -4.68945 11.3096l-5.66016 5.66016c-3.12012 3.12012 -3.12012 8.19043 0 11.3105l5.66016 5.65918c3 3 7.06934 4.69043 11.3096 4.69043h0.310547c5.61914 0 10.8291 2.9502 13.7197 7.76953z
M408 89.5703l-0.00976562 24.5996c0 4.24023 -1.69043 8.31055 -4.69043 11.3105l-11.9102 11.9092c-1.5 1.5 -2.33984 3.54004 -2.33984 5.66016v12.9307c0 2.20996 -1.79004 4 -4 4h-6.05957c-1.78027 0 -3.33984 -1.1709 -3.83984 -2.88086l-4.2002 -14.4697
c-0.490234 -1.7002 -2.06055 -2.87988 -3.83984 -2.87988h-3.80078c-1.4707 0.000976562 -3.12305 1.10254 -3.68945 2.45996l-5.35059 12.8496c-1.23926 2.99023 -4.15918 4.93066 -7.38965 4.93066h-12.0898h-0.0117188c-1.4082 0 -3.48145 -0.663086 -4.62793 -1.48047
l-23.71 -16.8896c-1.73047 -1.23047 -3.61035 -2.25977 -5.59082 -3.0498l-39.3398 -15.7402c-3.04004 -1.21973 -5.0293 -4.16016 -5.0293 -7.42969v-10.2002v-0.00292969c0 -1.8291 1.04785 -4.36328 2.33984 -5.65723l11.9102 -11.9102
c3 -3 7.06934 -4.68945 11.3096 -4.68945h10.3398c1.31055 0 2.61035 0.15918 3.87988 0.479492l21.2705 5.32031c1.76465 0.441406 4.67383 0.798828 6.49316 0.798828c6.12012 0 14.5986 -3.51172 18.9268 -7.83887l13.0098 -13.0098
c3 -3 7.07031 -4.69043 11.3096 -4.69043h15.1602c4.24023 0 8.31055 1.69043 11.3105 4.69043l9.56934 9.56934c3 3 4.69043 7.07031 4.69043 11.3105z"/>
			<glyph glyph-name="grimace" unicode="&#xf57f;"
				   d="M248 440c137 0 248 -111 248 -248s-111 -248 -248 -248s-248 111 -248 248s111 248 248 248zM144 48v40h-40v-8c0 -17.7002 14.2998 -32 32 -32h8zM144 104v40h-8c-17.7002 0 -32 -14.2998 -32 -32v-8h40zM136 240c0 -17.7002 14.2998 -32 32 -32s32 14.2998 32 32
s-14.2998 32 -32 32s-32 -14.2998 -32 -32zM208 48v40h-48v-40h48zM208 104v40h-48v-40h48zM272 48v40h-48v-40h48zM272 104v40h-48v-40h48zM336 48v40h-48v-40h48zM336 104v40h-48v-40h48zM328 208c17.7002 0 32 14.2998 32 32s-14.2998 32 -32 32s-32 -14.2998 -32 -32
s14.2998 -32 32 -32zM392 80v8h-40v-40h8c17.7002 0 32 14.2998 32 32zM392 104v8c0 17.7002 -14.2998 32 -32 32h-8v-40h40z"/>
			<glyph glyph-name="grin" unicode="&#xf580;"
				   d="M248 440c137 0 248 -111 248 -248s-111 -248 -248 -248s-248 111 -248 248s111 248 248 248zM328 272c-17.7002 0 -32 -14.2998 -32 -32s14.2998 -32 32 -32s32 14.2998 32 32s-14.2998 32 -32 32zM168 272c-17.7002 0 -32 -14.2998 -32 -32s14.2998 -32 32 -32
s32 14.2998 32 32s-14.2998 32 -32 32zM248 16c60.5996 0 134.5 38.2998 143.8 93.2998c1.90039 11.7998 -9.39941 21.6006 -20.7002 17.9004c-30.1992 -9.7002 -75.0996 -15.2002 -123.1 -15.2002s-92.9004 5.5 -123.1 15.2002
c-11.4004 3.7002 -22.7002 -6.10059 -20.7002 -17.9004c9.2998 -55 83.2002 -93.2998 143.8 -93.2998z"/>
			<glyph glyph-name="grin-alt" unicode="&#xf581;"
				   d="M248 440c137 0 248 -111 248 -248s-111 -248 -248 -248s-248 111 -248 248s111 248 248 248zM311.7 311.3c-12.4004 -18.3994 -15.2002 -36.8994 -15.7002 -55.2998c0.599609 -18.4004 3.2998 -36.9004 15.7002 -55.2998c8 -11.7002 25.0996 -11.4004 32.7002 0
c12.3994 18.3994 15.1992 36.8994 15.6992 55.2998c-0.599609 18.4004 -3.2998 36.9004 -15.6992 55.2998c-8 11.7002 -25.1006 11.4004 -32.7002 0zM151.7 311.3c-12.4004 -18.3994 -15.2002 -36.8994 -15.7002 -55.2998
c0.599609 -18.4004 3.2998 -36.9004 15.7002 -55.2998c8 -11.7002 25.0996 -11.4004 32.7002 0c12.3994 18.3994 15.1992 36.8994 15.6992 55.2998c-0.599609 18.4004 -3.2998 36.9004 -15.6992 55.2998c-8 11.7002 -25.1006 11.4004 -32.7002 0zM248 16
c60.5996 0 134.5 38.2998 143.8 93.2998c1.90039 11.7998 -9.2998 21.6006 -20.7002 17.9004c-30.1992 -9.7002 -75.0996 -15.2002 -123.1 -15.2002s-92.9004 5.5 -123.1 15.2002c-11.4004 3.7002 -22.7002 -6.10059 -20.7002 -17.9004
c9.2998 -55 83.2002 -93.2998 143.8 -93.2998z"/>
			<glyph glyph-name="grin-beam" unicode="&#xf582;"
				   d="M248 440c137 0 248 -111 248 -248s-111 -248 -248 -248s-248 111 -248 248s111 248 248 248zM328 296c-23.7998 0 -52.7002 -29.2998 -55.7998 -71.4004c-0.700195 -8.5 10.7998 -11.7998 14.8994 -4.5l9.5 17c7.7002 13.7002 19.2002 21.6006 31.5 21.6006
c12.3008 0 23.8008 -7.90039 31.5 -21.6006l9.5 -17c4.10059 -7.39941 15.6006 -4.09961 14.9004 4.5c-3.2998 42.1006 -32.2002 71.4004 -56 71.4004zM168 296c-23.7998 0 -52.7002 -29.2998 -55.7998 -71.4004c-0.700195 -8.5 10.7002 -11.8994 14.8994 -4.5l9.5 17
c7.7002 13.7002 19.2002 21.6006 31.5 21.6006c12.3008 0 23.8008 -7.90039 31.5 -21.6006l9.5 -17c4.10059 -7.39941 15.6006 -4.09961 14.9004 4.5c-3.2998 42.1006 -32.2002 71.4004 -56 71.4004zM248 16c60.5996 0 134.5 38.2998 143.8 93.2998
c1.90039 11.7998 -9.2998 21.6006 -20.7002 17.9004c-30.1992 -9.7002 -75.0996 -15.2002 -123.1 -15.2002s-92.9004 5.5 -123.1 15.2002c-11.3008 3.7002 -22.7002 -6 -20.7002 -17.9004c9.2998 -55 83.2002 -93.2998 143.8 -93.2998z"/>
			<glyph glyph-name="grin-beam-sweat" unicode="&#xf583;" horiz-adv-x="504"
				   d="M456 320c-26.5 0 -48 21 -48 47c0 20 28.5 60.4004 41.5996 77.7998c3.2002 4.2998 9.60059 4.2998 12.8008 0c13.0996 -17.3994 41.5996 -57.7998 41.5996 -77.7998c0 -26 -21.5 -47 -48 -47zM456 288c6.7998 0 13.2002 1.09961 19.5 2.59961
c13.0996 -30.1992 20.5 -63.5 20.5 -98.5996c0 -137 -111 -248 -248 -248s-248 111 -248 248s111 248 248 248c50.2998 0 97 -15.0996 136.1 -40.7998c-7.7998 -18 -8.09961 -27.7998 -8.09961 -32.2002c0 -43.5996 35.9004 -79 80 -79zM328 296
c-23.7998 0 -52.7002 -29.2998 -55.7998 -71.4004c-0.700195 -8.5 10.7998 -11.8994 14.8994 -4.5l9.5 17c7.7002 13.7002 19.2002 21.6006 31.5 21.6006c12.3008 0 23.8008 -7.90039 31.5 -21.6006l9.5 -17c4.10059 -7.5 15.6006 -4.09961 14.9004 4.5
c-3.2998 42.1006 -32.2002 71.4004 -56 71.4004zM168 296c-23.7998 0 -52.7002 -29.2998 -55.7998 -71.4004c-0.700195 -8.5 10.7002 -11.8994 14.8994 -4.5l9.5 17c7.7002 13.7002 19.2002 21.6006 31.5 21.6006c12.3008 0 23.8008 -7.90039 31.5 -21.6006l9.5 -17
c4.10059 -7.5 15.6006 -4.09961 14.9004 4.5c-3.2998 42.1006 -32.2002 71.4004 -56 71.4004zM248 16c60.5996 0 134.5 38.2998 143.8 93.2998c1.90039 11.7002 -9.2002 21.6006 -20.7002 17.9004c-30.1992 -9.7002 -75.0996 -15.2002 -123.1 -15.2002
s-92.9004 5.5 -123.1 15.2002c-11.4004 3.7002 -22.7002 -6.10059 -20.7002 -17.9004c9.2998 -55 83.2002 -93.2998 143.8 -93.2998z"/>
			<glyph glyph-name="grin-hearts" unicode="&#xf584;"
				   d="M248 440c137 0 248 -111 248 -248s-111 -248 -248 -248s-248 111 -248 248s111 248 248 248zM90.4004 264.4c-7.7002 -20.2002 3.7998 -41.8008 24.1992 -47.2002l70.2002 -18.2002c4.60059 -1.2002 9.2998 1.5 10.5 6l19.4004 69.9004
c5.59961 20.2998 -7.40039 41.0996 -28.7998 44.5c-18.7002 3 -36.5 -9.80078 -41.5 -27.9004l-2 -7.09961l-7.10059 1.89941c-18.2002 4.7998 -38.2002 -4.2998 -44.8994 -21.8994zM248 16c60.5996 0 134.5 38.2998 143.8 93.2998
c1.90039 11.7998 -9.2998 21.5 -20.7002 17.9004c-30.1992 -9.7002 -75.0996 -15.2002 -123.1 -15.2002s-92.9004 5.5 -123.1 15.2002c-11.5 3.59961 -22.7002 -6.10059 -20.7002 -17.9004c9.2998 -55 83.2002 -93.2998 143.8 -93.2998zM381.4 217.3
c20.3994 5.2998 31.8994 26.9004 24.1992 47.2002c-6.69922 17.5996 -26.6992 26.5996 -44.8994 21.9004l-7.10059 -1.90039l-2 7.09961c-5.09961 18.1006 -22.8994 30.9004 -41.5 27.9004c-21.3994 -3.40039 -34.3994 -24.2002 -28.7998 -44.5l19.4004 -69.9004
c1.2998 -4.5 6 -7.19922 10.5 -6z"/>
			<glyph glyph-name="grin-squint" unicode="&#xf585;"
				   d="M248 440c137 0 248 -111 248 -248s-111 -248 -248 -248s-248 111 -248 248s111 248 248 248zM281.8 250.3c-7.7002 -4.7002 -7.7002 -15.8994 0 -20.5996l80 -48c11.5 -6.7998 24.1006 7.59961 15.4004 18l-33.6006 40.2998l33.6006 40.2998
c8.59961 10.2998 -3.7998 24.9004 -15.4004 18zM118.8 280.3l33.6006 -40.2998l-33.6006 -40.2998c-8.59961 -10.4004 3.90039 -24.7998 15.4004 -18l80 48c7.7998 4.7002 7.7998 15.8994 0 20.5996l-80 48c-11.6006 6.90039 -24 -7.7002 -15.4004 -18zM248 16
c60.5996 0 134.5 38.2998 143.8 93.2998c1.90039 11.7002 -9.2002 21.6006 -20.7002 17.9004c-30.1992 -9.7002 -75.0996 -15.2002 -123.1 -15.2002s-92.9004 5.5 -123.1 15.2002c-11.3008 3.7002 -22.7002 -6 -20.7002 -17.9004
c9.2998 -55 83.2002 -93.2998 143.8 -93.2998z"/>
			<glyph glyph-name="grin-stars" unicode="&#xf587;"
				   d="M248 440c137 0 248 -111 248 -248s-111 -248 -248 -248s-248 111 -248 248s111 248 248 248zM94.5996 279.1c-6.19922 -1 -8.89941 -8.59961 -4.2998 -13.2998l25.4004 -24.5996l-6 -34.9004c-1 -6.2002 5.2998 -11 11 -7.89941l31.2998 16.2998l31.2002 -16.2002
c5.7002 -3.09961 12 1.7002 11 7.90039l-6 34.8994l25.3994 24.6006c4.60059 4.59961 1.90039 12.1992 -4.2998 13.1992l-34.8994 5l-15.5 31.6006c-2.90039 5.7998 -11 5.7998 -13.9004 0l-15.5 -31.6006zM248 16c60.5996 0 134.5 38.2998 143.8 93.2998
c1.90039 11.7998 -9.2002 21.6006 -20.7002 17.9004c-30.1992 -9.7002 -75.0996 -15.2002 -123.1 -15.2002s-92.9004 5.5 -123.1 15.2002c-11.4004 3.59961 -22.7002 -6.10059 -20.7002 -17.9004c9.2998 -55 83.2002 -93.2998 143.8 -93.2998zM405.7 265.9
c4.59961 4.59961 1.89941 12.1992 -4.40039 13.0996l-34.8994 5l-15.5 31.5996c-2.90039 5.80078 -11 5.80078 -13.9004 0l-15.5 -31.5996l-34.9004 -5c-6.19922 -1 -8.7998 -8.59961 -4.2998 -13.2002l25.4004 -24.5996l-6 -34.9004c-1 -6.2002 5.2998 -11 11 -7.89941
l31.2998 16.2998l31.2998 -16.2002c5.7002 -3.09961 12 1.7002 11 7.90039l-6 34.8994z"/>
			<glyph glyph-name="grin-tongue" unicode="&#xf589;"
				   d="M248 440c137 0 248 -111 248 -248c0 -106.3 -67 -196.7 -161 -232c5.59961 12.2002 9 25.7002 9 40v45.5c24.7002 16.2002 43.5 38.0996 47.7998 63.7998c1.90039 11.7998 -9.2998 21.5 -20.7002 17.9004c-30.1992 -9.7002 -75.0996 -15.2002 -123.1 -15.2002
s-92.9004 5.5 -123.1 15.2002c-11.4004 3.59961 -22.7002 -6.10059 -20.7002 -17.9004c4.2998 -25.7002 23.0996 -47.5996 47.7998 -63.7998v-45.5c0 -14.2998 3.40039 -27.7998 9 -40c-94 35.2998 -161 125.7 -161 232c0 137 111 248 248 248zM168 208
c17.7002 0 32 14.2998 32 32s-14.2998 32 -32 32s-32 -14.2998 -32 -32s14.2998 -32 32 -32zM328 208c17.7002 0 32 14.2998 32 32s-14.2998 32 -32 32s-32 -14.2998 -32 -32s14.2998 -32 32 -32zM293.1 73.4004c0.800781 -0.400391 -0.5 0.299805 19 -9.30078v-64
c0 -35.5996 -29.1992 -64.5 -64.8994 -64c-35.1006 0.400391 -63.1006 29.7002 -63.1006 64.9004v63c19.2002 9.59961 18 9 18.9004 9.40039c14.4004 6.5 31.0996 -2.2002 34.5996 -17.6006l1.80078 -7.7998c2.09961 -9.2002 15.1992 -9.2002 17.2998 0l1.7998 7.7998
c3.5 15.4004 20.2002 24.1006 34.5996 17.6006z"/>
			<glyph glyph-name="grin-tongue-squint" unicode="&#xf58a;"
				   d="M293.1 73.4004c0.800781 -0.400391 -0.5 0.299805 19 -9.30078v-64c0 -35.5996 -29.1992 -64.5 -64.8994 -64c-35.1006 0.400391 -63.1006 29.7002 -63.1006 64.9004v63c19.2002 9.59961 18 9 18.9004 9.40039c14.4004 6.5 31.0996 -2.2002 34.5996 -17.6006
l1.80078 -7.7998c2.09961 -9.2002 15.1992 -9.2002 17.2998 0l1.7998 7.7998c3.5 15.4004 20.2002 24.1006 34.5996 17.6006zM248 440c137 0 248 -111 248 -248c0 -106.3 -67 -196.7 -161 -232c5.59961 12.2002 9 25.7002 9 40v45.5
c24.7002 16.2002 43.5 38.0996 47.7998 63.7998c1.90039 11.7998 -9.2998 21.6006 -20.7002 17.9004c-30.1992 -9.7002 -75.0996 -15.2002 -123.1 -15.2002s-92.9004 5.5 -123.1 15.2002c-11.5 3.59961 -22.7002 -6.10059 -20.7002 -17.9004
c4.2998 -25.7002 23.0996 -47.5996 47.7998 -63.7998v-45.5c0 -14.2998 3.40039 -27.7998 9 -40c-94 35.2998 -161 125.7 -161 232c0 137 111 248 248 248zM214.2 229.7c7.7002 4.7002 7.7002 15.8994 0 20.5996l-80 48c-11.6006 6.90039 -24 -7.7002 -15.4004 -18
l33.6006 -40.2998l-33.6006 -40.2998c-8.59961 -10.4004 3.90039 -24.7998 15.4004 -18zM377.2 199.7l-33.6006 40.2998l33.6006 40.2998c8.5 10.2998 -3.7002 24.9004 -15.4004 18l-80 -48c-7.7998 -4.7002 -7.7998 -15.8994 0 -20.5996l80 -48
c11.5 -6.7998 24.1006 7.59961 15.4004 18z"/>
			<glyph glyph-name="grin-wink" unicode="&#xf58c;"
				   d="M0 192c0 137 111 248 248 248s248 -111 248 -248s-111 -248 -248 -248s-248 111 -248 248zM200 240c0 17.7002 -14.2998 32 -32 32s-32 -14.2998 -32 -32s14.2998 -32 32 -32s32 14.2998 32 32zM368 215c8.5 -7.40039 21.5996 -0.200195 20 10.7998
c-4 25.2002 -34.2002 42.1006 -59.9004 42.1006c-25.6992 0 -55.8994 -16.9004 -59.8994 -42.1006c-1.7998 -11.2002 11.5 -18.2002 19.7998 -10.7998l9.5 8.5c14.7998 13.2002 46.2002 13.2002 61 0zM124.9 127.2c-11.4004 3.7002 -22.7002 -6 -20.7002 -17.9004
c9.2998 -55 83.2002 -93.2998 143.8 -93.2998s134.6 38.2998 143.8 93.2998c1.90039 11.9004 -9.39941 21.6006 -20.7002 17.9004c-30.1992 -9.7002 -75.0996 -15.2002 -123.1 -15.2002s-92.9004 5.5 -123.1 15.2002z"/>
			<glyph glyph-name="kiss" unicode="&#xf596;"
				   d="M248 440c137 0 248 -111 248 -248s-111 -248 -248 -248s-248 111 -248 248s111 248 248 248zM168 208c17.7002 0 32 14.2998 32 32s-14.2998 32 -32 32s-32 -14.2998 -32 -32s14.2998 -32 32 -32zM304 52c0 13 -13.4004 27.2998 -35.2002 36.4004
c21.7998 8.69922 35.2002 23 35.2002 36c0 19.1992 -28.7002 41.5 -71.5 44c-8.40039 1.09961 -12.2002 -11.8008 -3.59961 -15.4004l17 -7.2002c13 -5.5 20.7998 -13.5 20.7998 -21.5s-7.7998 -16 -20.7998 -21.5l-17 -7.2002c-6.10059 -2.59961 -6 -12.2998 0 -14.7998
l17 -7.2002c13 -5.5 20.7998 -13.5 20.7998 -21.5s-7.7998 -16 -20.7998 -21.5l-17 -7.19922c-8.5 -3.60059 -4.90039 -16.2002 3.59961 -15.4004c42.7998 2.5 71.5 24.7998 71.5 44zM328 208c17.7002 0 32 14.2998 32 32s-14.2998 32 -32 32s-32 -14.2998 -32 -32
s14.2998 -32 32 -32z"/>
			<glyph glyph-name="kiss-beam" unicode="&#xf597;"
				   d="M248 440c137 0 248 -111 248 -248s-111 -248 -248 -248s-248 111 -248 248s111 248 248 248zM209 220.1c4.2002 -7.5 15.5996 -4 15.0996 4.5c-3.2998 42.1006 -32.1992 71.4004 -56 71.4004c-23.7998 0 -52.6992 -29.2998 -56 -71.4004
c-0.699219 -8.5 10.7002 -11.8994 14.9004 -4.5l9.5 17c7.7002 13.7002 19.2002 21.6006 31.5 21.6006s23.7998 -7.90039 31.5 -21.6006zM304 52c0 13 -13.4004 27.2998 -35.2002 36.4004c21.7998 8.69922 35.2002 23 35.2002 36c0 19.1992 -28.7002 41.5 -71.5 44
c-8.40039 1.09961 -12.2002 -11.8008 -3.59961 -15.4004l17 -7.2002c13 -5.5 20.7998 -13.5 20.7998 -21.5s-7.7998 -16 -20.7998 -21.5l-17 -7.2002c-6.10059 -2.59961 -6 -12.2998 0 -14.7998l17 -7.2002c13 -5.5 20.7998 -13.5 20.7998 -21.5s-7.7998 -16 -20.7998 -21.5
l-17 -7.19922c-8.5 -3.60059 -4.90039 -16.2002 3.59961 -15.4004c42.7998 2.5 71.5 24.7998 71.5 44zM369 220.1c4.2002 -7.5 15.5996 -4 15.0996 4.5c-3.2998 42.1006 -32.1992 71.4004 -56 71.4004c-23.7998 0 -52.6992 -29.2998 -56 -71.4004
c-0.699219 -8.5 10.8008 -11.7998 14.9004 -4.5l9.5 17c7.7002 13.7002 19.2002 21.6006 31.5 21.6006s23.7998 -7.90039 31.5 -21.6006z"/>
			<glyph glyph-name="kiss-wink-heart" unicode="&#xf598;" horiz-adv-x="504"
				   d="M501.1 45.5c9.2002 -23.9004 -4.39941 -49.4004 -28.5 -55.7002l-83 -21.5c-5.39941 -1.39941 -10.8994 1.7998 -12.3994 7.10059l-22.9004 82.5996c-6.59961 24 8.7998 48.5996 34 52.5996c22 3.5 43.1006 -11.5996 49 -33l2.2998 -8.39941l8.40039 2.2002
c21.5996 5.59961 45.0996 -5.10059 53.0996 -25.9004zM323.5 49.5c0 0 23.5996 -83.9004 23.9004 -84.5996c-30.5 -13.4004 -64 -20.9004 -99.4004 -20.9004c-137 0 -248 111 -248 248s111 248 248 248s248 -111 248 -248c0 -31.7998 -6.2002 -62.0996 -17.0996 -90
c-6 1.5 -12.2002 2.7998 -18.6006 2.90039c-29.0996 49.7998 -98.0996 50.5996 -127.8 4.2998c-11.2998 -17.7002 -14.5996 -39.4004 -9 -59.7002zM168 208c17.7002 0 32 14.2998 32 32s-14.2998 32 -32 32s-32 -14.2998 -32 -32s14.2998 -32 32 -32zM288 52
c0 13 -13.4004 27.2998 -35.2002 36.4004c21.7998 8.69922 35.2002 23 35.2002 36c0 19.1992 -28.7002 41.5 -71.5 44c-8.2002 1.19922 -12.4004 -11.7002 -3.59961 -15.4004l17 -7.2002c13 -5.5 20.7998 -13.5 20.7998 -21.5s-7.7998 -16 -20.7998 -21.5l-17 -7.2002
c-5.7002 -2.5 -6 -12.2998 0 -14.7998l17 -7.2002c13 -5.5 20.7998 -13.5 20.7998 -21.5s-7.7998 -16 -20.7998 -21.5l-17 -7.19922c-8.5 -3.60059 -4.90039 -16.2002 3.59961 -15.4004c42.7998 2.5 71.5 24.7998 71.5 44zM304 231l9.7002 8.5
c14.7998 13.2002 46.2002 13.2002 61 0l9.5 -8.5c8.5 -7.5 21.5 -0.299805 19.7998 10.7998c-4 25.2002 -34.2002 42.1006 -59.9004 42.1006c-25.6992 0 -55.8994 -16.9004 -59.8994 -42.1006c-1.7998 -11.2002 11.5 -18.2002 19.7998 -10.7998z"/>
			<glyph glyph-name="laugh" unicode="&#xf599;"
				   d="M248 440c137 0 248 -111 248 -248s-111 -248 -248 -248s-248 111 -248 248s111 248 248 248zM328 288c-17.7002 0 -32 -14.2998 -32 -32s14.2998 -32 32 -32s32 14.2998 32 32s-14.2998 32 -32 32zM168 288c-17.7002 0 -32 -14.2998 -32 -32s14.2998 -32 32 -32
s32 14.2998 32 32s-14.2998 32 -32 32zM256 16c73.4004 0 134 55 142.9 126c1.19922 9.59961 -6.30078 18 -15.9004 18h-270c-9.59961 0 -17.0996 -8.5 -15.9004 -18c8.90039 -71 69.5 -126 142.9 -126h16z"/>
			<glyph glyph-name="laugh-beam" unicode="&#xf59a;"
				   d="M248 440c137 0 248 -111 248 -248s-111 -248 -248 -248s-248 111 -248 248s111 248 248 248zM272 240.6c-0.700195 -8.59961 10.9004 -11.8994 15.0996 -4.5l9.5 17c7.7002 13.7002 19.2002 21.6006 31.5 21.6006c12.3008 0 23.8008 -7.90039 31.5 -21.6006l9.5 -17
c4.10059 -7.39941 15.6006 -4.09961 14.9004 4.5c-3.2998 42.1006 -32.2002 71.4004 -56 71.4004s-52.7002 -29.2998 -56 -71.4004zM112 240.6c-0.700195 -8.5 10.7998 -11.8994 15.0996 -4.5l9.5 17c7.7002 13.7002 19.2002 21.6006 31.5 21.6006
c12.3008 0 23.8008 -7.90039 31.5 -21.6006l9.5 -17c4.10059 -7.39941 15.6006 -4.09961 14.9004 4.5c-3.2998 42.1006 -32.2002 71.4004 -56 71.4004s-52.7002 -29.2998 -56 -71.4004zM398.9 142c1.19922 9.59961 -6.30078 18 -15.9004 18h-270
c-9.59961 0 -17.0996 -8.5 -15.9004 -18c8.90039 -71 69.5 -126 142.9 -126h16c73.4004 0 134 55 142.9 126z"/>
			<glyph glyph-name="laugh-squint" unicode="&#xf59b;"
				   d="M248 440c137 0 248 -111 248 -248s-111 -248 -248 -248s-248 111 -248 248s111 248 248 248zM281.8 278.3c-7.7002 -4.7002 -7.7002 -15.8994 0 -20.5996l80 -48c11.5 -6.7998 24.1006 7.59961 15.4004 18l-33.6006 40.2998l33.6006 40.2998
c8.59961 10.2998 -3.7998 24.9004 -15.4004 18zM118.8 308.3l33.6006 -40.2998l-33.6006 -40.2998c-8.59961 -10.4004 3.90039 -24.7998 15.4004 -18l80 48c7.7998 4.7002 7.7998 15.8994 0 20.5996l-80 48c-11.6006 6.90039 -24 -7.7002 -15.4004 -18zM398.9 142
c1.19922 9.59961 -6.30078 18 -15.9004 18h-270c-9.59961 0 -17.0996 -8.5 -15.9004 -18c8.90039 -71 69.5 -126 142.9 -126h16c73.4004 0 134 55 142.9 126z"/>
			<glyph glyph-name="laugh-wink" unicode="&#xf59c;"
				   d="M248 440c137 0 248 -111 248 -248s-111 -248 -248 -248s-248 111 -248 248s111 248 248 248zM268.1 241.9c-1.69922 -11.2002 11.5 -18.3008 19.9004 -10.9004l9.59961 8.59961c14.8008 13.2002 46.2002 13.2002 61 0l9.5 -8.5
c8.40039 -7.5 21.5 -0.299805 19.8008 10.8008c-4 25.1992 -34.2002 42.0996 -59.9004 42.0996s-55.9004 -16.9004 -59.9004 -42.0996zM168 288c-17.7002 0 -32 -14.2998 -32 -32s14.2998 -32 32 -32s32 14.2998 32 32s-14.2998 32 -32 32zM398.9 142
c1.19922 9.59961 -6.30078 18 -15.9004 18h-270c-9.59961 0 -17.0996 -8.5 -15.9004 -18c8.90039 -71 69.5 -126 142.9 -126h16c73.4004 0 134 55 142.9 126z"/>
			<glyph glyph-name="meh-blank" unicode="&#xf5a4;"
				   d="M248 440c137 0 248 -111 248 -248s-111 -248 -248 -248s-248 111 -248 248s111 248 248 248zM168 208c17.7002 0 32 14.2998 32 32s-14.2998 32 -32 32s-32 -14.2998 -32 -32s14.2998 -32 32 -32zM328 208c17.7002 0 32 14.2998 32 32s-14.2998 32 -32 32
s-32 -14.2998 -32 -32s14.2998 -32 32 -32z"/>
			<glyph glyph-name="meh-rolling-eyes" unicode="&#xf5a5;"
				   d="M248 440c137 0 248 -111 248 -248s-111 -248 -248 -248s-248 111 -248 248s111 248 248 248zM88 224c0 -35.2998 28.7002 -64 64 -64s64 28.7002 64 64c0 24.2998 -13.7002 45.2002 -33.5996 56c0.699219 -2.59961 1.59961 -5.2002 1.59961 -8
c0 -17.7002 -14.2998 -32 -32 -32s-32 14.2998 -32 32c0 2.7998 0.900391 5.40039 1.59961 8c-19.8994 -10.7998 -33.5996 -31.7002 -33.5996 -56zM312 48c21.2002 0 21.2002 32 0 32h-128c-21.2002 0 -21.2002 -32 0 -32h128zM344 160c35.2998 0 64 28.7002 64 64
c0 24.2998 -13.7002 45.2002 -33.5996 56c0.699219 -2.59961 1.59961 -5.2002 1.59961 -8c0 -17.7002 -14.2998 -32 -32 -32s-32 14.2998 -32 32c0 2.7998 0.900391 5.40039 1.59961 8c-19.8994 -10.7998 -33.5996 -31.7002 -33.5996 -56c0 -35.2998 28.7002 -64 64 -64z
"/>
			<glyph glyph-name="sad-cry" unicode="&#xf5b3;"
				   d="M248 440c137 0 248 -111 248 -248c0 -90 -48.2002 -168.7 -120 -212.1v180.1c0 8.7998 -7.2002 16 -16 16s-16 -7.2002 -16 -16v-196.7c-29.5 -12.3994 -62 -19.2998 -96 -19.2998s-66.5 6.90039 -96 19.2998v196.7c0 8.7998 -7.2002 16 -16 16s-16 -7.2002 -16 -16
v-180.1c-71.7998 43.3994 -120 122 -120 212.1c0 137 111 248 248 248zM182.5 223.5l9.7002 -8.5c2.5 -2.2998 7.89941 -4.7002 13.7002 -1.59961c4.39941 2.39941 6.89941 7.39941 6.09961 12.3994c-4 25.2002 -34.2002 42.1006 -59.9004 42.1006
c-25.6992 0 -55.8994 -16.9004 -59.8994 -42.1006c-0.799805 -5 1.7002 -10 6.09961 -12.3994c4.40039 -2.40039 9.90039 -1.7002 13.7002 1.59961l9.5 8.5c14.7998 13.2002 46.2002 13.2002 61 0zM248 32c26.5 0 48 28.7002 48 64s-21.5 64 -48 64s-48 -28.7002 -48 -64
s21.5 -64 48 -64zM397.8 213.5c4.40039 2.40039 6.7998 7.40039 6.2002 12.2998c-4 25.2002 -34.2002 42.1006 -59.9004 42.1006c-25.6992 0 -55.8994 -16.9004 -59.8994 -42.1006c-0.799805 -5 1.7002 -10 6.09961 -12.3994
c4.40039 -2.40039 9.90039 -1.7002 13.7002 1.59961l9.59961 8.59961c14.8008 13.2002 46.2002 13.2002 61 0l9.5 -8.5c2.5 -2.2998 7.90039 -4.69922 13.7002 -1.59961z"/>
			<glyph glyph-name="sad-tear" unicode="&#xf5b4;"
				   d="M248 440c137 0 248 -111 248 -248s-111 -248 -248 -248s-248 111 -248 248s111 248 248 248zM328 272c-17.7002 0 -32 -14.2998 -32 -32s14.2998 -32 32 -32s32 14.2998 32 32s-14.2998 32 -32 32zM152 32c26.5 0 48 21 48 47c0 20 -28.5 60.4004 -41.5996 77.7998
c-3.2002 4.2998 -9.60059 4.2998 -12.8008 0c-13.0996 -17.3994 -41.5996 -57.7998 -41.5996 -77.7998c0 -26 21.5 -47 48 -47zM168 208c17.7002 0 32 14.2998 32 32s-14.2998 32 -32 32s-32 -14.2998 -32 -32s14.2998 -32 32 -32zM338.2 53.7998
c13.2998 -16.0996 38.2998 4 24.5 20.4004c-28.4004 34.2002 -70.2998 53.7998 -114.7 53.7998c-21.2002 0 -21.2002 -32 0 -32c34.9004 0 67.7998 -15.4004 90.2002 -42.2002z"/>
			<glyph glyph-name="smile-beam" unicode="&#xf5b8;"
				   d="M248 440c137 0 248 -111 248 -248s-111 -248 -248 -248s-248 111 -248 248s111 248 248 248zM112 224.6c-0.700195 -8.5 10.7998 -11.8994 15.0996 -4.5l9.5 17c7.7002 13.7002 19.2002 21.6006 31.5 21.6006c12.3008 0 23.8008 -7.90039 31.5 -21.6006l9.5 -17
c4.10059 -7.39941 15.6006 -4.09961 14.9004 4.5c-3.2998 42.1006 -32.2002 71.4004 -56 71.4004s-52.7002 -29.2998 -56 -71.4004zM362.8 101.8c13.5 16.2002 -11 36.7002 -24.5996 20.5c-22.4004 -26.7998 -55.2002 -42.2002 -90.2002 -42.2002
s-67.7998 15.3008 -90.2002 42.2002c-13.5996 16.2002 -38.0996 -4.2002 -24.5996 -20.5c28.5 -34.2002 70.2998 -53.7998 114.8 -53.7998s86.2998 19.5996 114.8 53.7998zM369 220.1c4.09961 -7.39941 15.7002 -4.09961 15.0996 4.5
c-3.2998 42.1006 -32.1992 71.4004 -56 71.4004c-23.7998 0 -52.6992 -29.2998 -56 -71.4004c-0.699219 -8.5 10.8008 -11.7998 14.9004 -4.5l9.5 17c7.7002 13.7002 19.2002 21.6006 31.5 21.6006s23.7998 -7.90039 31.5 -21.6006z"/>
			<glyph glyph-name="star-half-alt" unicode="&#xf5c0;" horiz-adv-x="536"
				   d="M508.55 276.49c26.25 -3.7998 36.7705 -36.1006 17.7305 -54.6006l-105.91 -102.979l25.0303 -145.49c3.55957 -20.79 -13.0605 -37.4004 -31.6602 -37.4004c-4.91016 0 -9.9707 1.16016 -14.8301 3.71094l-130.94 68.6992l-130.95 -68.6797
c-4.86914 -2.58008 -9.93945 -3.75 -14.8691 -3.75c-18.5801 0 -35.1699 16.6699 -31.6104 37.4502l25.0596 145.479l-105.89 103c-19.0303 18.5 -8.50977 50.79 17.7402 54.5898l146.38 21.29l65.4297 132.381c5.90039 11.9092 17.29 17.8096 28.6904 17.8096
c11.4697 0 22.9395 -5.98047 28.8193 -17.8096l65.4102 -132.391zM386.81 153.29l82.6504 80.3799l-114.229 16.6299l-25.0107 3.64062l-11.1797 22.6299l-51.0303 103.29l-0.0292969 -317.19l22.3799 -11.7402l102.13 -53.5898l-19.5205 113.45l-4.2793 24.8799z"/>
			<glyph glyph-name="surprise" unicode="&#xf5c2;"
				   d="M248 440c137 0 248 -111 248 -248s-111 -248 -248 -248s-248 111 -248 248s111 248 248 248zM136 240c0 -17.7002 14.2998 -32 32 -32s32 14.2998 32 32s-14.2998 32 -32 32s-32 -14.2998 -32 -32zM248 32c35.2998 0 64 28.7002 64 64s-28.7002 64 -64 64
s-64 -28.7002 -64 -64s28.7002 -64 64 -64zM328 208c17.7002 0 32 14.2998 32 32s-14.2998 32 -32 32s-32 -14.2998 -32 -32s14.2998 -32 32 -32z"/>
			<glyph glyph-name="swatchbook" unicode="&#xf5c3;" horiz-adv-x="512"
				   d="M434.66 280.29c5.15527 -5.1709 9.33984 -15.293 9.33984 -22.5947s-4.18457 -17.4248 -9.33984 -22.5957l-210.66 -211.1v271.12l75.4297 75.5195l0.0703125 0.0703125v0c5.14258 5.12305 15.2061 9.28027 22.4648 9.28027c7.29102 0 17.3867 -4.18848 22.5352 -9.35059
l90.1602 -90.3496v0zM480 128c17.6641 0 32 -14.3359 32 -32v-128c0 -17.6641 -14.3359 -32 -32 -32h-300c2.17969 1.91016 4.62012 3.41992 6.67969 5.49023l186.41 186.51h106.91zM192 416v-384c0 -52.9922 -43.0078 -96 -96 -96s-96 43.0078 -96 96v384
c0 17.6641 14.3359 32 32 32h128c17.6641 0 32 -14.3359 32 -32zM96 8c13.248 0 24 10.752 24 24s-10.752 24 -24 24s-24 -10.752 -24 -24s10.752 -24 24 -24zM128 192v64h-64v-64h64zM128 320v64h-64v-64h64z"/>
			<glyph glyph-name="tired" unicode="&#xf5c8;"
				   d="M248 440c137 0 248 -111 248 -248s-111 -248 -248 -248s-248 111 -248 248s111 248 248 248zM281.8 250.3c-7.7002 -4.7002 -7.7002 -15.8994 0 -20.5996l80 -48c11.5 -6.7998 24.1006 7.59961 15.4004 18l-33.6006 40.2998l33.6006 40.2998
c8.59961 10.2998 -3.7998 24.9004 -15.4004 18zM118.8 280.3l33.6006 -40.2998l-33.6006 -40.2998c-8.59961 -10.4004 3.90039 -24.7998 15.4004 -18l80 48c7.7998 4.7002 7.7998 15.8994 0 20.5996l-80 48c-11.6006 6.90039 -24 -7.7002 -15.4004 -18zM248 160
c-51.9004 0 -115.3 -43.7998 -123.2 -106.7c-1.7002 -13.3994 7.90039 -24.5996 17.7002 -20.3994c25.9004 11.0996 64.4004 17.3994 105.5 17.3994s79.5996 -6.2998 105.5 -17.3994c9.7002 -4.2002 19.4004 6.7998 17.7002 20.3994
c-7.90039 62.9004 -71.2998 106.7 -123.2 106.7z"/>
			<glyph glyph-name="wine-glass-alt" unicode="&#xf5ce;" horiz-adv-x="288"
				   d="M216 -16c22.0898 0 40 -17.9102 40 -40c0 -4.41992 -3.58008 -8 -8 -8h-208c-4.41992 0 -8 3.58008 -8 8c0 22.0898 17.9102 40 40 40h40v117.18c-68.4697 15.8906 -118.05 79.9102 -111.4 154.16l15.96 178.11c0.730469 8.24023 7.55078 14.5498 15.7002 14.5498h223.48
c8.16016 0 14.9697 -6.30957 15.71 -14.5498l15.9502 -178.101c6.64941 -74.25 -42.9307 -138.27 -111.4 -154.159v-117.19h40zM61.75 400l-7.16992 -80h178.84l-7.16992 80h-164.5z"/>
			<glyph glyph-name="car-alt" unicode="&#xf5de;" horiz-adv-x="480"
				   d="M438.66 235.67c24.1201 -9.16992 41.3398 -32.3301 41.3398 -59.6699v-48c0 -16.1299 -6.16016 -30.6797 -16 -41.9297v-54.0703c0 -17.6699 -14.3301 -32 -32 -32h-32c-17.6699 0 -32 14.3301 -32 32v32h-256v-32c0 -17.6699 -14.3301 -32 -32 -32h-32
c-17.6699 0 -32 14.3301 -32 32v54.0703c-9.83984 11.2598 -16 25.8096 -16 41.9297v48c0 27.3398 17.2197 50.5 41.3398 59.6699l11.2402 28.0996l19.9297 49.8301c17.1104 42.7705 57.9307 70.4004 103.99 70.4004h127c46.0703 0 86.8799 -27.6299 103.99 -70.4004
l19.9297 -49.8301zM131.93 289.83l-19.9297 -49.8301h256l-19.9297 49.8301c-7.29004 18.2197 -24.9404 30.1699 -44.5703 30.1699h-127c-19.6299 0 -37.2803 -11.9502 -44.5703 -30.1699zM80 128.2c19.2002 0 48 -3.19043 48 15.9502
c0 19.1396 -28.7998 47.8496 -48 47.8496s-32 -12.7598 -32 -31.9004c0 -19.1396 12.7998 -31.8994 32 -31.8994zM400 128.2c19.2002 0 32 12.7598 32 31.8994c0 19.1406 -12.7998 31.9004 -32 31.9004s-48 -28.71 -48 -47.8496c0 -19.1406 28.7998 -15.9502 48 -15.9502z
"/>
			<glyph glyph-name="car-wash" unicode="&#xf5e6;" horiz-adv-x="464"
				   d="M349.33 362.67c0 23.5605 42.6699 85.3301 42.6699 85.3301s42.6699 -61.7695 42.6699 -85.3301c0 -23.5596 -19.1104 -42.6699 -42.6699 -42.6699s-42.6699 19.1104 -42.6699 42.6699zM232 320c-23.5596 0 -42.6699 19.1104 -42.6699 42.6699
c0 23.5605 42.6699 85.3301 42.6699 85.3301s42.6699 -61.7598 42.6699 -85.3301s-19.1104 -42.6699 -42.6699 -42.6699zM72 320c-23.5596 0 -42.6699 19.1104 -42.6699 42.6699c0 23.5605 42.6699 85.3301 42.6699 85.3301s42.6699 -61.7598 42.6699 -85.3301
s-19.1104 -42.6699 -42.6699 -42.6699zM464 96v-32c0 -20.1201 -9.48047 -37.8604 -24 -49.5898v-46.4102c0 -17.6699 -14.3301 -32 -32 -32h-32c-17.6699 0 -32 14.3301 -32 32v32h-224v-32c0 -17.6699 -14.3301 -32 -32 -32h-32c-17.6699 0 -32 14.3301 -32 32v46.4102
c-14.5195 11.7295 -24 29.46 -24 49.5898v32c0 26.6699 16.3301 49.4805 39.5098 59.0996l5.07031 12.6699l19.9297 49.8203c17.1104 42.7705 57.9199 70.4004 103.99 70.4004h127c46.0596 0 86.8799 -27.6299 103.99 -70.4004l19.9297 -49.8301l5.07031 -12.6699
c23.1797 -9.60938 39.5098 -32.4297 39.5098 -59.0898zM120 64.1504c0 19.1396 -28.7998 47.8496 -48 47.8496s-32 -12.7598 -32 -31.9004c0 -19.1396 12.7998 -31.8994 32 -31.8994s48 -3.19043 48 15.9502zM353.6 159.99l-13.5293 33.8301
c-7.29004 18.2197 -24.9404 30.1699 -44.5703 30.1699h-127c-19.6299 0 -37.2803 -11.9502 -44.5703 -30.1699l-13.5293 -33.8301h243.199zM424 80.0996c0 19.1406 -12.7998 31.9004 -32 31.9004s-48 -28.71 -48 -47.8496c0 -19.1406 28.7998 -15.9502 48 -15.9502
s32 12.7598 32 31.8994z"/>
			<glyph glyph-name="do-not-enter" unicode="&#xf5ec;"
				   d="M248 440c136.97 0 248 -111.03 248 -248s-111.03 -248 -248 -248s-248 111.03 -248 248s111.03 248 248 248zM424 144c8.83984 0 16 7.16016 16 16v64c0 8.83984 -7.16016 16 -16 16h-352c-8.83984 0 -16 -7.16016 -16 -16v-64c0 -8.83984 7.16016 -16 16 -16h352z"/>
			<glyph glyph-name="location-circle" unicode="&#xf602;"
				   d="M248 440c136.97 0 248 -111.03 248 -248s-111.03 -248 -248 -248s-248 111.03 -248 248s111.03 248 248 248zM358.24 270.26c8 19.1904 -12.79 39.9805 -31.9902 31.9902l-207.89 -95.9502c-23.9902 -11.2002 -16 -46.3799 9.58984 -46.3799h87.96v-87.96
c0 -25.5801 35.1797 -33.5801 46.3799 -9.58984z"/>
			<glyph glyph-name="parking-circle" unicode="&#xf615;"
				   d="M248 440c136.97 0 248 -111.03 248 -248s-111.03 -248 -248 -248s-248 111.03 -248 248s111.03 248 248 248zM248 8c101.46 0 184 82.54 184 184s-82.54 184 -184 184s-184 -82.54 -184 -184s82.54 -184 184 -184zM280 304c44.1797 0 80 -35.8203 80 -80
s-35.8203 -80 -80 -80h-48v-48c0 -8.83984 -7.16016 -16 -16 -16h-32c-8.83984 0 -16 7.16016 -16 16v192c0 8.83984 7.16016 16 16 16h96zM280 208c8.82031 0 16 7.17969 16 16s-7.17969 16 -16 16h-48v-32h48z"/>
			<glyph glyph-name="parking-circle-slash" unicode="&#xf616;"
				   d="M248 440c136.97 0 248 -111.03 248 -248s-111.03 -248 -248 -248s-248 111.03 -248 248s111.03 248 248 248zM248 8c47.5801 0 90.8604 18.3096 123.56 48.0596l-286.39 221.351c-13.46 -25.5498 -21.1699 -54.5801 -21.1699 -85.4102c0 -101.46 82.54 -184 184 -184z
M238.23 240l41.3994 -32h0.370117c8.82031 0 16 7.17969 16 16s-7.17969 16 -16 16h-41.7695zM410.83 106.59c13.46 25.5498 21.1699 54.5801 21.1699 85.4102c0 101.46 -82.54 184 -184 184c-47.5801 0 -90.8604 -18.3096 -123.56 -48.0596l44.6592 -34.5107
c2.23047 6.14062 7.99023 10.5703 14.9004 10.5703h96c44.1797 0 80 -35.8203 80 -80c0 -23.0996 -9.92969 -43.7402 -25.5898 -58.3496zM168 96v68.9404l64 -49.46v-19.4805c0 -8.83984 -7.16016 -16 -16 -16h-32c-8.83984 0 -16 7.16016 -16 16z"/>
			<glyph glyph-name="steering-wheel" unicode="&#xf622;"
				   d="M248 440c136.97 0 248 -111.03 248 -248s-111.03 -248 -248 -248s-248 111.03 -248 248s111.03 248 248 248zM248 376c-90.5303 0 -165.82 -65.7695 -181.01 -152h93.8994c11.0801 19.0498 31.4902 32 55.1201 32h64c23.6299 0 44.0303 -12.9502 55.1201 -32h93.9004
c-15.21 86.2305 -90.5 152 -181.03 152zM66.9697 160c13.3799 -75.8096 73.2207 -135.65 149.03 -149.03v85.0303l-48 64h-101.03zM280 10.9697c75.8096 13.3799 135.65 73.2207 149.03 149.03h-101.03l-48 -64v-85.0303z"/>
			<glyph glyph-name="bullseye-arrow" unicode="&#xf648;"
				   d="M305.05 349.26c-0.580078 1.74512 -1.05078 4.6543 -1.05078 6.49414c0 4.70215 2.69727 11.2188 6.02051 14.5459l63.6602 63.6602c10.8105 10.7998 29.21 6.45996 34.04 -8.04004l18.5498 -55.6504l55.6602 -18.5498c14.5 -4.83984 18.8398 -23.2393 8.04004 -34.04
l-63.6699 -63.6699c-5.50977 -5.5 -13.6494 -7.41992 -21.04 -4.95996l-49.7002 16.5703l-90.5898 -90.5898c-9.37988 -9.37988 -24.5693 -9.37012 -33.9395 0c-9.37988 9.37988 -9.37988 24.5596 0 33.9395l90.5898 90.5898zM229.88 253.07
c-26.4297 -7.87988 -45.8799 -32.1201 -45.8799 -61.0703c0 -35.29 28.71 -64 64 -64c28.9502 0 53.1904 19.4502 61.0703 45.8701l55.1396 55.1396l6.37012 -2.12012c3.17969 -11.1592 5.41992 -22.71 5.41992 -34.8896c0 -70.6904 -57.3096 -128 -128 -128
s-128 57.3096 -128 128s57.3096 128 128 128c12.1797 0 23.7305 -2.24023 34.9004 -5.41016l2.11914 -6.37988zM484.43 266.9c7.48047 -23.6406 11.5703 -48.79 11.5703 -74.9004c0 -136.97 -111.03 -248 -248 -248s-248 111.03 -248 248s111.03 248 248 248h0.0576172
c21.1504 0 54.6797 -5.18359 74.8428 -11.5703l-35.5 -35.5c-5.53027 -5.5293 -9.18066 -12.1992 -11.7607 -19.2197c-9.0293 1.36035 -18.21 2.29004 -27.6299 2.29004c-101.71 0 -184 -82.3096 -184 -184c0 -101.71 82.3105 -184 184 -184c101.71 0 184 82.3096 184 184
c0 9.30957 -0.919922 18.3896 -2.25 27.3301c7.10059 2.58984 13.6699 6.57031 19.1699 12.0703z"/>
			<glyph glyph-name="bullseye-pointer" unicode="&#xf649;"
				   d="M242.16 207.33c12.9102 3.66016 24.8398 -8.25977 21.1602 -21.1699l-60.8701 -214.18c-4.31055 -15.1709 -25.0898 -16.9502 -31.9199 -2.73047l-32.8906 68.4697l-89.1699 -89.1699c-6.05957 -6.05957 -15.8896 -6.05957 -21.96 0l-21.96 21.96
c-6.06934 6.06055 -6.06934 15.9004 0 21.96l89.1699 89.1699l-68.4697 32.8906c-14.2197 6.81934 -12.4404 27.6094 2.73047 31.9199zM283.07 138.57c17.3896 11.4492 28.9297 31.0898 28.9297 53.4297c0 35.29 -28.71 64 -64 64
c-22.3398 0 -41.9805 -11.54 -53.4297 -28.9404l-73.1299 -20.7793c7.17969 63.8799 60.7598 113.72 126.56 113.72c70.6904 0 128 -57.3096 128 -128c0 -65.7998 -49.8398 -119.37 -113.72 -126.56zM248 440c136.97 0 248.02 -111.04 248.02 -248.01
c0 -136.971 -111.029 -248 -248 -248c-8.37988 0 -16.6592 0.439453 -24.8291 1.25c4.36914 5.20996 8.08984 11.04 10.0596 17.9795l12.75 44.8701c0.669922 -0.00976562 1.33008 -0.0996094 2.00977 -0.0996094c101.71 0 184 82.3096 184 184
c0 101.71 -82.3096 184 -184 184c-101.71 0 -184 -82.3105 -184 -184c0 -0.680664 0.0898438 -1.33008 0.100586 -2.00977l-44.8701 -12.75c-6.93066 -1.9707 -12.7598 -5.69043 -17.9805 -10.0801c-0.819336 8.17969 -1.25977 16.46 -1.25977 24.8496
c0 136.97 111.03 248 248 248z"/>
			<glyph glyph-name="peace" unicode="&#xf67c;"
				   d="M248 440c136.97 0 248 -111.03 248 -248s-111.03 -248 -248 -248s-248 111.03 -248 248s111.03 248 248 248zM432 192c0 90.5303 -65.7695 165.82 -152 181.03v-165.66l129.43 -103.54c14.3701 26.2002 22.5703 56.2402 22.5703 88.1699zM216 10.9697v114.46
l-89.29 -71.4395c24.7998 -21.8203 55.4297 -37.0498 89.29 -43.0205zM280 125.43v-114.449c33.8604 5.96973 64.4902 21.1992 89.29 43.0195zM216 373.03c-86.2305 -15.21 -152 -90.5 -152 -181.03c0 -31.9297 8.2002 -61.9697 22.5703 -88.1699l129.43 103.54v165.66z"/>
			<glyph glyph-name="star-of-david" unicode="&#xf69a;" horiz-adv-x="464"
				   d="M405.68 192l53.2207 -89.3896c14.4092 -24.21 -3.41016 -54.6104 -32.0107 -54.6104h-106.93l-55.9502 -93.9805c-7.14941 -12.0098 -19.5801 -18.0195 -32.0098 -18.0195s-24.8604 6.00977 -32.0098 18.0195l-55.9502 93.9805h-106.93
c-28.6006 0 -46.4199 30.4004 -32.0107 54.6104l53.2207 89.3896l-53.2207 89.3896c-14.4092 24.21 3.41016 54.6104 32.0107 54.6104h106.93l55.9502 93.9805c7.14941 12.0098 19.5801 18.0195 32.0098 18.0195s24.8604 -6.00977 32.0098 -18.0195l55.9502 -93.9805h106.92
c28.6006 0 46.4199 -30.4004 32.0098 -54.6104zM392.9 280h-39.6006l19.7998 -33.2598zM340.51 192l-52.3896 88h-112.25l-52.3799 -88l52.3896 -88h112.24zM232 374.28l-22.7803 -38.2803h45.5703zM71.0996 280l19.8008 -33.2598l19.7998 33.2598h-39.6006zM71.0996 104
h39.6006l-19.7998 33.2598zM232 9.71973l22.7803 38.2803h-45.5703zM353.29 104h39.6104l-19.8105 33.2598z"/>
			<glyph glyph-name="wifi-1" unicode="&#xf6aa;" horiz-adv-x="640"
				   d="M384 32c0 -35.3496 -28.6504 -64 -64 -64s-64 28.6504 -64 64s28.6504 64 64 64s64 -28.6504 64 -64z"/>
			<glyph glyph-name="wifi-2" unicode="&#xf6ab;" horiz-adv-x="640"
				   d="M384 32c0 -35.3496 -28.6504 -64 -64 -64s-64 28.6504 -64 64s28.6504 64 64 64s64 -28.6504 64 -64zM523.24 156.44l-34.4502 -33.9902c-6 -5.93066 -15.6602 -6.32031 -22.0498 -0.799805c-83.75 72.4092 -209.54 72.5693 -293.49 0
c-6.38965 -5.52051 -16.0498 -5.12012 -22.0498 0.799805l-34.4404 33.9902c-6.5498 6.45996 -6.33008 17.0498 0.570312 23.1494c115.13 101.82 290.08 101.93 405.34 0c6.90039 -6.08984 7.12012 -16.6895 0.570312 -23.1494z"/>
			<glyph glyph-name="yin-yang" unicode="&#xf6ad;"
				   d="M248 440c136.97 0 248 -111.03 248 -248s-111.03 -248 -248 -248s-248 111.03 -248 248s111.03 248 248 248zM248 64c17.6699 0 32 14.3301 32 32s-14.3301 32 -32 32s-32 -14.3301 -32 -32s14.3301 -32 32 -32zM248 192c53.0195 0 96 42.9805 96 96s-42.9805 96 -96 96
c-106.04 0 -192 -85.96 -192 -192s85.96 -192 192 -192c-53.0195 0 -96 42.9805 -96 96s42.9805 96 96 96zM248 320c17.6699 0 32 -14.3301 32 -32s-14.3301 -32 -32 -32s-32 14.3301 -32 32s14.3301 32 32 32z"/>
			<glyph glyph-name="globe-europe" unicode="&#xf7a2;"
				   d="M248 440c137 0 248 -111 248 -248s-111 -248 -248 -248s-248 111 -248 248s111 248 248 248zM448 192c0 110.3 -89.7002 200 -200.2 200c-1.89941 0 -3.7998 -0.200195 -5.7002 -0.299805l-28.8994 -21.7002c-2 -1.5 -3.2002 -3.90039 -3.2002 -6.40039v-20
c0 -4.39941 3.59961 -8 8 -8h16c4.40039 0 8 3.60059 8 8v8l16 16h20.7002c6.2002 0 11.2998 -5.09961 11.2998 -11.2998c0 -3 -1.2002 -5.89941 -3.2998 -8l-26.7998 -26.7998c-1.2002 -1.2002 -2.7002 -2.09961 -4.40039 -2.7002l-40 -13.2998
c-3.2998 -1.09961 -5.5 -4.2002 -5.5 -7.59961c0 -6.60059 -2.59961 -12.9004 -7.2002 -17.5l-20.0996 -20.1006c-3 -3 -4.7002 -7.09961 -4.7002 -11.2998v-25.2998c0 -8.7998 7.2002 -16 16 -16h22.0996c6.10059 0 11.6006 3.39941 14.3008 8.7998l9.39941 18.7002
c1.40039 2.7002 4.2002 4.39941 7.2002 4.39941h3.09961c4.40039 0 8 -3.59961 8 -8c0 -4.39941 3.60059 -8 8 -8h16c4.40039 0 8 3.60059 8 8v2.2002c0 3.5 2.2002 6.5 5.5 7.60059l31.6006 10.5c6.5 2.19922 10.8994 8.2998 10.8994 15.1992v4.5
c0 8.80078 7.2002 16 16 16h36.7002c6.2002 0 11.2998 -5.09961 11.2998 -11.2998v-9.39941c0 -6.2002 -5.09961 -11.3008 -11.2998 -11.3008h-32c-3 0 -5.89941 -1.19922 -8 -3.2998l-9.39941 -9.39941c-2.10059 -2.10059 -3.30078 -5 -3.30078 -8
c0 -6.2002 5.10059 -11.3008 11.3008 -11.3008h16c3 0 5.89941 -1.19922 8 -3.2998l9.39941 -9.39941c2.10059 -2.10059 3.2998 -5 3.2998 -8v-8.7002l-12.5 -12.5c-4.59961 -4.60059 -4.59961 -12.1006 -0.0996094 -16.7002l32 -32.5996
c3 -3.10059 7.09961 -4.80078 11.4004 -4.80078h20.2998c6.89941 20.2002 10.7998 41.9004 10.7998 64.4004zM130.1 298.9c0 -6.2002 5.10059 -11.3008 11.3008 -11.3008h16c3 0 5.89941 1.2002 8 3.30078l9.39941 9.39941c2.10059 2.10059 3.2998 5 3.2998 8v16
c0 6.2002 -5.09961 11.2998 -11.2998 11.2998c-3 0 -5.89941 -1.19922 -8 -3.2998l-25.3994 -25.3994c-2.10059 -2.10059 -3.30078 -5 -3.30078 -8zM258.1 -7.5c71.1006 3.59961 132.5 44.2002 164.9 103.1h-13.4004c-4.7998 0 -9.5 1.90039 -12.8994 5.30078
l-17.2998 17.2998c-6 6 -14.1006 9.39941 -22.6006 9.39941h-18.2998l-43.2002 37.1006c-8.2002 7 -18.7002 10.8994 -29.5996 10.8994h-31.2002c-8.2002 0 -16.2998 -2.2998 -23.4004 -6.5l-42.8994 -25.6992c-13.7002 -8.2002 -22.1006 -23 -22.1006 -39v-23.9004
c0 -14.2998 6.7002 -27.7998 18.2002 -36.4004l22.2002 -16.6992c8.7002 -6.5 24.5996 -11.8008 35.4004 -11.8008h20.1992c8.80078 0 16 -7.19922 16 -16v-7.09961z"/>
			<glyph glyph-name="grip-lines-vertical" unicode="&#xf7a5;" horiz-adv-x="256"
				   d="M96 -48c0 -8.7998 -7.2002 -16 -16 -16h-32c-8.7998 0 -16 7.2002 -16 16v480c0 8.7998 7.2002 16 16 16h32c8.7998 0 16 -7.2002 16 -16v-480zM224 -48c0 -8.7998 -7.2002 -16 -16 -16h-32c-8.7998 0 -16 7.2002 -16 16v480c0 8.7998 7.2002 16 16 16h32
c8.7998 0 16 -7.2002 16 -16v-480z"/>
			<glyph glyph-name="radiation" unicode="&#xf7b9;"
				   d="M328.2 192.2c0 28.5996 -15.2002 53.5 -37.7998 67.7998l80.3994 128.4c4.7998 7.69922 15.2998 10.0996 22.7002 4.7998c58.0996 -42 97.4004 -108.4 102.5 -184.2c0.599609 -9.09961 -7.09961 -16.7998 -16.2002 -16.7998h-151.6zM290.4 124.5l80.3994 -128.5
c4.7998 -7.59961 2.40039 -18.0996 -5.59961 -22.4004c-34.9004 -18.7998 -74.7998 -29.5996 -117.2 -29.5996s-82.2998 10.7998 -117.2 29.5996c-8 4.30078 -10.3994 14.7002 -5.59961 22.4004l80.3994 128.5c12.4004 -7.7002 26.8008 -12.4004 42.4004 -12.4004
s30.0996 4.7002 42.4004 12.4004zM248 144.2c-26.5 0 -48 21.5 -48 48s21.5 48 48 48s48 -21.5 48 -48s-21.5 -48 -48 -48zM16.2002 192.2c-9.10059 0 -16.7998 7.7002 -16.2002 16.7002c5.09961 75.7998 44.4004 142.199 102.5 184.199
c7.40039 5.40039 17.9004 2.90039 22.7002 -4.7998l80.3994 -128.399c-22.5996 -14.2002 -37.7998 -39.1006 -37.7998 -67.7002h-151.6z"/>
			<glyph glyph-name="radiation-alt" unicode="&#xf7ba;"
				   d="M312 192c0 22.7998 -12.0996 42.7998 -30.0996 54l41.6992 66.7998c5.2002 8.2998 16.4004 9.90039 24 3.7998c32.5 -26 54.9004 -64.1992 59.5 -107.8c0.900391 -9.09961 -6.7998 -16.7998 -16 -16.7998h-79.0996zM214.2 137.9
c9.7998 -6.2002 21.5 -9.90039 33.8994 -9.90039c12.4004 0 24 3.7002 33.8008 9.90039l41.7998 -66.9004c4.7998 -7.7998 2.39941 -18.4004 -5.7998 -22.5c-21.2002 -10.4004 -44.8008 -16.5 -69.9004 -16.5s-48.7002 6.09961 -69.7998 16.5
c-8.2002 4.09961 -10.7002 14.7002 -5.7998 22.5zM104.9 192c-9.2002 0 -17 7.7002 -15.9004 16.9004c4.59961 43.5996 26.9004 81.7998 59.5 107.8c7.59961 6.09961 18.7998 4.5 24 -3.7998l41.7002 -66.8008c-18.1006 -11.2998 -30.2002 -31.2998 -30.2002 -54.0996
h-79.0996zM248 -56c-137 0 -248 111 -248 248s111 248 248 248s248 -111 248 -248s-111 -248 -248 -248zM248 376c-101.5 0 -184 -82.5 -184 -184s82.5 -184 184 -184s184 82.5 184 184s-82.5 184 -184 184zM248 160c-17.7002 0 -32 14.2998 -32 32s14.2998 32 32 32
s32 -14.2998 32 -32s-14.2998 -32 -32 -32z"/>
			<glyph glyph-name="flower" unicode="&#xf7ff;" horiz-adv-x="512"
				   d="M480 288c0 -38.4502 -17.2998 -72.54 -44.1396 -96c26.8398 -23.46 44.1396 -57.5498 44.1396 -96c0 -70.6562 -57.3438 -128 -128 -128c-38.4502 0 -72.54 17.2998 -96 44.1396c-23.46 -26.8398 -57.5498 -44.1396 -96 -44.1396c-70.6562 0 -128 57.3438 -128 128
c0 38.4502 17.2998 72.54 44.1396 96c-26.8398 23.46 -44.1396 57.5498 -44.1396 96c0 70.6562 57.3438 128 128 128c38.4502 0 72.54 -17.2998 96 -44.1396c23.46 26.8398 57.5498 44.1396 96 44.1396c70.6562 0 128 -57.3438 128 -128zM256 112
c44.1602 0 80 35.8398 80 80s-35.8398 80 -80 80s-80 -35.8398 -80 -80s35.8398 -80 80 -80z"/>
			<glyph glyph-name="french-fries" unicode="&#xf803;" horiz-adv-x="512"
				   d="M432 224c8.82715 -0.00488281 15.9912 -7.17285 15.9912 -16c0 -0.969727 -0.170898 -2.52344 -0.380859 -3.46973l-54.1006 -243.471c-3.07324 -13.833 -17.0674 -25.0596 -31.2383 -25.0596h-0.00195312h-212.539h-0.0117188
c-14.1709 0 -28.166 11.2266 -31.2383 25.0596l-54.1006 243.471c-0.209961 0.946289 -0.380859 2.5 -0.380859 3.46973c0 8.83203 7.16797 16 16 16h0.000976562h34.04c6.91992 0 13.7002 -4.24023 15.1904 -11c8.59961 -39 62.0898 -69 126.789 -69
c64.7002 0 118.19 30 126.79 69c1.49023 6.73047 8.27051 11 15.1904 11h34zM351.55 219.86c-2.38965 -10.8604 -14 -22.0205 -31.5498 -30.4004v207.271c1.95996 3.81934 4.88965 7.05957 9.12988 8.3291l34.2803 10.25
c1.23633 0.370117 3.28711 0.668945 4.57812 0.668945c8.83203 0 16 -7.16797 16 -16c0 -0.763672 -0.107422 -1.99512 -0.238281 -2.74805l-30.1396 -172.461c-0.600586 -1.68945 -1.66016 -3.12988 -2.06055 -4.90918zM431.45 256h-33.4697
c-2.30078 0 -4.39062 -0.799805 -6.63086 -1.12012l18.75 107.26l17.3105 5.16992c1.23633 0.370117 3.28711 0.668945 4.57812 0.668945c8.83203 0 16 -7.16797 16 -16c0 -0.763672 -0.107422 -1.99512 -0.238281 -2.74805zM288 179.22
c-8.74219 -1.77734 -23.0781 -3.21973 -32 -3.21973s-23.2578 1.44238 -32 3.21973v252.78v0.000976562c0 8.83203 7.16797 16 16 16c2.08691 0 5.29395 -0.756836 7.16016 -1.69141l32 -16c4.87988 -2.44141 8.83984 -8.85156 8.83984 -14.3086v-0.000976562v-236.78z
M114 256h-33.4502l-16.2998 93.2305c-0.131836 0.753906 -0.239258 1.98828 -0.239258 2.75488c0 8.83203 7.16797 16 16 16c1.29688 0 3.35742 -0.302734 4.59961 -0.675781l19.7393 -5.89941l20 -107.16c-3.34961 0.75 -6.75 1.75 -10.3496 1.75zM192 189.46
c-12.3398 5.88965 -21.5303 13.1699 -26.8301 20.75l-36.9004 197.22c-0.149414 0.803711 -0.270508 2.11816 -0.270508 2.93457c0 4.39062 2.84082 10.1055 6.34082 12.7559l28.5098 21.6201c2.36621 1.79199 6.69531 3.24707 9.66309 3.24707
c7.33301 0 14.3789 -5.84961 15.7275 -13.0576l3.75977 -20.0996v-225.37z"/>
			<glyph glyph-name="hand-middle-finger" unicode="&#xf806;" horiz-adv-x="512"
				   d="M479.93 130.88l0.0703125 -82.8799v0c0 -61.7969 -50.1533 -111.973 -111.95 -112h-215c-25.6074 0.00292969 -61.084 14.7012 -79.1895 32.8096l-30.9307 30.9307c-6.0332 6.03223 -10.9297 17.8525 -10.9297 26.3838v0.00585938v73.4697v0.00292969
c0 12.7383 9.24707 27.7002 20.6396 33.3975l27.3604 15v-76c0 -4.41602 3.58398 -8 8 -8s8 3.58398 8 8v147.04c0 15.2598 12.8701 28.3799 30.8701 31.3799l30.6797 5.12012c17.8203 2.96973 34.4502 -8.38965 34.4502 -23.54v-32c0 -4.41602 3.58398 -8 8 -8
s8 3.58398 8 8v200v0.0224609c0 26.4961 21.5039 48 48 48c0.408203 0 1.07129 -0.00976562 1.48047 -0.0224609c26.2695 -0.799805 46.5195 -23.7197 46.5195 -50v-198c0 -4.41602 3.58398 -8 8 -8s8 3.58398 8 8v32c0 15.1396 16.6299 26.5 34.4502 23.5303
l38.3994 -6.40039c13.46 -2.25 23.1504 -12.0996 23.1504 -23.54v-49.5898l35.6504 -8.92969c15.5986 -3.89844 28.2686 -20.1113 28.2793 -36.1904z"/>
			<glyph glyph-name="ice-cream" unicode="&#xf810;" horiz-adv-x="448"
				   d="M368 288c26.4961 0 48 -21.5039 48 -48s-21.5039 -48 -48 -48h-288c-26.4961 0 -48 21.5039 -48 48s21.5039 48 48 48h0.94043c-0.519531 4.51855 -0.94043 11.8779 -0.94043 16.4268c0 79.4883 64.5117 144 144 144s144 -64.5117 144 -144
c0 -4.54883 -0.420898 -11.9082 -0.94043 -16.4268h0.94043zM195.38 -45.6904l-99.3799 205.69h256l-99.3799 -205.69c-4.66504 -10.1084 -17.4863 -18.3135 -28.6201 -18.3135s-23.9551 8.20508 -28.6201 18.3135z"/>
			<glyph glyph-name="popcorn" unicode="&#xf819;" horiz-adv-x="512"
				   d="M443.62 309.12c3.91016 -6.75 4.75977 -14 4.24023 -21.1201h-383.73c-0.5 7.12012 0.350586 14.3799 4.27051 21.1201c6.73926 12.1494 19.5996 19.5098 33.0596 20.79c-2.69922 4.72852 -4.89062 12.9863 -4.89062 18.4316c0 5.63965 2.33887 14.1504 5.2207 18.998
c9.11035 16 28.0098 23.6602 45.5703 20.1201c0.339844 16.6396 11.46 31.9902 29 37.4297c3.61133 1.1748 9.62402 2.12793 13.4219 2.12793c7.74219 0 19.1201 -3.67676 25.3975 -8.20801c3.625 11.4395 15.8643 23.6201 27.3203 27.1904
c22.2695 6.78027 46.2305 -4.41992 53.3301 -25.54c0.318359 -0.483398 0.623047 -1.34375 0.679688 -1.91992c6.34473 4.69531 17.8994 8.50586 25.793 8.50586c3.77539 0 9.75488 -0.943359 13.3477 -2.10547c17.5293 -5.43066 28.6699 -20.79 29 -37.4307
c17.5498 3.52051 36.4395 -4.16992 45.5498 -20.1699c2.82129 -4.86621 5.11133 -13.3809 5.11133 -19.0049c0 -5.42773 -2.14258 -13.6826 -4.78125 -18.4248c12.084 -1.04102 26.9082 -10.3545 33.0898 -20.79zM366.4 256h81.5996l-43.9102 -292.75
c-2.25781 -15.042 -16.4346 -27.25 -31.6455 -27.25h-0.00390625h-232.881h-0.00390625c-15.2109 0 -29.3877 12.208 -31.6455 27.25l-43.9102 292.75h81.5596l28 -256h45.0508l-21.5605 256h117.95l-21.6104 -256h45.0107z"/>
			<glyph glyph-name="tree-palm" unicode="&#xf82b;" horiz-adv-x="640"
				   d="M448.76 384c80.6201 0 147.37 -47.2402 158.98 -108.86c1.87012 -9.92969 -6.49023 -19.1396 -17.7402 -19.1396h-54l-24 48l-24 -48h-134.77c14.8398 -56.6602 41.1992 -179.53 26.4092 -293c-2.04004 -15.6299 -15.96 -27 -31.71 -27h-55.1299
c-20.7998 0 -36.1602 19.4805 -31.0801 39.6104c14.4307 57.1494 36.5703 167.399 25.8506 272.149l-146.13 -146.14c-7.9502 -7.94043 -20.3701 -7.33984 -26.0703 1c-35.3701 51.7803 -21.5703 132.38 35.4297 189.39c3.37988 3.37988 7.12988 6 10.6602 9.07031
l-33.46 66.9199l-24 -48h-54c-11.25 0 -19.6104 9.20996 -17.7598 19.1396c11.6299 61.6201 78.3799 108.86 159 108.86c74.1299 0 135.899 -40.1699 154.52 -94.5c27.9404 18.7598 63.5703 30.5 103 30.5z"/>
			<glyph glyph-name="send-backward" unicode="&#xf87f;" horiz-adv-x="512"
				   d="M464 288c26.4961 0 48 -21.5039 48 -48v-256v0c0 -26.4961 -21.5039 -48 -48 -48h-256c-26.4961 0 -48 21.5039 -48 48v256c0 26.4961 21.5039 48 48 48h256zM448 0v224h-224v-224h224zM352 320h-144c-44.1104 -0.0498047 -79.9502 -35.8896 -80 -80v-144h-80
c-26.4961 0 -48 21.5039 -48 48v256c0 26.4961 21.5039 48 48 48h256c26.4961 0 48 -21.5039 48 -48v-80z"/>
			<glyph glyph-name="skull-cow" unicode="&#xf8de;" horiz-adv-x="640"
				   d="M416 352c35.3281 0 64 -28.6719 64 -64v-128c0 -35.3281 -28.6719 -64 -64 -64l-26.8896 -134.28c-2.8418 -14.1973 -16.8994 -25.7197 -31.3779 -25.7197h-0.00195312h-75.5303v0c-14.4844 0 -28.542 11.5273 -31.3799 25.7305l-26.8203 134.27
c-35.3281 0 -64 28.6719 -64 64v128c0 35.3281 28.6719 64 64 64h192zM256 160c17.6641 0 32 14.3359 32 32s-14.3359 32 -32 32s-32 -14.3359 -32 -32s14.3359 -32 32 -32zM384 160c17.6641 0 32 14.3359 32 32s-14.3359 32 -32 32s-32 -14.3359 -32 -32
s14.3359 -32 32 -32zM60.1104 334.45c6.7998 -9.79004 18.5293 -14.54 35.8896 -14.54h32v-95.9102c-70.5801 0 -128 57.4697 -128 128.09c0 35.6006 13.0498 68.04 36.8096 91.29c2.5752 2.51855 7.58691 4.56152 11.1885 4.56152c8.83203 0 16 -7.16797 16 -16
c0 -1.58398 -0.447266 -4.07617 -0.998047 -5.56152c-6.5 -17.3799 -19.6504 -67.7998 -2.88965 -91.9297zM603.23 443.45c23.7695 -23.2998 36.7695 -55.7598 36.7695 -91.3604c0 -70.6201 -57.4297 -128.09 -128 -128.09v95.9102h31.9805
c17.3594 0 29.0996 4.76953 35.8994 14.5596c16.7197 24.1602 3.17969 75.7402 -2.87988 91.8906c-0.59375 1.53613 -1.07617 4.12109 -1.07617 5.76855c0 8.83203 7.16797 16 16 16c3.65527 0 8.71973 -2.09668 11.3066 -4.67871z"/>
			<glyph glyph-name="wagon-covered" unicode="&#xf8ee;" horiz-adv-x="640"
				   d="M224 224h-153.22l-68.5303 173.92c-9.23047 26.3496 11.2998 53.6904 37.2998 49.6904l125.021 -19.1201c34.0996 -5.2207 59.4297 -36.4902 59.4297 -73.3701v-131.12zM600.45 447.61c26.0303 3.97949 46.5498 -23.3408 37.2998 -49.6904l-68.5303 -173.92h-153.22
v131.12c0 36.8799 25.3301 68.1494 59.4502 73.3701zM384 392v-168h-128v168c0 22.0801 17.9199 40 40 40h48c22.0801 0 40 -17.9199 40 -40zM560 192c8.83203 0 16 -7.16797 16 -16v-32c0 -8.83203 -7.16797 -16 -16 -16h-17.7998
c0.319336 -0.299805 0.689453 -0.5 1 -0.799805c18.1504 -18.0947 32.8809 -53.582 32.8809 -79.2109c0 -61.7412 -50.1084 -111.851 -111.85 -111.851c-53.4648 0 -103.059 42.9463 -110.701 95.8613h-67.0605c-7.47559 -53.2246 -57.1641 -96.4209 -110.911 -96.4209
c-61.8242 0 -112 50.1758 -112 112c0 25.8037 14.8877 61.4736 33.2314 79.6211c0.320312 0.299805 0.69043 0.5 1 0.799805h-17.79c-8.83203 0 -16 7.16797 -16 16v32c0 8.83203 7.16797 16 16 16h480zM160 -13.7402v45.7402h-45.7402
c4.98633 -20.2627 25.4775 -40.7539 45.7402 -45.7402zM160 64v45.7402c-20.2686 -4.97949 -40.7607 -25.4717 -45.7402 -45.7402h45.7402zM221.25 2.75c6.7666 6.82422 14.1543 19.9277 16.4902 29.25h-45.7402v-45.7402c9.32227 2.33594 22.4258 9.72363 29.25 16.4902z
M192 64h45.7402c-4.97949 20.2686 -25.4717 40.7607 -45.7402 45.7402v-45.7402zM448 -13.7402v45.7402h-45.7402c4.98633 -20.2627 25.4775 -40.7539 45.7402 -45.7402zM448 64v45.7402c-20.2686 -4.97949 -40.7607 -25.4717 -45.7402 -45.7402h45.7402zM509.25 2.75
c6.77051 6.82227 14.1582 19.9258 16.4902 29.25h-45.7402v-45.7402c9.32227 2.33594 22.4258 9.72363 29.25 16.4902zM480 64h45.7402c-4.97949 20.2686 -25.4717 40.7607 -45.7402 45.7402v-45.7402z"/>
		</font>
	</defs>
</svg>
