<?xml version="1.0" standalone="no"?>
<!--
Font Awesome Pro 5.13.0 by @fontawesome - https://fontawesome.com
License - https://fontawesome.com/license (Commercial License)
-->
<!DOCTYPE svg PUBLIC "-//W3C//DTD SVG 1.1//EN" "http://www.w3.org/Graphics/SVG/1.1/DTD/svg11.dtd" >
<svg xmlns="http://www.w3.org/2000/svg" version="1.1">
	<metadata>
		Created by FontForge 20190801 at Mon Mar 23 10:47:15 2020
		By Robert Madole
		Copyright (c) Font Awesome
	</metadata>
	<defs>
		<font id="FontAwesome5Pro-Light" horiz-adv-x="384">
			<font-face
					font-family="Font Awesome 5 Pro Light"
					font-weight="300"
					font-stretch="normal"
					units-per-em="512"
					panose-1="2 0 3 3 0 0 0 0 0 0"
					ascent="448"
					descent="-64"
					bbox="-0.0174501 -64 415.991 448"
					underline-thickness="25"
					underline-position="-50"
					unicode-range="U+0020-F976"
			/>
			<missing-glyph/>
			<glyph glyph-name="dna" unicode="&#xf471;"
				   d="M0 -55.5c2.5 34 21.2998 159.9 161 247.7c-139.3 87.7998 -158.5 213.3 -161 247.3c-0.299805 4.59961 3.40039 8.5 8 8.5l16.0996 -0.0996094c4.2002 0 7.60059 -3.10059 8 -7.2002c0.5 -5.5 1.5 -14.1006 3.7002 -24.7998h312.601
c2.09961 10.5996 3.09961 19.1992 3.5 24.7998c0.299805 4.2002 3.7998 7.2998 8 7.2998h16.0996c4.7002 0 8.2998 -3.90039 8 -8.5c-2.59961 -35.9004 -23.0996 -173.8 -184.3 -261.6c-45 -24.5 -77.9004 -53.2002 -102 -82h187.7
c-16.6006 20 -37.2002 39.7998 -63.2002 58.1992c10.3994 5.90039 20.2998 12 29.5996 18.3008c113.7 -85.9004 129.9 -196.4 132.2 -227.9c0.299805 -4.59961 -3.2998 -8.5 -8 -8.5h-16.0996c-4.2002 0 -7.60059 3.09961 -8 7.2002
c-0.400391 5.5 -1.5 14.0996 -3.7002 24.7998h-312.601c-2.09961 -10.5996 -3.09961 -19.0996 -3.5 -24.7002c-0.299805 -4.2002 -3.7998 -7.2998 -8 -7.2998h-16.0996c-4.7002 0 -8.2998 3.90039 -8 8.5zM340 384h-295.5c6.40039 -19.2002 16.0996 -41.0996 30.5 -64h234.6
c14.5 22.7998 24.1006 44.7998 30.4004 64zM192 210.6c40.9004 23.5 71.5996 50.3008 94.2998 77.4004h-188.1c22.5996 -27.2002 53.0996 -54.0996 93.7998 -77.4004zM44 0h295.5c-6.40039 19.0996 -16.0996 41.0996 -30.5996 64h-234.5
c-14.5 -22.9004 -24.1006 -44.7998 -30.4004 -64z"/>
			<glyph glyph-name="lamp" unicode="&#xf4ca;" horiz-adv-x="416"
				   d="M413.7 210.2c7.89941 -23.7998 -5.60059 -50.2002 -25.7002 -50.2002h-92.5996c34.3994 -39.7998 56.6992 -95.9004 56.6992 -135.6c0 -26.2002 -9.69922 -50.3008 -26.1992 -70.1006c-9.90039 -11.8994 -26.1006 -18.2998 -42.7002 -18.2998h-150.3
c-16.6006 0 -32.8008 6.40039 -42.7002 18.2998c-16.5 19.7998 -26.2002 44 -26.2002 70.1006c0 39.6992 22.2998 95.7998 56.7002 135.6h-92.7002c-20.7998 0 -34.2998 28.2002 -25 52.0996l84 216c4.7002 12.2002 14.4004 19.9004 25 19.9004h204
c11.2002 0 21.2998 -8.59961 25.7998 -21.7998zM320 24.4004c0 41.6992 -31 106 -70.4004 135.6h-83.0996c-39.4004 -29.5996 -70.4004 -93.9004 -70.4004 -135.6c0 -17.6006 6.5 -34.8008 18.8008 -49.6006c3.39941 -4.09961 10.5 -6.7998 18 -6.7998h150.3
c7.5 0 14.5996 2.7002 18 6.7998c12.2998 14.7998 18.7998 32 18.7998 49.6006zM377.4 192c4.19922 0 7.2998 4 5.89941 8v0.0996094l-71.8994 215.9h-194.7l-83.9004 -215.5c0 -0.0996094 -0.0996094 -0.200195 -0.0996094 -0.299805
c-1.40039 -4 1.59961 -8.2002 5.89941 -8.2002h338.801z"/>
		</font>
	</defs>
</svg>
