<?xml version="1.0" standalone="no"?>
<!--
Font Awesome Pro 5.13.0 by @fontawesome - https://fontawesome.com
License - https://fontawesome.com/license (Commercial License)
-->
<!DOCTYPE svg PUBLIC "-//W3C//DTD SVG 1.1//EN" "http://www.w3.org/Graphics/SVG/1.1/DTD/svg11.dtd" >
<svg xmlns="http://www.w3.org/2000/svg" version="1.1">
	<metadata>
		Created by FontForge 20190801 at Mon Mar 23 10:47:34 2020
		By Robert Madole
		Copyright (c) Font Awesome
	</metadata>
	<defs>
		<font id="FontAwesome5Pro-Regular" horiz-adv-x="640">
			<font-face
					font-family="Font Awesome 5 Pro Regular"
					font-weight="400"
					font-stretch="normal"
					units-per-em="512"
					panose-1="2 0 5 3 0 0 0 0 0 0"
					ascent="448"
					descent="-64"
					bbox="-0.533203 -64.0693 640.009 448.123"
					underline-thickness="25"
					underline-position="-50"
					unicode-range="U+0020-F976"
			/>
			<missing-glyph/>
			<glyph glyph-name="bacteria" unicode="&#xf959;"
				   d="M272.35 221.6c-1.88965 -0.854492 -5.10547 -1.57617 -7.17969 -1.60938h-0.0107422c-6.39551 0 -13.7021 4.73926 -16.3096 10.5801l-4.10938 9.2793c-11.665 -7.34473 -27.3936 -22.5771 -35.1104 -34l9.27051 -4.33008
c5.6123 -2.64941 10.168 -9.83789 10.168 -16.0449c0 -9.79395 -7.94922 -17.7432 -17.7432 -17.7432c-2.19629 0 -5.58984 0.760742 -7.5752 1.69824l-9.2998 4.35059c-1.22656 -3.86426 -2.82129 -10.2344 -3.56055 -14.2207
c-1.64844 -9.53223 -7.38281 -23.7744 -12.7998 -31.79l9.82031 -10.0693c2.75586 -2.85156 4.99219 -8.38477 4.99219 -12.3506c0 -9.80957 -7.96191 -17.7715 -17.7725 -17.7715c-4.16211 0 -9.8877 2.42871 -12.7803 5.42188l-9.72949 10
c-11.0488 -6.89551 -30.5859 -12.5225 -43.6104 -12.5596c-1.10938 0 -2.24023 0.229492 -3.34961 0.279297l-3.52051 -13.4795c-1.99316 -7.21191 -9.68359 -13.0645 -17.166 -13.0645c-9.83105 0 -17.8096 7.97852 -17.8096 17.8096
c0 1.16895 0.22168 3.03906 0.496094 4.1748l3.57031 13.7002c-12.417 6.30664 -27.9854 21.3057 -34.75 33.4795l-13.6006 -4c-1.36816 -0.407227 -3.6377 -0.738281 -5.06445 -0.738281c-9.79199 0 -17.7393 7.94727 -17.7393 17.7383c0 7.2998 5.67773 14.916 12.6738 17
l13.46 4c-0.157227 1.875 -0.28418 4.9248 -0.28418 6.80664c0 3.52734 0.445312 9.21875 0.994141 12.7031c1.40137 8.0752 4.3584 21.0273 6.59961 28.9102l-11.1797 3.83008c-6.58984 2.27832 -11.9385 9.78711 -11.9385 16.7598
c0 9.78906 7.94434 17.7344 17.7334 17.7344c1.64453 0 4.24121 -0.436523 5.79492 -0.973633l11.0703 -3.79004c5.29297 12.6113 15.5967 32.1797 23 43.6797l-9.50977 6.87012c-4.03613 2.91895 -7.31152 9.3291 -7.31152 14.3096
c0 3.19824 1.53711 7.88379 3.43164 10.46c2.95117 4.02051 9.39355 7.28418 14.3809 7.28418c3.20801 0 7.91602 -1.53418 10.5088 -3.42383l9.5 -6.91992c8.77246 10.5244 24.3809 26.249 34.8398 35.0996l-7 9.32031c-1.95605 2.60547 -3.54395 7.36426 -3.54395 10.6221
c0 4.9209 3.20898 11.29 7.16406 14.2178c2.62012 1.94043 7.39258 3.51562 10.6533 3.51562c4.92188 0 11.3213 -3.1875 14.2871 -7.11523l7.05957 -9.41992c11.4727 7.51367 31.0098 18.0059 43.6104 23.4199l-3.90039 10.9395
c-0.564453 1.59277 -1.02148 4.25586 -1.02148 5.94531c0 9.82715 7.97461 17.8018 17.8018 17.8018c6.94336 0 14.4609 -5.31152 16.7803 -11.8564l4 -11.1201c8.66113 2.53516 22.9072 5.84082 31.7998 7.37988c3.78125 0.630859 9.96094 1.14355 13.7939 1.14355
c0.827148 0 2.16895 -0.0244141 2.99609 -0.0537109l3.47949 13.3105c1.9082 7.3623 9.62891 13.3389 17.2354 13.3389c9.82812 0 17.8037 -7.97656 17.8037 -17.8047c0 -1.25195 -0.254883 -3.25195 -0.569336 -4.46484l-3.5498 -13.5596
c12.4414 -6.31738 28.0547 -21.334 34.8506 -33.5205l13.5801 4c1.37012 0.40918 3.64355 0.741211 5.07422 0.741211c9.79395 0 17.7422 -7.94727 17.7422 -17.7412c0 -7.29688 -5.6748 -14.9121 -12.667 -17l-13.6299 -4
c0.130859 -1.71191 0.237305 -4.49414 0.237305 -6.21094c0 -12.0449 -4.88672 -30.2871 -10.9072 -40.7188l10.4805 -9.52051c3.20312 -2.91699 5.80371 -8.80176 5.80371 -13.1348c0 -9.80566 -7.95801 -17.7637 -17.7646 -17.7637
c-3.79492 0 -9.15332 2.07324 -11.96 4.62891l-10.46 9.49023c-8.54492 -6.15918 -23.9072 -12.6006 -34.29 -14.3799c-3.92969 -0.650391 -7.65918 -1.84082 -11.4492 -2.84082l4.09961 -9.26953c0.836914 -1.88965 1.51562 -5.10156 1.51562 -7.16895
c0 -6.39941 -4.75977 -13.6709 -10.626 -16.2314zM143.5 166.08c10.9258 65.4766 72.9336 127.483 138.41 138.41c16.6035 2.76855 30.0781 18.6768 30.0781 35.5098c0 1.6416 -0.21875 4.29004 -0.488281 5.91016c-2.6875 16.6211 -18.5332 30.1104 -35.3701 30.1104
c-1.65918 0 -4.33398 -0.223633 -5.96973 -0.500977c-93.5166 -15.5635 -182.068 -104.088 -197.66 -197.6c-0.268555 -1.61621 -0.486328 -4.25879 -0.486328 -5.89746c0 -16.8408 13.4834 -32.751 30.0967 -35.5127c1.64355 -0.277344 4.33203 -0.505859 6 -0.509766
h0.0410156c16.8213 0 32.6572 13.4756 35.3486 30.0801zM613.79 216.69c0.158203 -1.88086 0.286133 -4.93945 0.286133 -6.82715c0 -3.53027 -0.446289 -9.22559 -0.996094 -12.7129c-1.40137 -8.0752 -4.3584 -21.0273 -6.59961 -28.9102l11.1797 -3.83008
c6.58984 -2.27832 11.9385 -9.78711 11.9385 -16.7598c0 -9.78906 -7.94434 -17.7344 -17.7334 -17.7344c-1.64453 0 -4.24121 0.436523 -5.79492 0.973633l-11.0703 3.79004c-5.29297 -12.6113 -15.5967 -32.1797 -23 -43.6797l9.5 -6.87012
c4.22949 -2.92285 7.66211 -9.46875 7.66211 -14.6094c0 -9.80371 -7.95703 -17.7607 -17.7598 -17.7607c-3.36328 0 -8.24707 1.67578 -10.9023 3.74023l-9.5 6.91992c-8.77246 -10.5215 -24.3809 -26.2422 -34.8398 -35.0898l7 -9.33008
c1.95801 -2.60547 3.54785 -7.36523 3.54785 -10.624c0 -4.92188 -3.21094 -11.29 -7.16797 -14.2158c-2.62012 -1.94336 -7.39355 -3.51953 -10.6553 -3.51953c-4.92188 0 -11.3213 3.18945 -14.2852 7.11914l-7.05957 9.41992
c-11.4727 -7.51367 -31.0098 -18.0059 -43.6104 -23.4199l3.90039 -10.9395c0.564453 -1.59277 1.02148 -4.25586 1.02148 -5.94531c0 -9.82715 -7.97461 -17.8018 -17.8018 -17.8018c-6.94336 0 -14.4609 5.31152 -16.7803 11.8564l-4 11.1201
c-8.66016 -2.53906 -22.9062 -5.84473 -31.7998 -7.37988c-3.78125 -0.630859 -9.96094 -1.14355 -13.7939 -1.14355c-0.827148 0 -2.16895 0.0244141 -2.99609 0.0537109l-3.47949 -13.3105c-1.9082 -7.3623 -9.62891 -13.3389 -17.2354 -13.3389
c-9.82812 0 -17.8037 7.97656 -17.8037 17.8047c0 1.25195 0.254883 3.25195 0.569336 4.46484l3.5498 13.5596c-12.4414 6.31738 -28.0547 21.334 -34.8506 33.5205l-13.5801 -4c-1.37207 -0.410156 -3.64746 -0.743164 -5.08008 -0.743164
c-9.79395 0 -17.7422 7.94922 -17.7422 17.7432c0 7.29492 5.67285 14.9111 12.6631 17l13.6396 4c-0.130859 1.71191 -0.237305 4.49414 -0.237305 6.21094c0 12.0449 4.88672 30.2871 10.9072 40.7188l-10.4805 9.50977
c-3.31641 2.92871 -6.00781 8.89648 -6.00781 13.3203c0 9.80957 7.96094 17.7705 17.7705 17.7705c3.88086 0 9.32715 -2.15527 12.1582 -4.81055l10.46 -9.49023c8.54492 6.16016 23.9062 12.6025 34.29 14.3799c3.92969 0.650391 7.65918 1.84082 11.4492 2.84082
l-4.09961 9.26953c-0.861328 1.91406 -1.56055 5.16992 -1.56055 7.26953c0 6.41895 4.78027 13.6992 10.6709 16.25c1.89551 0.823242 5.1123 1.49512 7.17969 1.5h0.0107422c6.39551 0 13.7021 -4.73926 16.3096 -10.5791l4.10938 -9.28027
c11.665 7.34473 27.3945 22.5771 35.1104 34l-9.27051 4.33008c-5.6123 2.64941 -10.168 9.83789 -10.168 16.0449c0 9.79395 7.94922 17.7432 17.7432 17.7432c2.19629 0 5.58984 -0.760742 7.5752 -1.69824l9.2998 -4.34961
c1.22656 3.86328 2.82129 10.2334 3.56055 14.2197c1.64941 9.53223 7.38379 23.7734 12.7998 31.79l-9.82031 10.0693c-2.75586 2.85254 -4.99219 8.38477 -4.99219 12.3506c0 9.81055 7.96191 17.7725 17.7725 17.7725c4.16211 0 9.8877 -2.42969 12.7803 -5.42285
l9.72949 -10c11.0479 6.89844 30.5859 12.5342 43.6104 12.5801c1.10938 0 2.24023 -0.229492 3.34961 -0.280273l3.52051 13.4707c2.01172 7.17773 9.69434 13.0039 17.1494 13.0039c9.83105 0 17.8096 -7.97949 17.8096 -17.8105
c0 -1.14746 -0.214844 -2.98633 -0.479492 -4.10352l-3.58008 -13.71c12.4229 -6.2998 27.9961 -21.2939 34.7598 -33.4697l13.6006 4c1.36816 0.407227 3.6377 0.738281 5.06445 0.738281c9.79199 0 17.7393 -7.94727 17.7393 -17.7383
c0 -7.2998 -5.67773 -14.916 -12.6738 -17zM369.84 8.48047c93.5029 15.5703 182.041 104.09 197.63 197.59c0.270508 1.62012 0.489258 4.26855 0.489258 5.91211c0 16.8271 -13.4707 32.7354 -30.0693 35.5078c-1.64355 0.277344 -4.33203 0.505859 -6 0.509766
h-0.0322266c-16.8223 0 -32.6621 -13.4756 -35.3574 -30.0801c-10.9277 -65.4756 -72.9355 -127.487 -138.41 -138.42c-16.6074 -2.76562 -30.0869 -18.6748 -30.0869 -35.5107c0 -1.63965 0.21875 -4.28223 0.487305 -5.89941
c2.69629 -16.6201 18.5498 -30.1094 35.3867 -30.1094c1.65723 0 4.3291 0.223633 5.96289 0.5zM112 224c8.83203 0 16 -7.16797 16 -16s-7.16797 -16 -16 -16s-16 7.16797 -16 16s7.16797 16 16 16zM208 320c8.83203 0 16 -7.16797 16 -16s-7.16797 -16 -16 -16
s-16 7.16797 -16 16s7.16797 16 16 16zM400 64c8.83203 0 16 -7.16797 16 -16s-7.16797 -16 -16 -16s-16 7.16797 -16 16s7.16797 16 16 16z"/>
			<glyph glyph-name="bacterium" unicode="&#xf95a;" horiz-adv-x="512"
				   d="M511 345.07c0.541016 -1.81836 0.979492 -4.83398 0.979492 -6.73047c0 -9.76562 -7.60645 -19.917 -16.9795 -22.6602l-18.1396 -5.47949c0.171875 -2.27148 0.3125 -5.96387 0.3125 -8.24219c0 -16.0684 -6.51562 -40.4082 -14.543 -54.3281l14 -12.6299
c4.66113 -3.91895 8.44434 -12.043 8.44434 -18.1328c0 -13.0762 -10.6133 -23.6895 -23.6895 -23.6895c-5.36328 0 -12.8164 3.05664 -16.6348 6.82227l-13.8896 12.7197c-11.3945 -8.21191 -31.877 -16.7998 -45.7207 -19.1699
c-5.26953 -0.870117 -10.2197 -2.42969 -15.2695 -3.79004l5.46973 -12.3594c1.10449 -2.51758 2.00098 -6.79102 2.00098 -9.54004c0 -13.1055 -10.6357 -23.7412 -23.7412 -23.7412c-8.56055 0 -18.2998 6.3623 -21.7393 14.2012l-5.48047 12.3701
c-15.5586 -9.80371 -36.5293 -30.1338 -46.8096 -45.3809l12.3496 -5.7793c7.6748 -3.47363 13.9043 -13.1309 13.9043 -21.5557c0 -13.0596 -10.5996 -23.6592 -23.6602 -23.6592c-3.03516 0 -7.70996 1.08594 -10.4336 2.4248l-12.4004 5.7998
c-1.6416 -5.16113 -3.76953 -13.6729 -4.75 -19c-2.20508 -12.7051 -9.84863 -31.6904 -17.0605 -42.3799l13.0908 -13.4297c3.49121 -3.76367 6.3252 -10.9854 6.3252 -16.1191c0 -13.082 -10.6182 -23.7002 -23.7002 -23.7002
c-5.39453 0 -12.8789 3.08594 -16.7051 6.88867l-13 13.3105c-14.7275 -9.2041 -40.7734 -16.7217 -58.1406 -16.7803c-1.46973 0 -2.98926 0.320312 -4.46973 0.370117l-4.68945 -18c-2.56738 -9.77051 -12.8496 -17.7002 -22.9512 -17.7002h-0.0488281
c-1.68164 0.00292969 -4.37012 0.338867 -6 0.75c-9.7998 2.52637 -17.7529 12.791 -17.7529 22.9102c0 1.66016 0.336914 4.3125 0.75293 5.91992l4.76953 18.2803c-16.582 8.3877 -37.3828 28.3682 -46.4297 44.5996l-18.1201 -5.36035
c-1.8252 -0.543945 -4.85156 -0.985352 -6.75488 -0.985352c-13.0498 0 -23.6406 10.5908 -23.6406 23.6406c0 9.72656 7.56445 19.876 16.8857 22.6553l18 5.30957c-0.209961 2.50391 -0.379883 6.57422 -0.379883 9.08691c0 4.69629 0.591797 12.2734 1.31934 16.9131
c1.87207 10.7617 5.81445 28.0234 8.7998 38.5303l-14.9102 5.12012c-9.01367 2.93359 -16.3301 13.0088 -16.3301 22.4883c0 13.0557 10.5957 23.6504 23.6504 23.6504c2.32031 0 5.97168 -0.649414 8.15039 -1.44922l14.7598 -5.05957
c7.04395 16.8311 20.7705 42.9443 30.6396 58.29l-12.6396 9.2002c-5.66016 3.89551 -10.2529 12.6338 -10.2529 19.5049c0 13.0713 10.6084 23.6807 23.6797 23.6807c4.49902 0 11.0273 -2.24707 14.5732 -5.01562l12.7002 -9.20996
c11.6836 14.04 32.4756 35.0195 46.4102 46.8301l-9.33008 12.4297c-2.60352 3.46973 -4.7168 9.80762 -4.7168 14.1455c0 6.55664 4.27637 15.0439 9.54688 18.9443c3.49121 2.58789 9.85254 4.6875 14.1992 4.6875c6.55957 0 15.0898 -4.25 19.04 -9.4873
l9.45996 -12.5703c15.2988 10.0156 41.3496 24.0029 58.1504 31.2207l-5.20996 14.5898c-0.68457 2.0332 -1.23926 5.4248 -1.23926 7.57031c0 13.1045 10.6357 23.7402 23.7402 23.7402c9.10547 0 19.0732 -6.92676 22.249 -15.4609l5.20996 -14.8203
c11.5498 3.38379 30.5498 7.78711 42.4102 9.83008c5.03516 0.84668 13.2666 1.5332 18.3721 1.5332c1.10645 0 2.90234 -0.0332031 4.00781 -0.0732422l4.63965 17.7607c2.54492 9.82715 12.8486 17.8027 23 17.8027c13.1152 0 23.7588 -10.6436 23.7588 -23.7578
c0 -1.6709 -0.339844 -4.33789 -0.758789 -5.95508l-4.72949 -18.0801c16.585 -8.42578 37.4033 -28.4473 46.4697 -44.6904l18.0898 5.36035c1.83105 0.544922 4.86719 0.987305 6.77734 0.987305c9.75098 0 19.9443 -7.5791 22.7529 -16.917zM420.07 266.8
c6.5918 9.17188 11.9424 25.7832 11.9424 37.0781c0 2.9502 -0.400391 7.7041 -0.892578 10.6123c-5.08008 30.5098 -32.1504 53.5098 -62.9502 53.5098h-0.163086c-2.90332 0 -7.58398 -0.389648 -10.4473 -0.870117c-130.914 -21.7979 -254.867 -145.737 -276.68 -276.649
c-0.600586 -3.2168 -1.08887 -8.48242 -1.08887 -11.7539c0 -35.3281 28.6729 -64 64 -64c30.5449 0 58.916 24.5293 63.3291 54.7539c13.5303 81.0771 90.3125 157.864 171.39 171.399c14.459 2.3623 33.0781 13.9746 41.5605 25.9199zM160 160
c17.6641 0 32 -14.3359 32 -32s-14.3359 -32 -32 -32s-32 14.3359 -32 32s14.3359 32 32 32zM240 264c13.248 0 24 -10.752 24 -24s-10.752 -24 -24 -24s-24 10.752 -24 24s10.752 24 24 24z"/>
			<glyph glyph-name="box-tissue" unicode="&#xf95b;" horiz-adv-x="512"
				   d="M480 240c17.6641 0 32 -14.3359 32 -32v-240c0 -17.6641 -14.3359 -32 -32 -32h-448c-17.6641 0 -32 14.3359 -32 32v240c0 17.6641 14.3359 32 32 32h78.2197l-46.2197 208h141.4h0.00976562c27.9277 0 57.7607 -21.5039 66.5898 -48
c8.83203 -26.4961 38.668 -48 66.5977 -48h0.00195312h109.4l-37.3301 -112h69.3301zM205.4 400h-81.5605l53.3301 -240h156.23l48 144h-42.8008h-0.106445c-47.0127 0 -97.2041 36.207 -112.033 80.8203c-2.78125 8.37891 -12.2031 15.1797 -21.0322 15.1797h-0.0273438z
M48 192v-112h416v112h-69.3301l-10.6699 -32h16c8.83203 0 16 -7.16797 16 -16v-16c0 -8.83203 -7.16797 -16 -16 -16h-288c-8.83203 0 -16 7.16797 -16 16v16c0 8.83203 7.16797 16 16 16h16l-7.11035 32h-72.8896zM464 -16v48h-416v-48h416z"/>
			<glyph glyph-name="hand-holding-medical" unicode="&#xf95c;" horiz-adv-x="576"
				   d="M160 272c-8.83203 0 -16 7.16797 -16 16v64c0 8.83203 7.16797 16 16 16h64v64c0 8.83203 7.16797 16 16 16h64c8.83203 0 16 -7.16797 16 -16v-64h64c8.83203 0 16 -7.16797 16 -16v-64c0 -8.83203 -7.16797 -16 -16 -16h-64v-64c0 -8.83203 -7.16797 -16 -16 -16h-64
c-8.83203 0 -16 7.16797 -16 16v64h-64zM552 136c13.2578 -11.1377 24.0176 -34.2295 24.0176 -51.5449c0 -18.7012 -12.1885 -42.9219 -27.208 -54.0654l-100.81 -75.8896c-13.5156 -10.1992 -38.2275 -18.4873 -55.1602 -18.5h-376.84c-8.83203 0 -16 7.16797 -16 16v16
c0 8.83203 7.16797 16 16 16h376.54c8.24902 0.0263672 20.3047 4.05859 26.9102 9l100.6 75.5c4.45801 3.18359 8.07617 10.2129 8.07617 15.6904c0 5.08496 -3.20996 11.8047 -7.16602 15c-7.91016 6.70996 -20.1104 6.20996 -28.4102 0l-61.2998 -46.1006
c-6.60156 -4.95117 -18.6572 -8.9834 -26.9102 -9h-134.55c-7.60156 0.0224609 -13.7793 6.20898 -13.79 13.8105v0.0996094c0.0107422 7.61719 6.20215 13.7998 13.8203 13.7998v0h59.79c30.1992 0 29 40.2002 1.10938 40.2002h-144
c-0.078125 0 -0.205078 0.000976562 -0.28418 0.000976562c-15.0928 0 -37.1055 -7.39746 -49.1357 -16.5107l-41.2998 -31.4902h-80c-8.83203 0 -16 7.16797 -16 16v16c0 8.83203 7.16797 16 16 16h63.7998l28.3604 21.7998c19.2393 14.5107 54.4121 26.2881 78.5098 26.29
h144c38.7002 0 69 -29.7803 69.21 -67.7803h3.29004l60.4199 45.4902c19.0898 14.29 57.2998 24.6006 88.4102 -1.7998z"/>
			<glyph glyph-name="hand-sparkles" unicode="&#xf95d;"
				   d="M471.38 -19.5l37.4697 -15.6299l1.90039 -4.57031c-12.9082 -13.3291 -38.4443 -24.2158 -57 -24.2998h-180.65h-0.0869141c-23.6465 0 -53.4434 15.9932 -66.5127 35.7002l-113.5 171c-7.16016 10.2646 -12.9717 28.752 -12.9717 41.2676
c0 20.6943 13.7451 47.1406 30.6816 59.0322c27.2002 19.0898 54.79 12.5898 65.29 8.91016v92.0898c0.0439453 39.7002 32.2998 71.9561 72 72c0.078125 0 0.206055 0.000976562 0.28418 0.000976562c5.14258 0 13.3486 -1.08008 18.3154 -2.41113
c11.6279 18.9912 39.1377 34.4043 61.4053 34.4043c22.2686 0 49.7773 -15.4131 61.4053 -34.4043c4.9668 1.33105 13.1709 2.41113 18.3135 2.41113c0.0761719 0 0.200195 -0.000976562 0.276367 -0.000976562c39.7002 -0.0439453 71.9561 -32.2998 72 -72v-8.41016
c2.59961 0.209961 5.2998 0.410156 8 0.410156h0.0595703c39.7109 0 71.9404 -32.2295 71.9404 -71.9404v-0.0595703v-88.2998c-0.130859 -13.3711 -1.75293 -34.9697 -3.62012 -48.21c-13 -1.32031 -25.1699 -9.18066 -31 -20.9199l-0.469727 -0.950195l-0.410156 -1
l-15.6299 -37.4902l-13.2705 -5.53027l10.2402 51.3105c3.41797 17.1611 6.19531 45.291 6.2002 62.79v88.2998c0 31.7002 -48 31.7998 -48 0v-64c0 -4.41602 -3.58398 -8 -8 -8h-16c-4.41602 0 -8 3.58398 -8 8v144c0 31.7002 -48 31.7998 -48 0v-144
c0 -4.41602 -3.58398 -8 -8 -8h-16c-4.41602 0 -8 3.58398 -8 8v176c0 31.7002 -48 31.7998 -48 0v-176c0 -4.41602 -3.58398 -8 -8 -8h-16c-4.41602 0 -8 3.58398 -8 8v144c0 31.7002 -48 31.7998 -48 0v-196.09c0 -7.82031 -10.0898 -11.1104 -14.5898 -4.61035
l-37.8105 54.4004c-18.5996 26.5996 -57.2998 -1.79004 -39.2998 -27.5l114.11 -171.9c5.27148 -7.85742 17.2285 -14.2637 26.6895 -14.2998h180.71c2.68359 0.0546875 6.92676 0.793945 9.4707 1.65039c1.55664 -1.33301 4.27148 -3.22754 6.05957 -4.23047l1 -0.490234z
M86 291.7h-0.0800781c-1.01074 -2.04297 -3.68066 -3.7002 -5.95996 -3.7002s-4.94922 1.65723 -5.95996 3.7002l-20.6602 49.6299h-0.0703125l-49.5693 20.6699c-1.93652 1.0918 -3.59375 3.78027 -3.7002 6v0c0.104492 2.2207 1.7627 4.90918 3.7002 6l49.5898 20.6699
h0.0498047l20.6602 49.6299c0.998047 2.08789 3.68555 3.78223 6 3.78223s5.00195 -1.69434 6 -3.78223l20.6602 -49.6699h0.0703125l49.5693 -20.6299c1.9375 -1.09082 3.5957 -3.7793 3.7002 -6v0c-0.106445 -2.21973 -1.76367 -4.9082 -3.7002 -6l-49.5195 -20.6699
h-0.0898438v0zM307.58 160l12.4199 -29.79l29.79 -12.4199c1.21777 -0.611328 2.20605 -2.21289 2.20605 -3.5752s-0.988281 -2.96387 -2.20605 -3.5752l-29.79 -12.4199l-12.4297 -29.7793c-0.611328 -1.21777 -2.21289 -2.20605 -3.5752 -2.20605
s-2.96387 0.988281 -3.5752 2.20605l-12.4199 29.7793l-29.79 12.4199c-1.21777 0.611328 -2.20605 2.21289 -2.20605 3.5752s0.988281 2.96387 2.20605 3.5752l29.79 12.4199l12.4297 29.79c0.611328 1.21777 2.21289 2.20605 3.5752 2.20605
s2.96387 -0.988281 3.5752 -2.20605zM640 16c-0.106445 -2.21973 -1.76367 -4.9082 -3.7002 -6l-49.5996 -20.6201l-0.0898438 -0.0498047v0l-20.6904 -49.6299c-1.01074 -2.04297 -3.68066 -3.7002 -5.95996 -3.7002s-4.94922 1.65723 -5.95996 3.7002l-20.6602 49.6299
h-0.0703125l-49.5693 20.6699c-1.93652 1.0918 -3.59375 3.78027 -3.7002 6v0c0.104492 2.2207 1.7627 4.90918 3.7002 6l49.6299 20.6699h0.0498047l20.7002 49.6299c1.01074 2.04297 3.68066 3.7002 5.95996 3.7002s4.94922 -1.65723 5.95996 -3.7002l20.6602 -49.6299
h0.0703125l49.5693 -20.6699c1.9375 -1.09082 3.5957 -3.7793 3.7002 -6z"/>
			<glyph glyph-name="hands-wash" unicode="&#xf95e;" horiz-adv-x="576"
				   d="M576 256c0 -37.5303 -26.0703 -68.8799 -61 -77.4697c1.65625 -4.71973 3.00098 -12.6094 3.00098 -17.6104c0 -0.09375 0 -0.246094 -0.000976562 -0.339844c11.0283 -8.49512 22.125 -26.4824 24.7695 -40.1504c0.685547 -3.52539 1.24121 -9.30078 1.24121 -12.8926
c0 -18.2129 -11.6533 -42.0908 -26.0107 -53.2969c-0.324219 -17.7783 -11.9717 -41.0742 -26 -52c-0.682617 -36.5645 -30.917 -66.2402 -67.4883 -66.2402h-0.0117188h-169c-33.9785 0.0205078 -80.6826 19.9033 -104.25 44.3799
c-13.1602 -26.1895 -40 -44.3799 -71.25 -44.3799c-44.1104 0.0498047 -79.9502 35.8896 -80 80c0 35.8496 23.8701 65.9102 56.4297 76c-13.082 20.0146 -24.04 55.6621 -24.46 79.5703v92.2295c0.480469 36.8105 31.0498 66.75 68.5703 66.75
c1.54004 -0.00976562 3.04004 -0.0693359 4.54004 -0.179688l19.1504 60.6104c9.0498 28.6494 34.9893 47.8896 64.5596 47.8896h0.046875c2.1084 0 5.51855 -0.197266 7.61328 -0.44043c3.24414 -0.37793 8.41895 -1.43945 11.5498 -2.37012
c9.49316 6.5918 26.5781 11.9404 38.1357 11.9404h0.104492c2.12109 -0.000976562 5.55273 -0.203125 7.66016 -0.450195c22.7227 -2.61133 47.6582 -22.1221 55.6592 -43.5498c12.3311 -4.1377 28.0654 -16.3633 35.1201 -27.29
c2.22461 -3.43652 5.19531 -9.33594 6.62988 -13.1699c25.376 -8.54004 45.9697 -37.2002 45.9697 -63.9736c0 -5.75 -1.40625 -14.8643 -3.13965 -20.3467l-12.4199 -39.2998c1.60059 -3.44043 3.6123 -9.22852 4.49023 -12.9199h35.4297
c-3.1123 7.77832 -5.63965 20.8906 -5.63965 29.2686c0 22.1934 14.5869 50.7715 32.5596 63.791c-0.189453 -0.0595703 -0.369141 -0.0595703 -0.55957 -0.0595703c-0.106445 -0.000976562 -0.279297 -0.000976562 -0.385742 -0.000976562
c-35.1348 0 -63.6494 28.5146 -63.6494 63.6494s28.5146 63.6504 63.6494 63.6504s63.6504 -28.5156 63.6504 -63.6504c0 -16.1758 -9.97461 -37.8408 -22.2646 -48.3584c2.36035 0.209961 4.61035 0.709961 7 0.709961c44.1104 -0.0498047 79.9502 -35.8896 80 -80z
M448 368c8.83203 0 16 7.16797 16 16s-7.16797 16 -16 16s-16 -7.16797 -16 -16s7.16797 -16 16 -16zM311 304.74l-9 -28.5303c5.06641 1.52246 13.4727 2.75879 18.7637 2.75879c6.2002 0 15.9736 -1.68359 21.8164 -3.75879l5.83008 18.4805
c7.7998 24.6592 -29.2803 36.7598 -37.4102 11.0498zM306.66 334.14c7.79004 24.6699 -29.3203 36.7705 -37.4502 11.0205l-27.1797 -86.46c-0.140625 -0.400391 -0.530273 -0.620117 -0.740234 -1l45.6699 14.0801zM80 263.17v-91.5996
c0.375977 -22.6396 13.8154 -53.8652 30 -69.7002v5.66016c0 64.0596 41 120.77 103.07 141.42l20 6.16992c-2.03223 0.936523 -3.68164 3.51172 -3.68164 5.74902c0 0.487305 0.108398 1.2627 0.241211 1.73047l35.2402 112
c7.79004 24.6699 -29.29 36.7705 -37.4102 11.0508l-38.9404 -123.261c-0.791016 -2.50879 -3.56836 -4.5459 -6.19922 -4.5459c-3.58887 0 -6.50098 2.91309 -6.50098 6.50098c0 0.552734 0.134766 1.42871 0.300781 1.95508l31.29 99.2197
c7.79004 24.6201 -29.29 36.7207 -37.4102 11l-48.6904 -154.25l-1.68945 40.6602v0.110352c0 10.7041 -8.68652 19.4492 -19.3896 19.5195h-0.0703125c-10.7197 0 -20.0205 -8.59961 -20.1602 -19.3896zM80 -16c17.6641 0 32 14.3359 32 32s-14.3359 32 -32 32
s-32 -14.3359 -32 -32s14.3359 -32 32 -32zM476.5 88c10.7705 0.0107422 19.5117 8.75977 19.5117 19.5303c0 1.07031 -0.170898 2.79004 -0.381836 3.83984c-1.78027 9.25977 -10.4297 15.6299 -19.8604 15.6299h-129.27c-3.58789 0 -6.5 2.91211 -6.5 6.5
s2.91211 6.5 6.5 6.5h104c10.7705 0.0107422 19.5117 8.75977 19.5117 19.5303c0 1.07031 -0.170898 2.79004 -0.381836 3.83984c-1.78027 9.25977 -10.4297 15.6299 -19.8604 15.6299h-161.77l38.2598 13.8096c7.58496 2.3457 13.7402 10.6914 13.7402 18.6309
c0 10.7637 -8.73535 19.5 -19.5 19.5h-0.0302734c-1.61523 -0.00390625 -4.18262 -0.384766 -5.72949 -0.850586l-87.5205 -27c-38.1982 -12.5557 -69.209 -55.3809 -69.2197 -95.5898v-26c0 -53.8203 43.6797 -97.5 97.5 -97.5h169
c10.7705 0.0107422 19.5117 8.75977 19.5117 19.5303c0 1.07031 -0.170898 2.79004 -0.381836 3.83984c-1.78027 9.25977 -10.4297 15.6299 -19.8604 15.6299h-77.2695c-3.58789 0 -6.5 2.91211 -6.5 6.5s2.91211 6.5 6.5 6.5h104
c10.7705 0.0107422 19.5117 8.75977 19.5117 19.5303c0 1.07031 -0.170898 2.79004 -0.381836 3.83984c-1.78027 9.25977 -10.4297 15.6299 -19.8604 15.6299h-103.27c-3.58789 0 -6.5 2.91211 -6.5 6.5s2.91211 6.5 6.5 6.5h130zM496 224c17.6641 0 32 14.3359 32 32
s-14.3359 32 -32 32s-32 -14.3359 -32 -32s14.3359 -32 32 -32z"/>
			<glyph glyph-name="handshake-alt-slash" unicode="&#xf95f;"
				   d="M16 272.09c-8.83203 0 -16 7.16797 -16 16v16c0 8.83203 7.16797 16 16 16h23.2695l61.4004 -48h-84.6699zM346.7 52.7002l13.5303 16.4502l60.1396 -47c-4.06445 -1.12891 -10.7852 -2.04395 -15.0029 -2.04395c-5.79199 0 -14.877 1.69922 -20.2773 3.79395
c-13.5 -16.6006 -30.5898 -24 -48.79 -24c-15.0996 0 -28.5996 5.09961 -41.0996 15.8994c-31.79 -21.8994 -74.7002 -21.2998 -105.61 3.79004l-84.5898 76.4102h-89c-8.83203 0 -16 7.16797 -16 16v16c0.0273438 8.80469 7.19531 15.9727 16 16h107.7l97.2998 -88
c16.0898 -13.0996 41.4102 -10.5 55.2998 6.58984l15.6104 19.2002l36.79 -31.5c1.8623 -1.37012 5.25 -2.4834 7.5625 -2.4834c0.425781 0 1.11426 0.0419922 1.53711 0.09375c2.99805 0.320312 6.98535 2.4707 8.90039 4.7998zM377.91 269.09
c2.3125 -2.53027 4.18945 -7.36621 4.18945 -10.7939c0 -3.88574 -2.3252 -9.1709 -5.18945 -11.7959l-4.49023 -4.09961l-38.3701 30l10.3604 9.5c2.53516 2.29688 7.36914 4.16113 10.79 4.16113c3.87988 0 9.16602 -2.3125 11.7998 -5.16113zM624 144
c8.80469 -0.0273438 15.9727 -7.19531 16 -16v-16c0 -8.83203 -7.16797 -16 -16 -16h-64.2998l-61.4004 48h125.7zM624 320.2c8.80469 -0.0273438 15.9727 -7.19531 16 -16v-16c0 -8.83203 -7.16797 -16 -16 -16h-124.8l-61.7002 61.5898
c-1.22168 1.26953 -3.64355 2.30078 -5.40527 2.30078c-0.0263672 0 -0.0683594 -0.000976562 -0.0947266 -0.000976562l-83.7002 -0.189453h-0.0673828c-8.56348 0 -20.6289 -4.7041 -26.9326 -10.5l-25.2998 -23.2207l-102.87 80.4004
c3.28906 0.754883 8.69629 1.39062 12.0703 1.41992h226.8c12.7549 -0.0078125 30.4912 -7.27051 39.5898 -16.21l47.6104 -47.5898h104.8zM36 444.48l598 -467.48c3.31445 -2.65137 6.00391 -8.24902 6.00391 -12.4932c0 -3.10645 -1.5791 -7.59375 -3.52344 -10.0166
l-10 -12.4902c-2.65234 -3.30566 -8.24414 -5.98926 -12.4814 -5.98926c-3.09961 0 -7.5791 1.57227 -9.99902 3.50879l-598 467.48c-3.31738 2.65137 -6.00977 8.25098 -6.00977 12.498c0 3.10449 1.57715 7.58984 3.51953 10.0117l10 12.4902
c2.65234 3.30859 8.24512 5.99414 12.4854 5.99414c3.10156 0 7.58398 -1.57422 10.0049 -3.51367z"/>
			<glyph glyph-name="handshake-slash" unicode="&#xf960;"
				   d="M346.7 52.79l13.4902 16.4297l60.0996 -47c-4.04102 -1.11621 -10.7227 -2.02246 -14.915 -2.02246c-5.7959 0 -14.8828 1.70312 -20.2852 3.80273c-13.5 -16.5996 -30.5898 -24 -48.79 -24c-15.0996 0 -28.5996 5.08984 -41.0996 15.9004
c-31.79 -21.9004 -74.7002 -21.3105 -105.61 3.7998l-84.5898 76.3896h-9.08984c-0.109375 -17.4932 -14.3965 -31.6895 -31.8896 -31.6895h-0.0205078h-64v255.689h39.2695l61.2607 -47.8896h-4.53027v-128.11h27.7002l97.2998 -88
c16.0898 -13.0898 41.4102 -10.5 55.2998 6.61035l15.6104 19.2002l36.79 -31.5c3 -2.40039 12 -4.90039 18 2.38965zM48 96.4004c8.83203 0 16 7.16797 16 16s-7.16797 16 -16 16s-16 -7.16797 -16 -16s7.16797 -16 16 -16zM377.91 269.2
c2.32227 -2.5332 4.20605 -7.37695 4.20605 -10.8125c0 -3.91113 -2.35059 -9.21875 -5.24609 -11.8477l-4.5498 -4.13965l-38.3203 30l10.4102 9.5c2.53516 2.29688 7.36914 4.16113 10.79 4.16113c3.87988 0 9.16602 -2.3125 11.7998 -5.16113zM519.2 320.09h120.8
v-255.689h-39.8896l-101.931 79.6992h45.8203v128h-44.7002l-61.71 61.6104c-1.21094 1.26465 -3.61523 2.29102 -5.36621 2.29102c-0.0371094 0 -0.0966797 0 -0.133789 -0.000976562l-83.6797 -0.200195h-0.0761719c-8.56055 0 -20.623 -4.7041 -26.9238 -10.5
l-25.3398 -23.2002l-102.94 80.4805c3.28906 0.754883 8.69629 1.39062 12.0703 1.41992h226.8c12.7803 0 30.5195 -7.2998 39.5898 -16.2998zM592 96.4004c8.83203 0 16 7.16797 16 16s-7.16797 16 -16 16s-16 -7.16797 -16 -16s7.16797 -16 16 -16zM36 444.48l598 -467.48
c3.31445 -2.65137 6.00391 -8.24902 6.00391 -12.4932c0 -3.10645 -1.5791 -7.59375 -3.52344 -10.0166l-10 -12.4902c-2.65234 -3.30566 -8.24414 -5.98926 -12.4814 -5.98926c-3.09961 0 -7.5791 1.57227 -9.99902 3.50879l-598 467.48
c-3.31738 2.65137 -6.00977 8.25098 -6.00977 12.498c0 3.10449 1.57715 7.58984 3.51953 10.0117l10 12.4902c2.65234 3.30859 8.24512 5.99414 12.4854 5.99414c3.10156 0 7.58398 -1.57422 10.0049 -3.51367z"/>
			<glyph glyph-name="head-side-cough" unicode="&#xf961;"
				   d="M320 224c-17.6641 0 -32 14.3359 -32 32s14.3359 32 32 32s32 -14.3359 32 -32s-14.3359 -32 -32 -32zM509.2 173c1.52344 -3.42676 2.75977 -9.25 2.75977 -13c0 -17.6416 -14.3184 -31.9775 -31.96 -32h-32v-24c0 -8.83203 -7.16797 -16 -16 -16h-88
c-8.83203 0 -16 -7.16797 -16 -16s7.16797 -16 16 -16h88c8.83203 0 16 -7.16797 16 -16v-40c0 -35.3281 -28.6719 -64 -64 -64h-80v48h80c8.83203 0 16 7.16797 16 16v16h-56v0c-30.9121 0 -56 25.0879 -56 56c0 0.828125 0.0351562 2.17285 0.0800781 3
c1.58984 30.29 28.7695 53 59.0898 53h52.8301v48h56.25c-6.13965 16.2002 -12.4502 34.8096 -19 54.1299c-12.3096 36.3203 -29.1904 86.0898 -40.3701 102c-26.3887 37.4434 -84.9824 67.8486 -130.79 67.8701h-67.7695c-56.25 0 -110.12 -29.5303 -135.181 -79.9102
c-30.0195 -60.46 -13.7393 -129.38 32.8604 -171.17l16 -14.3096v-182.61c0 -8.83203 -7.16797 -16 -16 -16h-16c-8.83203 0 -16 7.16797 -16 16v161.19c-35.332 31.4961 -64.0078 95.4727 -64.0078 142.806c0 1.85059 0.0527344 4.85449 0.118164 6.7041
c3.55957 104.439 93.5498 185.3 198.06 185.3h67.9199h0.0214844c59.5684 0 135.736 -39.5361 170.019 -88.25c24.6396 -35.0195 52.1396 -139.62 73.0703 -186.75zM616 88c13.248 0 24 -10.752 24 -24s-10.752 -24 -24 -24s-24 10.752 -24 24s10.752 24 24 24zM616 -16
c13.248 0 24 -10.752 24 -24s-10.752 -24 -24 -24s-24 10.752 -24 24s10.752 24 24 24zM616 144c-13.248 0 -24 10.752 -24 24s10.752 24 24 24s24 -10.752 24 -24s-10.752 -24 -24 -24zM552 128c13.248 0 24 -10.752 24 -24s-10.752 -24 -24 -24s-24 10.752 -24 24
s10.752 24 24 24zM552 32c13.248 0 24 -10.752 24 -24s-10.752 -24 -24 -24s-24 10.752 -24 24s10.752 24 24 24zM488 88c13.248 0 24 -10.752 24 -24s-10.752 -24 -24 -24s-24 10.752 -24 24s10.752 24 24 24z"/>
			<glyph glyph-name="head-side-cough-slash" unicode="&#xf962;"
				   d="M448 122.39l186 -145.39c3.31641 -2.65137 6.00879 -8.25 6.00879 -12.4971c0 -3.10938 -1.58105 -7.59961 -3.52832 -10.0225l-10 -12.4805c-2.60645 -3.20703 -8.07617 -5.81055 -12.208 -5.81055c-2.00391 0 -5.0918 0.712891 -6.89258 1.59082
c-0.661133 0.267578 -1.6875 0.796875 -2.29004 1.17969v0c0.546875 -0.342773 1.47461 -0.822266 2.07031 -1.07031c-0.917969 0.348633 -2.32422 1.07422 -3.14062 1.62012l-1.5791 1.24023v0l-1 0.769531l-1.52051 1.18066l-1.41016 1.09961l-63.6494 49.7598
l10.5195 -8.21973l-13.7695 10.7598l-525.61 410.9c-3.31738 2.65137 -6.00977 8.25098 -6.00977 12.498c0 3.10449 1.57715 7.58984 3.51953 10.0117l10 12.4902c2.65234 3.30859 8.24512 5.99414 12.4854 5.99414c3.10156 0 7.58398 -1.57422 10.0049 -3.51367
l44.5 -34.79c29.0576 21.0752 81.7744 38.2383 117.67 38.3096h67.9199h0.0712891c59.5684 0 135.736 -39.5361 170.019 -88.25c24.6406 -35.0195 52.1406 -139.63 73.0703 -186.75c1.52344 -3.42676 2.75977 -9.25 2.75977 -13c0 -17.6641 -14.3359 -32 -32 -32
h-0.00976562h-32v-5.61035zM400 159.91v16.0898h56.25c-6.13965 16.2002 -12.4502 34.8096 -19 54.1201c-12.3096 36.3301 -29.1904 86.0996 -40.3701 102c-26.3877 37.4443 -84.9814 67.8545 -130.79 67.8799h-67.7695
c-23.1826 -0.0644531 -58.2705 -9.5625 -78.3203 -21.2002l170.05 -132.93c-1.03613 2.7002 -1.95508 7.23828 -2.0498 10.1299c0 17.6641 14.3359 32 32 32s32 -14.3359 32 -32s-14.3359 -32 -32 -32c-0.94043 0 -1.74023 0.459961 -2.66016 0.540039zM552 80
c-13.248 0 -24 10.752 -24 24s10.752 24 24 24s24 -10.752 24 -24s-10.752 -24 -24 -24zM616 144c-13.248 0 -24 10.752 -24 24s10.752 24 24 24s24 -10.752 24 -24s-10.752 -24 -24 -24zM344 56h59l45 -35.1504v-20.8496c0 -35.3281 -28.6719 -64 -64 -64h-80v48h80
c8.83203 0 16 7.16797 16 16v16h-56h-0.000976562c-30.9121 0 -56 25.0879 -56 56c0 0.831055 0.0361328 2.17969 0.0810547 3.00977c1.07031 20.5 14 37.3301 31.5703 46.1904l42.46 -33.2002h-18.1104c-8.83203 0 -16 -7.16797 -16 -16s7.16797 -16 16 -16z
M63.1904 320.09c-30.0205 -60.46 -13.7402 -129.38 32.8096 -171.17l16 -14.3096v-182.61c0 -8.83203 -7.16797 -16 -16 -16h-16c-8.83203 0 -16 7.16797 -16 16v161.19c-35.332 31.4932 -64.0078 95.4658 -64.0078 142.797c0 1.85352 0.0527344 4.86035 0.118164 6.71289
c0.904297 26.1494 12.5029 65.6182 25.8896 88.0996l37.8398 -29.6201c-0.189453 -0.379883 -0.459961 -0.699219 -0.649414 -1.08984zM616 88c13.248 0 24 -10.752 24 -24s-10.752 -24 -24 -24s-24 10.752 -24 24s10.752 24 24 24z"/>
			<glyph glyph-name="head-side-mask" unicode="&#xf963;" horiz-adv-x="512"
				   d="M320.06 288c17.6641 0 32 -14.3359 32 -32s-14.3359 -32 -32 -32c-17.6631 0 -32 14.3359 -32 32s14.3369 32 32 32zM509.29 173c1.47363 -3.3418 2.66895 -9.0166 2.66895 -12.6689c0 -4.24219 -1.58984 -10.7383 -3.54883 -14.501l-54.6006 -151.63
c-11.6035 -32.0732 -48.7021 -58.1465 -82.8096 -58.2002h-115c-17.6641 0 -32 14.3359 -32 32v160.71l-175.64 119.15c1.90234 -32.7227 23.2451 -77.0479 47.6396 -98.9404l16 -14.3096v-182.61c0 -8.83203 -7.16797 -16 -16 -16h-16c-8.83203 0 -16 7.16797 -16 16
v161.19c-35.332 31.4883 -64.0078 95.4561 -64.0078 142.783c0 1.85449 0.0527344 4.86328 0.118164 6.7168c3.55957 104.449 93.5693 185.31 198.09 185.31h67.9395h0.0263672c59.5713 0 135.746 -39.5361 170.034 -88.25
c24.6494 -35.0195 52.1494 -139.63 73.0898 -186.75zM439.53 96l11.5498 32h-179v-144h99c11.0059 0.0341797 25.3066 7.20215 31.9199 16h-66.9404c-8.83203 0 -16 7.16797 -16 16s7.16797 16 16 16h80.4209l11.5195 32h-91.9404c-8.83203 0 -16 7.16797 -16 16
s7.16797 16 16 16h103.471zM239.83 176h216.5c-6.13965 16.2002 -12.46 34.8096 -19 54.1201c-12.3203 36.3301 -29.2002 86.0996 -40.3896 102c-26.3906 37.4463 -84.9893 67.8564 -130.801 67.8799h-67.7793c-56.2607 0 -110.141 -29.5303 -135.16 -79.8799
c-2.46484 -5.12988 -5.86035 -13.6953 -7.58008 -19.1201z"/>
			<glyph glyph-name="head-side-virus" unicode="&#xf964;" horiz-adv-x="512"
				   d="M320.46 129.32c-3.25 0 -7.76562 1.86816 -10.0596 4.16992l-7.62012 7.62012c-17.9199 17.8896 -48.5605 5.22949 -48.5605 -20.1104v-10.79c0 -7.84961 -6.37012 -14.2197 -14.2197 -14.2197s-14.2197 6.37012 -14.2197 14.2197v10.7803
c0 25.3398 -30.6406 38.0293 -48.5605 20.1094l-7.62012 -7.61914c-2.30176 -2.31836 -6.82227 -4.2002 -10.0889 -4.2002c-7.84961 0 -14.2197 6.37109 -14.2197 14.2207c0 3.2666 1.88086 7.78711 4.19922 10.0889l7.62012 7.62012
c17.8896 17.9199 5.22949 48.5596 -20.1104 48.5596h-10.7803c-7.84961 0 -14.2197 6.37109 -14.2197 14.2207s6.37012 14.2197 14.2197 14.2197h10.7803c25.3398 0 38.0303 30.6396 20.1104 48.5596l-7.62012 7.62012c-2.30078 2.2998 -4.16895 6.80664 -4.16895 10.0605
c0 7.85156 6.37207 14.2236 14.2236 14.2236c3.25098 0 7.75586 -1.86523 10.0547 -4.16406l7.62012 -7.62988c17.9199 -17.8799 48.5605 -5.21973 48.5605 20.1201v10.7803c0 7.84961 6.37012 14.2197 14.2197 14.2197s14.2197 -6.37012 14.2197 -14.2197v-10.7803
c0 -25.3301 30.6406 -38 48.5498 -20.1104l7.62012 7.62988c2.2998 2.29883 6.80469 4.16406 10.0557 4.16406c7.85059 0 14.2227 -6.37207 14.2227 -14.2236c0 -3.25293 -1.86719 -7.75977 -4.16797 -10.0596l-7.62012 -7.62012
c-17.8799 -17.9199 -5.21973 -48.5605 20.1201 -48.5605h10.7695c7.84961 0 14.2207 -6.37012 14.2207 -14.2197s-6.37109 -14.2197 -14.2207 -14.2197v0h-10.7695c-25.3301 0 -38 -30.6406 -20.1104 -48.5605l7.62012 -7.62012
c2.29395 -2.29883 4.15625 -6.80176 4.15625 -10.0498c0 -7.8418 -6.36426 -14.2168 -14.2061 -14.2295zM208 224c8.83203 0 16 7.16797 16 16s-7.16797 16 -16 16s-16 -7.16797 -16 -16s7.16797 -16 16 -16zM272 192c8.83203 0 16 7.16797 16 16s-7.16797 16 -16 16
s-16 -7.16797 -16 -16s7.16797 -16 16 -16zM509.2 173c1.52344 -3.42676 2.75977 -9.25 2.75977 -13c0 -17.6416 -14.3184 -31.9775 -31.96 -32h-32v-64c0 -35.3281 -28.6719 -64 -64 -64h-32v-48c0 -8.83203 -7.16797 -16 -16 -16h-16c-8.83203 0 -16 7.16797 -16 16v96h80
c8.83203 0 16 7.16797 16 16v112h56.2598c-6.13965 16.2002 -12.4502 34.8096 -19 54.1201c-12.3096 36.3301 -29.1895 86.0996 -40.3701 102c-26.3877 37.4443 -84.9814 67.8545 -130.79 67.8799h-67.0996c-55.8896 0 -109.8 -28.7803 -135.14 -78.5801
c-30.9199 -60.7803 -14.75 -130.42 32.1396 -172.5l16 -14.3096v-182.61c0 -8.83203 -7.16797 -16 -16 -16h-16c-8.83203 0 -16 7.16797 -16 16v161.19c-35.3311 31.4902 -64.0059 95.458 -64.0059 142.786c0 2.06348 0.0654297 5.41211 0.145508 7.47363
c3.99023 104.47 95.3301 184.55 199.86 184.55h66.0898h0.0214844c59.5684 0 135.736 -39.5361 170.019 -88.25c24.6396 -35.0195 52.1396 -139.63 73.0703 -186.75z"/>
			<glyph glyph-name="house-user" unicode="&#xf965;" horiz-adv-x="576"
				   d="M570.61 208c2.77051 -2.73535 5.18457 -8.11133 5.38965 -12c-0.163086 -3.27832 -1.95508 -8.02246 -4 -10.5898l-10.6602 -11.9297c-2.63477 -2.96582 -7.99316 -5.37207 -11.96 -5.37207c-3.35742 0 -8.12012 1.81055 -10.6299 4.04199l-26.75 24v-220.15
c0 -22.0801 -17.9199 -40 -40 -40h-368c-22.0801 0 -40 17.9199 -40 40v220.02l-26.75 -24c-2.5791 -2.04785 -7.34082 -3.83984 -10.6299 -4c-3.8877 0.195312 -9.26367 2.60156 -12 5.37012l-10.6201 12c-2.04883 2.57227 -3.84082 7.32617 -4 10.6104
c0.205078 3.88867 2.61914 9.26465 5.38965 12l256.051 229.91c6.2793 5.55957 18.1699 10.0898 26.5596 10.0898s20.2803 -4.53027 26.5596 -10.0801l53.4404 -48v2.08008c0 13.248 10.752 24 24 24h96c13.248 0 24 -10.752 24 -24v-131.37zM464 -16v255.24l-176 158
l-176 -158v-255.24h48v16c0 52.9922 43.0078 96 96 96h64c52.9922 0 96 -43.0078 96 -96v-16h48zM464 303.72v64.2803h-48v-21.1797zM224 192c0 35.3281 28.6719 64 64 64s64 -28.6719 64 -64s-28.6719 -64 -64 -64s-64 28.6719 -64 64z"/>
			<glyph glyph-name="laptop-house" unicode="&#xf966;"
				   d="M629.33 0c5.88965 0 10.6699 -4.78027 10.6699 -10.6699v-10.6602c-0.0820312 -23.4336 -19.167 -42.5498 -42.5996 -42.6699h-298.801c-23.4277 0.125977 -42.5127 19.2422 -42.5996 42.6699v10.6602c0 5.88379 4.77539 10.6641 10.6602 10.6699h37.3301v160
c0 17.6699 12.8994 32 28.7998 32h230.41c15.8994 0 28.7998 -14.3301 28.7998 -32v-160h37.3301zM544 0v144h-192v-144h192zM272 80v-48h-168c-22.0801 0 -40 17.9199 -40 40v164.39l-26.75 -24.3701c-2.57715 -2.05078 -7.33984 -3.84277 -10.6299 -4
c-3.88672 0.199219 -9.2627 2.60449 -12 5.37012l-10.6201 12c-2.04883 2.57227 -3.84082 7.32617 -4 10.6104c0.205078 3.88867 2.61914 9.26465 5.38965 12l210.53 190.88c5.7002 5.03027 16.4805 9.12012 24.0801 9.12012s18.4004 -4.08984 24.0801 -9.12012
l103.92 -94.2197v55.3398c0 8.83203 7.16797 16 16 16h16c8.83203 0 16 -7.16797 16 -16v-98.8398l58.6504 -53.1602c2.73828 -2.72949 5.12598 -8.0791 5.33008 -11.9404c-0.166016 -3.28125 -1.95801 -8.03516 -4 -10.6094l-1.28027 -1.4502h-106.7v55.9404l-128 116.06
l-128 -116.06v-199.94h160zM208 256h64c8.79395 -0.0380859 15.9619 -7.20605 16 -16v-37.0596c-8.83203 -10.1787 -16 -29.375 -16 -42.8506v-0.0898438h-64c-8.83203 0 -16 7.16797 -16 16v64c0.0380859 8.79395 7.20605 15.9619 16 16z"/>
			<glyph glyph-name="lungs-virus" unicode="&#xf967;"
				   d="M636.08 57.8604c2.14453 -8.04004 3.90137 -21.3193 3.91992 -29.6406c0 -52.3301 -45.6201 -92.2197 -98.0703 -92.2197c-18.0801 0 -24.46 2.87012 -86.6699 19.5596c-17.7422 4.65918 -41.2705 20.2002 -52.5195 34.6904
c2.125 -0.378906 5.60156 -0.714844 7.75977 -0.75h0.142578c10.9385 0 26.0752 6.29395 33.7871 14.0498c2.30078 2.29004 3.44043 5.18066 5.16992 7.78027c4.46191 -3.61328 12.5625 -7.83398 18.0801 -9.41992c64.6104 -17.3105 64.4404 -17.9102 74.25 -17.9102
c30.3105 0 57.9004 23.5801 47.7803 61.5c-17.1602 64.1572 -60.1865 161.597 -96.04 217.5c-23.0596 36.4102 -25.3398 41 -39.6201 41c-11.9502 0 -22.0498 -8.09961 -22.0498 -17.7002v-25.0801c-5.63965 2.9248 -15.374 5.29785 -21.7275 5.29785
c-7.9209 0 -19.6914 -3.57812 -26.2725 -7.9873v27.7695c0 36.2803 31.3096 65.7002 70 65.7002c44 0 58 -28.5596 80.0801 -63.1396c38.0693 -59.377 83.7646 -162.865 102 -231zM195.54 3.55957c7.55859 -7.76367 22.4883 -14.084 33.3232 -14.084
c2.33691 0 6.09863 0.342773 8.39648 0.764648c-11.25 -14.4902 -34.7783 -30.0352 -52.5195 -34.7002c-62.2305 -16.6699 -68.5898 -19.54 -86.6807 -19.54c-52.4395 0 -98.0596 39.9102 -98.0596 92.2305c0 8.32422 1.74707 21.6074 3.90039 29.6494
c18.2344 68.1348 63.9307 171.623 102 231c22.0693 34.5605 36 63.1201 80 63.1201c38.6895 0 70.0498 -29.4199 70.0498 -65.7002v-27.7695c-6.58398 4.41016 -18.3584 7.99023 -26.2832 7.99023c-6.34961 0 -16.0791 -2.37012 -21.7168 -5.29004v25.0693
c0 9.60059 -10.0498 17.7002 -22.0498 17.7002c-14.2803 0 -16.5703 -4.59961 -39.6201 -41c-35.8467 -55.9062 -78.8545 -153.351 -96 -217.51c-10.1299 -37.9199 17.4795 -61.4902 47.7793 -61.4902c9.81055 0 9.64062 0.610352 74.2607 17.9404
c5.51172 1.57617 13.6025 5.7832 18.0596 9.38965c1.73047 -2.59961 2.86035 -5.48047 5.16016 -7.77051zM344 297.32c-6.11035 3.68848 -16.8623 6.68164 -24 6.68164s-17.8896 -2.99316 -24 -6.68164v134.68c0 8.83203 7.16797 16 16 16h16c8.83203 0 16 -7.16797 16 -16
v-134.68zM421.85 26.1797c-2.58691 -2.58691 -7.67578 -4.6875 -11.335 -4.6875c-3.6582 0 -8.72754 2.10059 -11.3145 4.6875l-8.57031 8.58008c-20.1602 20.1602 -54.6299 5.87988 -54.6299 -22.6299v-12.1299c0 -8.83203 -7.16797 -16 -16 -16s-16 7.16797 -16 16
v12.1299c0 28.5098 -34.4697 42.79 -54.6299 22.6299l-8.57031 -8.58008c-2.58691 -2.58691 -7.65625 -4.68652 -11.3145 -4.68652c-8.83301 0 -16.002 7.16895 -16.002 16.002c0 3.6582 2.09961 8.72754 4.68652 11.3145l8.58008 8.57031
c20.1602 20.1602 5.87988 54.6299 -22.6299 54.6299h-12.1201c-8.83203 0 -16 7.16797 -16 16s7.16797 16 16 16h12.1201c28.5098 0 42.79 34.4707 22.6299 54.6201l-8.58008 8.58008c-2.49512 2.57031 -4.51953 7.5625 -4.51953 11.1445c0 8.83203 7.16797 16 16 16
c3.58398 0 8.5791 -2.02734 11.1494 -4.52441l8.57031 -8.57031c20.1602 -20.1602 54.6299 -5.87988 54.6299 22.6299v12.1104c0 8.83203 7.16797 16 16 16s16 -7.16797 16 -16v-12.1104c0 -28.5098 34.4697 -42.79 54.6299 -22.6396l8.57031 8.57031
c2.57031 2.49707 7.56543 4.52441 11.1494 4.52441c8.83203 0 16 -7.16797 16 -16c0 -3.58203 -2.02441 -8.5752 -4.51953 -11.1445l-8.58008 -8.58008c-20.1602 -20.1504 -5.87988 -54.6201 22.6299 -54.6201h12.1201c8.83203 0 16 -7.16797 16 -16s-7.16797 -16 -16 -16
h-12.1201c-28.5098 0 -42.79 -34.46 -22.6104 -54.6201l8.58008 -8.57031c2.58789 -2.58691 4.6875 -7.65527 4.6875 -11.3145s-2.09961 -8.72852 -4.6875 -11.3154zM288 144c8.83203 0 16 7.16797 16 16s-7.16797 16 -16 16s-16 -7.16797 -16 -16s7.16797 -16 16 -16z
M352 80c8.83203 0 16 7.16797 16 16s-7.16797 16 -16 16s-16 -7.16797 -16 -16s7.16797 -16 16 -16z"/>
			<glyph glyph-name="people-arrows" unicode="&#xf968;" horiz-adv-x="576"
				   d="M512 283c35.3496 0 64 -26.8604 64 -60v-105c0 -16.5703 -14.3301 -30 -32 -30v-90c0 -16.5703 -14.3301 -30 -32 -30h-96c-17.6699 0 -32 13.4297 -32 30v64.3896c3.08203 1.45117 7.66016 4.45312 10.2197 6.7002l36.0801 31.9297l1.7002 1.5v-89.5195h64v120h32v90
c0 8.26953 -7.17969 15 -16 15h-96c-0.169922 0 -0.30957 -0.0898438 -0.469727 -0.0898438l-21.29 18.8301c-5.1709 4.49805 -14.8428 9.12598 -21.5898 10.3301c10.2393 8.79395 29.5029 15.9307 43.001 15.9307c0.0957031 0 0.251953 0 0.348633 -0.000976562h96z
M464 298c-44.2197 0 -80 33.54 -80 75s35.7803 75 80 75s80 -33.54 80 -75s-35.7803 -75 -80 -75zM464 403c-17.6396 0 -32 -13.46 -32 -30s14.3604 -30 32 -30s32 13.46 32 30s-14.3604 30 -32 30zM145.7 101l36.0596 -31.8896
c2.56738 -2.25195 7.15527 -5.26758 10.2402 -6.73047v-64.3799c0 -16.5703 -14.3301 -30 -32 -30h-96c-17.6699 0 -32 13.4297 -32 30v90c-17.6699 0 -32 13.4297 -32 30v105c0 33.1396 28.6504 60 64 60h96
c0.0966797 0.000976562 0.25293 0.000976562 0.348633 0.000976562c13.498 0 32.7617 -7.13672 43.001 -15.9307c-6.74316 -1.20215 -16.4111 -5.82617 -21.5801 -10.3203l-21.2998 -18.8398c-0.160156 0.00976562 -0.299805 0.0898438 -0.469727 0.0898438h-96
c-8.82031 0 -16 -6.73047 -16 -15v-90h32v-120h64v89.5zM112 298c-44.2197 0 -80 33.54 -80 75s35.7803 75 80 75s80 -33.54 80 -75s-35.7803 -75 -80 -75zM112 403c-17.6396 0 -32 -13.46 -32 -30s14.3604 -30 32 -30s32 13.46 32 30s-14.3604 30 -32 30zM444.4 171.12
c1.98047 -1.82324 3.58789 -5.48828 3.58789 -8.18066c0 -2.70117 -1.61621 -6.375 -3.6084 -8.19922l-72.1201 -63.8105c-1.96777 -1.69727 -5.6748 -3.07422 -8.27344 -3.07422c-1.35352 0 -3.4707 0.410156 -4.72656 0.914062
c-3.93652 1.50098 -7.18848 6.1377 -7.25977 10.3506v33.8799h-128v-33.8799c-0.0742188 -4.21777 -3.33496 -8.85449 -7.28027 -10.3506c-1.25488 -0.503906 -3.37305 -0.914062 -4.72559 -0.914062c-2.59961 0 -6.30566 1.37695 -8.27441 3.07422l-72.1201 63.8105
c-1.98535 1.82422 -3.59766 5.49316 -3.59766 8.18945c0 2.69727 1.6123 6.36621 3.59766 8.19043l72.1406 63.8096c1.9668 1.69336 5.66992 3.06836 8.26562 3.06836c1.35547 0 3.47656 -0.411133 4.73438 -0.917969c3.93262 -1.49902 7.18555 -6.13184 7.25977 -10.3398
v-33.7402h128v33.7402c0.0771484 4.21387 3.33887 8.8457 7.28027 10.3398c1.25684 0.506836 3.37793 0.917969 4.7334 0.917969c2.5957 0 6.29883 -1.375 8.2666 -3.06836z"/>
			<glyph glyph-name="plane-slash" unicode="&#xf969;"
				   d="M271.57 -16l61.0195 106.78l38.21 -29.8799l-66.7998 -116.841c-2.53906 -4.44238 -8.75293 -8.05273 -13.8701 -8.05957h-98.1299c-8.82617 0.00585938 -15.9902 7.17383 -15.9902 16c0 1.24121 0.27832 3.2168 0.620117 4.41016l44.4502 155.59h-29.0801
l-31.2002 -41.5996c-2.64941 -3.5332 -8.38379 -6.40039 -12.7998 -6.40039v0h-100c-8.82422 0.0078125 -15.9854 7.17578 -15.9854 16c0 1.08398 0.212891 2.81836 0.475586 3.87012l31.5098 108.13l-31.5098 108.12
c-0.259766 1.04199 -0.469727 2.75977 -0.469727 3.83398c0 5.66699 4.19336 12.1572 9.35938 14.4863l49.3105 -46.4404l23.3096 -80l-23.3096 -80h41.3096l36 48h76.0498l33.25 -26l-42.8594 -150h37.1299zM188.45 386.23l-11.8203 41.3691
c-0.34082 1.19141 -0.617188 3.16211 -0.617188 4.40039c0 8.8252 7.16211 15.9932 15.9873 16h98.1396c5.12988 0 11.3506 -3.62012 13.8604 -8.07031l96 -167.93h88c44.1904 0 120 -35.8203 120 -80c0 -32.0596 -39.8896 -59.5 -78.6699 -72.2598l-51.5 40.2598h10.1699
c26.04 0 62.8799 19.7305 71.0996 32c-8.21973 12.2598 -45.0996 32 -71.0996 32h-92l-43.0898 33.6699l-81.3398 142.33h-37.1299l18.29 -64zM634 -23c3.31445 -2.65137 6.00391 -8.24902 6.00391 -12.4932c0 -3.10645 -1.5791 -7.59375 -3.52344 -10.0166l-10 -12.4902
c-2.65234 -3.30566 -8.24414 -5.98926 -12.4814 -5.98926c-3.09961 0 -7.5791 1.57227 -9.99902 3.50879l-598 467.48c-3.31738 2.65137 -6.00977 8.25098 -6.00977 12.498c0 3.10449 1.57715 7.58984 3.51953 10.0117l10 12.4902
c2.65234 3.30859 8.24512 5.99414 12.4854 5.99414c3.10156 0 7.58398 -1.57422 10.0049 -3.51367z"/>
			<glyph glyph-name="pump-medical" unicode="&#xf96a;" horiz-adv-x="384"
				   d="M186.67 154.67h40c7.3584 0 13.3301 -5.97168 13.3301 -13.3301v-0.00976562v-26.6602v-0.00976562c0 -7.3584 -5.97168 -13.3301 -13.3301 -13.3301v0h-40v-40v0c0 -7.3584 -5.97168 -13.3301 -13.3301 -13.3301h-0.00976562h-26.6602h-0.00976562
c-7.3584 0 -13.3301 5.97168 -13.3301 13.3301v0v40h-40c-7.3584 0 -13.3301 5.97168 -13.3301 13.3301v0.00976562v26.6602v0.00976562c0 7.3584 5.97168 13.3301 13.3301 13.3301v0h40v40c0 7.3584 5.97168 13.3301 13.3301 13.3301h0.00976562h26.6602h0.00976562
c7.3584 0 13.3301 -5.97168 13.3301 -13.3301v0v-40zM379.31 340.28c2.58496 -2.58691 4.68262 -7.65332 4.68262 -11.3105c0 -3.65625 -2.09766 -8.72363 -4.68262 -11.3096l-11.3096 -11.3105c-2.58691 -2.58398 -7.65332 -4.68262 -11.3096 -4.68262
c-3.65723 0 -8.72363 2.09863 -11.3105 4.68262l-43.3203 43.3105c-1.29199 1.29102 -3.82324 2.33887 -5.64941 2.33984h-56.4102v-32.4102c30.002 -1.96777 56.6045 -27.8623 59.3799 -57.7998l20.3604 -256c0.144531 -1.59473 0.262695 -4.18848 0.262695 -5.79004
c0 -35.3281 -28.6729 -64 -64 -64h-0.00292969h-192c-35.3242 0.00390625 -63.9922 28.6758 -63.9922 64c0 1.60156 0.117188 4.19531 0.261719 5.79004l20.3604 256c2.77539 29.9336 29.373 55.8281 59.3701 57.7998v96.4102c0 17.6641 14.3359 32 32 32h96
c17.6641 0 32 -14.3359 32 -32v-16h56.4102c12.8008 -0.000976562 30.5371 -7.34863 39.5898 -16.4004zM128 400v-80h64v80h-64zM251.52 258c-0.889648 7.72852 -7.92578 14.001 -15.7061 14.001c-0.0507812 0 -0.132812 0 -0.183594 -0.000976562h-151.26h-0.0693359
c-8.06152 0 -15.167 -6.51855 -15.8604 -14.5498l-20.3203 -255.45c-0.0625 -0.526367 -0.113281 -1.38379 -0.113281 -1.91406c0 -3.44336 1.87012 -8.31641 4.17285 -10.876c2.6084 -2.87598 7.875 -5.20996 11.7568 -5.20996h0.0634766h192
c8.83008 0.00195312 15.9971 7.16992 15.9971 16c0 0.40332 -0.0302734 1.05762 -0.0673828 1.45996z"/>
			<glyph glyph-name="pump-soap" unicode="&#xf96b;" horiz-adv-x="384"
				   d="M152 204c1.65625 2.20801 5.24023 4 8 4s6.34375 -1.79199 8 -4c16.2998 -21.7998 52 -72.2695 52 -97.2695c0 -32.4209 -26.8799 -58.75 -60 -58.75s-60 26.3291 -60 58.75c0 25 35.6699 75.4697 52 97.2695zM379.31 340.28
c2.58496 -2.58691 4.68262 -7.65332 4.68262 -11.3105c0 -3.65625 -2.09766 -8.72363 -4.68262 -11.3096l-11.3096 -11.3105c-2.58691 -2.58398 -7.65332 -4.68262 -11.3096 -4.68262c-3.65723 0 -8.72363 2.09863 -11.3105 4.68262l-43.3203 43.3105
c-1.29199 1.29102 -3.82324 2.33887 -5.64941 2.33984h-56.4102v-32.4102c30.002 -1.96777 56.6045 -27.8623 59.3799 -57.7998l20.3604 -256c0.144531 -1.59473 0.262695 -4.18848 0.262695 -5.79004c0 -35.3281 -28.6729 -64 -64 -64h-0.00292969h-192
c-35.3242 0.00390625 -63.9922 28.6758 -63.9922 64c0 1.60156 0.117188 4.19531 0.261719 5.79004l20.3604 256c2.77539 29.9336 29.373 55.8281 59.3701 57.7998v96.4102c0 17.6641 14.3359 32 32 32h96c17.6641 0 32 -14.3359 32 -32v-16h56.4102
c12.8008 -0.000976562 30.5371 -7.34863 39.5898 -16.4004zM128 400v-80h64v80h-64zM251.52 258c-0.889648 7.72852 -7.92578 14.001 -15.7061 14.001c-0.0507812 0 -0.132812 0 -0.183594 -0.000976562h-151.26h-0.0693359c-8.06152 0 -15.167 -6.51855 -15.8604 -14.5498
l-20.3203 -255.45c-0.0625 -0.526367 -0.113281 -1.38379 -0.113281 -1.91406c0 -3.44336 1.87012 -8.31641 4.17285 -10.876c2.6084 -2.87598 7.875 -5.20996 11.7568 -5.20996h0.0634766h192c8.83008 0.00195312 15.9971 7.16992 15.9971 16
c0 0.40332 -0.0302734 1.05762 -0.0673828 1.45996z"/>
			<glyph glyph-name="shield-virus" unicode="&#xf96c;" horiz-adv-x="512"
				   d="M240 336c0 8.83203 7.16797 16 16 16s16 -7.16797 16 -16v-12.1201c0 -28.5098 34.4697 -42.79 54.6299 -22.6299l8.57031 8.58008c2.58691 2.58691 7.65625 4.68652 11.3145 4.68652c8.83301 0 16.002 -7.16895 16.002 -16.002
c0 -3.6582 -2.09961 -8.72754 -4.68652 -11.3145l-8.58008 -8.57031c-20.1602 -20.1602 -5.87988 -54.6299 22.6299 -54.6299h12.1201c8.83203 0 16 -7.16797 16 -16s-7.16797 -16 -16 -16h-12.1201c-28.5098 0 -42.79 -34.4697 -22.6299 -54.6299l8.58008 -8.57031
c2.58691 -2.58691 4.68652 -7.65625 4.68652 -11.3145c0 -8.83301 -7.16895 -16.002 -16.002 -16.002c-3.6582 0 -8.72754 2.09961 -11.3145 4.68652l-8.57031 8.58008c-20.1602 20.1602 -54.6299 5.87988 -54.6299 -22.6299v-12.1201c0 -8.83203 -7.16797 -16 -16 -16
s-16 7.16797 -16 16v12.1201c0 28.5098 -34.4697 42.79 -54.6299 22.6299l-8.57031 -8.58008c-2.58691 -2.58691 -7.65625 -4.68652 -11.3145 -4.68652c-8.83301 0 -16.002 7.16895 -16.002 16.002c0 3.6582 2.09961 8.72754 4.68652 11.3145l8.58008 8.57031
c20.1602 20.1602 5.87988 54.6299 -22.6299 54.6299h-12.1201c-8.83203 0 -16 7.16797 -16 16s7.16797 16 16 16h12.1201c28.5098 0 42.79 34.4697 22.6299 54.6299l-8.58008 8.57031c-2.58691 2.58691 -4.68652 7.65625 -4.68652 11.3145
c0 8.83301 7.16895 16.002 16.002 16.002c3.6582 0 8.72754 -2.09961 11.3145 -4.68652l8.57031 -8.58008c20.1602 -20.1602 54.6299 -5.87988 54.6299 22.6299v12.1201zM224 224c8.83203 0 16 7.16797 16 16s-7.16797 16 -16 16s-16 -7.16797 -16 -16s7.16797 -16 16 -16z
M288 192c-8.83203 0 -16 -7.16797 -16 -16s7.16797 -16 16 -16s16 7.16797 16 16s-7.16797 16 -16 16zM466.5 364.32c16.2842 -6.80176 29.5 -26.6445 29.5 -44.292v-0.0283203c0 -221.3 -135.91 -344.61 -221.59 -380.32
c-4.8916 -2.03125 -13.1592 -3.67969 -18.4551 -3.67969s-13.5645 1.64844 -18.4551 3.67969c-107 44.6006 -221.5 181.82 -221.5 380.32v0.0478516c0 17.6787 13.2559 37.5176 29.5898 44.2822l192 80c4.92676 1.85938 13.1973 3.50391 18.46 3.66992
c5.26074 -0.169922 13.5264 -1.81836 18.4502 -3.67969zM256.08 400v0zM256 -16c66.3701 27.6699 192 133.52 192 336l-191.68 79.9004c-0.530273 -0.100586 -1.11035 -0.220703 -1.44043 -0.320312l-190.82 -79.5801c-0.0595703 -175.88 99.4502 -297.48 191.94 -336z"/>
			<glyph glyph-name="sink" unicode="&#xf96d;" horiz-adv-x="512"
				   d="M496 160c8.83203 0 16 -7.16797 16 -16v-16c0 -8.83203 -7.16797 -16 -16 -16h-16v-80c0 -52.9922 -43.0078 -96 -96 -96h-256c-52.9922 0 -96 43.0078 -96 96v80h-16c-8.83203 0 -16 7.16797 -16 16v16c0 8.83203 7.16797 16 16 16h96v32h-64
c-8.83203 0 -16 7.16797 -16 16v16c0 8.83203 7.16797 16 16 16h80c17.6641 0 32 -14.3359 32 -32v-48h72v196.1c0 45.9004 33.5 87.0205 79.2197 91.4707c2.39258 0.237305 6.28613 0.429688 8.69043 0.429688c48.5762 0 88.04 -39.4238 88.0898 -88v-24
c0 -8.83203 -7.16797 -16 -16 -16h-16c-8.83203 0 -16 7.16797 -16 16v21.6504c0 20.9199 -15 40.0195 -35.8301 42.1396c-1.14746 0.120117 -3.01562 0.217773 -4.16992 0.217773c-22.0801 0 -40 -17.9199 -40 -40v-0.0078125v-200h72v48c0 17.6641 14.3359 32 32 32h80
c8.83203 0 16 -7.16797 16 -16v-16c0 -8.83203 -7.16797 -16 -16 -16h-64v-32h96zM432 32v80h-352v-80c0.0273438 -26.4688 21.5312 -47.9727 48 -48h256c26.4688 0.0273438 47.9727 21.5312 48 48z"/>
			<glyph glyph-name="soap" unicode="&#xf96e;" horiz-adv-x="512"
				   d="M384 384c-17.6641 0 -32 14.3359 -32 32s14.3359 32 32 32s32 -14.3359 32 -32s-14.3359 -32 -32 -32zM208 352c-26.4961 0 -48 21.5039 -48 48s21.5039 48 48 48s48 -21.5039 48 -48s-21.5039 -48 -48 -48zM416 256c52.9922 0 96 -43.0078 96 -96v-128
c0 -52.9922 -43.0078 -96 -96 -96h-320c-52.9922 0 -96 43.0078 -96 96v128c0 52.9922 43.0078 96 96 96h145.61c-0.888672 4.3623 -1.61035 11.5166 -1.61035 15.9688c0 44.1602 35.8398 80 80 80s80 -35.8398 80 -80c0 -4.45215 -0.72168 -11.6064 -1.61035 -15.9688
h17.6104zM320 304c-17.6641 0 -32 -14.3359 -32 -32s14.3359 -32 32 -32s32 14.3359 32 32s-14.3359 32 -32 32zM464 32v128c-0.0273438 26.4688 -21.5312 47.9727 -48 48h-48.9404c-13.2695 -9.76953 -29.3193 -16 -47.0596 -16s-33.79 6.23047 -47.0596 16h-176.94
c-26.4688 -0.0273438 -47.9727 -21.5312 -48 -48v-128c0.0273438 -26.4688 21.5312 -47.9727 48 -48h320c26.4688 0.0273438 47.9727 21.5312 48 48zM352 160c35.3281 0 64 -28.6719 64 -64s-28.6719 -64 -64 -64h-192c-35.3281 0 -64 28.6719 -64 64s28.6719 64 64 64h192z
M352 64c17.6641 0 32 14.3359 32 32s-14.3359 32 -32 32h-192c-17.6641 0 -32 -14.3359 -32 -32s14.3359 -32 32 -32h192z"/>
			<glyph glyph-name="stopwatch-20" unicode="&#xf96f;" horiz-adv-x="448"
				   d="M275.35 240.8c29.4404 0 44.6504 -18.1094 44.6504 -49.04v-85.6094c0 -28.1504 -9.84961 -50.9502 -45.8398 -50.9102c-34.8604 0 -43.8105 23.6094 -43.8105 50.7598v84.2197c0 32.5801 15.71 50.5801 45 50.5801zM285.51 102.4v92.7393
c0 9.01074 -2.41016 15.4707 -10.4102 15.4707c-7.54004 0 -10.5898 -6 -10.5898 -16v-92.7305c0 -10.4795 2.89062 -16.4795 10.5898 -16.4795c7.7002 0 10.4102 6.40918 10.4102 17zM217.6 192c0 -28.4902 -9.95996 -41 -27.4697 -65.04
c-9.25 -12.0801 -19.6895 -28.5 -21.1299 -41h39.2803c0.0273438 0 0.0732422 0.000976562 0.100586 0.000976562c3.56152 0 6.5 -2.88965 6.55957 -6.45117v-17.8594c-0.0595703 -3.56152 -2.99805 -6.45117 -6.55957 -6.45117
c-0.0273438 0 -0.0732422 0 -0.100586 0.000976562h-66.2803c-0.0400391 -0.000976562 -0.105469 -0.000976562 -0.145508 -0.000976562c-7.26367 0 -13.1592 5.89551 -13.1592 13.1602c0 0.265625 0.015625 0.695312 0.0351562 0.960938
c2.21973 28.1797 11.7598 45.9297 30.7598 73.0996c16.3301 23.3496 21.6797 29.8701 21.6797 49.8701c0 13.54 -1.42969 19.4199 -9.78027 19.4199c-7.5 0 -10.1396 -5.91992 -10.1396 -18.1396v-4.19043c-0.0595703 -3.56641 -3.00195 -6.46094 -6.56934 -6.46094
c-0.0273438 0 -0.0732422 0.000976562 -0.100586 0.000976562h-19.9199c-0.0283203 0 -0.0732422 -0.000976562 -0.100586 -0.000976562c-3.56738 0 -6.50586 2.89453 -6.55957 6.46094v3.25977c0 21.8408 6.78027 48.1904 45.1396 48.1904
c34.3906 0 44.46 -20.6797 44.46 -48.8301zM393.91 264c21.0254 -29.6797 38.0898 -83.2871 38.0898 -119.66v-0.339844c0 -114.91 -93.0898 -208 -208 -208s-208 93.0898 -208 208c0 106.8 80.4102 194.7 184 206.59v49.4102h-28c-6.62402 0 -12 5.37598 -12 12v24
c0 6.62402 5.37598 12 12 12h104c6.62402 0 12 -5.37598 12 -12v-24c0 -6.62402 -5.37598 -12 -12 -12h-28v-49.2998c35.8438 -4.08105 86.8262 -26.835 113.8 -50.79l20.7002 20.6797c1.94141 1.94824 5.74902 3.5293 8.5 3.5293s6.55859 -1.58105 8.5 -3.5293l17 -17
c1.94824 -1.94141 3.5293 -5.74902 3.5293 -8.5c0 -2.75 -1.58105 -6.55859 -3.5293 -8.5zM224 -16h0.0595703c88.2871 0 159.94 71.6533 159.94 159.94v0.0595703c0 88.3203 -71.6797 160 -160 160s-160 -71.6797 -160 -160s71.6797 -160 160 -160z"/>
			<glyph glyph-name="store-alt-slash" unicode="&#xf970;"
				   d="M507.21 400h-336.37l-58.4697 45.7305c2.95996 1.18848 7.9502 2.20508 11.1396 2.26953h393c10.2314 -0.0234375 22.6807 -7.23633 27.79 -16.0996l91.4102 -160c12.2002 -21.4004 -3.11035 -47.9004 -27.71 -47.9004h-32v-140.76l-48 37.5293v103.23h-132l-61.4297 48
h245.739zM112 127.79h173.24l98.7598 -77.21v-79.3799c0 -19.4004 -14.29 -35.2002 -32 -35.2002h-256c-17.7002 0 -32 15.7998 -32 35.2002v252.8h-32c-24.6104 0 -39.9199 26.5 -27.7197 47.9004l29.8398 52.2197l38.1895 -29.8604l-12.7295 -22.2598h41.2197l61.4004 -48
h-50.2002v-96.21zM336 -16v95.79h-224v-95.79h224zM36 444.48l598 -467.48c3.31445 -2.65137 6.00391 -8.24902 6.00391 -12.4932c0 -3.10645 -1.5791 -7.59375 -3.52344 -10.0166l-10 -12.4902c-2.65234 -3.30566 -8.24414 -5.98926 -12.4814 -5.98926
c-3.09961 0 -7.5791 1.57227 -9.99902 3.50879l-598 467.48c-3.31738 2.65137 -6.00977 8.25098 -6.00977 12.498c0 3.10449 1.57715 7.58984 3.51953 10.0117l10 12.4902c2.65234 3.30859 8.24512 5.99414 12.4854 5.99414c3.10156 0 7.58398 -1.57422 10.0049 -3.51367z
"/>
			<glyph glyph-name="store-slash" unicode="&#xf971;"
				   d="M634 -23c3.31445 -2.65137 6.00391 -8.24902 6.00391 -12.4932c0 -3.10645 -1.5791 -7.59375 -3.52344 -10.0166l-10 -12.4902c-2.65234 -3.30566 -8.24414 -5.98926 -12.4814 -5.98926c-3.09961 0 -7.5791 1.57227 -9.99902 3.50879l-598 467.48
c-3.31738 2.65137 -6.00977 8.25098 -6.00977 12.498c0 3.10449 1.57715 7.58984 3.51953 10.0117l10 12.4902c2.65234 3.30859 8.24512 5.99414 12.4854 5.99414c3.10156 0 7.58398 -1.57422 10.0049 -3.51367zM513.09 400h-342.25l-60.1895 47.0596
c1.99805 0.499023 5.29004 0.919922 7.34961 0.94043h404c9.76562 -0.00683594 21.9023 -6.72656 27.0898 -15l64.9102 -103.6c29.5898 -47.2002 10 -110.61 -38 -130.811v-115.34l-48 37.5195v71.2305h-0.200195v0.900391
c-19.9014 2.78027 -46.915 17.2012 -60.2998 32.1895c-9.05078 -9.91992 -26.6309 -21.7207 -39.2402 -26.3398l-60.2598 47.1104c0 5.2998 3.48047 -5.86035 25.9102 -5.86035h0.0927734c12.6357 0 29.6592 7.70508 37.9971 17.2002l35.7002 39.7998l35.71 -39.9102
c8.31641 -9.48926 25.3066 -17.1904 37.9248 -17.1904c0.0458984 0 0.119141 0 0.165039 0.000976562c1.99609 0.00976562 5.22168 0.233398 7.2002 0.5c16.0996 2.18945 23.7998 14 27 20.7998c5.09961 10.7998 7.09961 27.5898 -2.40039 42.7002zM112 -16h357.17
l61.4004 -48h-434.57c-17.7002 0 -32 15.7998 -32 35.2002v227.39c-48 20.2002 -67.5898 83.6104 -38 130.811l0.450195 0.719727l38.46 -30.1201c-2.54297 -5.22949 -4.60742 -14.1934 -4.60742 -20.0078c0 -5.39746 1.79102 -13.7764 3.99707 -18.7021
c3.2002 -6.88965 11 -18.5898 27 -20.79c1.97852 -0.267578 5.2041 -0.492188 7.2002 -0.5h0.110352c9.26562 0 22.7949 4.52051 30.1992 10.0898l38.2705 -29.9199c-12.7285 -12.5215 -37.4053 -24.7383 -55.0801 -27.2695v-64.7002h172.72l61.6602 -48.2002h-234.38v-96z
"/>
			<glyph glyph-name="toilet-paper-slash" unicode="&#xf972;"
				   d="M496 304c13.2598 0 24 -21.4902 24 -48s-10.75 -48 -24 -48s-24 21.4805 -24 48s10.75 48 24 48zM176 400c-1.23047 0 -2.58984 -0.75 -3.87012 -1l-41.5098 32.4404c13.8799 10.5596 29.21 16.5596 45.3799 16.5596h320c61.8604 0 112 -86 112 -192
c0 -66.2598 -19.5801 -124.68 -49.3604 -159.18l-38.1592 29.8301c20.2695 22.0996 39.5195 68.1992 39.5195 129.35c0 86.5596 -38.5098 144 -64 144s-64 -57.4404 -64 -144c0 -0.147461 -0.000976562 -0.386719 -0.000976562 -0.53418
c0 -18.6611 3.91211 -48.4375 8.73145 -66.4658l-56.7305 44.3496v22.6504c0 57.4199 14.7803 108.81 38.0898 144h-246.09zM365.41 -16c7.58984 22.8398 13.7002 43.3203 16.6396 68.0996l42.8506 -33.5c-4.60059 -21.2393 -10.8701 -40.5098 -17.6006 -60.7295
c-4.02832 -12.0723 -17.627 -21.8701 -30.3545 -21.8701h-0.00488281h-328.94c-8.8291 0.00292969 -15.9941 7.1709 -15.9941 16c0 1.43652 0.369141 3.70801 0.824219 5.07031c21.3701 64.0898 31.1699 85.75 31.1699 126.87v172.06
c0.0136719 11.79 1.29004 30.8438 2.84961 42.5303l45.5303 -35.6006c-0.0595703 -2.37012 -0.379883 -4.50977 -0.379883 -6.92969v-172.06c0 -37.7207 -6.83984 -62.4209 -19.4102 -99.9404h272.82zM634 -23c3.31445 -2.65137 6.00391 -8.24902 6.00391 -12.4932
c0 -3.10645 -1.5791 -7.59375 -3.52344 -10.0166l-10 -12.4902c-2.65234 -3.30566 -8.24414 -5.98926 -12.4814 -5.98926c-3.09961 0 -7.5791 1.57227 -9.99902 3.50879l-598 467.48c-3.31738 2.65137 -6.00977 8.25098 -6.00977 12.498
c0 3.10449 1.57715 7.58984 3.51953 10.0117l10 12.4902c2.65234 3.30859 8.24512 5.99414 12.4854 5.99414c3.10156 0 7.58398 -1.57422 10.0049 -3.51367z"/>
			<glyph glyph-name="users-slash" unicode="&#xf973;"
				   d="M556.09 192c46.3184 -0.0498047 83.9102 -37.6816 83.9102 -84v0c0 -13.248 -10.752 -24 -24 -24s-24 10.752 -24 24c-0.0605469 19.8115 -16.1885 35.9395 -36 36h-24c-3.51953 -0.0917969 -9.03418 -1.21191 -12.3096 -2.5
c-7.76074 11.6377 -23.168 27.8604 -34.3906 36.21c11.7012 7.8877 32.6514 14.29 46.7637 14.29h0.0263672h24zM320.09 368c-23.2705 -0.00683594 -49.6084 -17.3672 -58.79 -38.75l-38.21 29.8701c19.2998 33.8203 55.25 56.8799 97 56.8799h0.226562
c61.7188 0 111.81 -50.0908 111.81 -111.81c0 -26.5576 -15.6514 -62.9307 -34.9355 -81.1904l-38.5908 30.21c14.0732 10.5625 25.4941 33.415 25.4941 51.0107c0 35.2061 -28.5732 63.7793 -63.7803 63.7793h-0.223633zM544.09 224c-44.1602 0 -80 35.8398 -80 80
s35.8398 80 80 80s80 -35.8398 80 -80s-35.8398 -80 -80 -80zM544.09 336c-17.6094 -0.0546875 -31.9453 -14.3906 -32 -32c0 -17.6641 14.3359 -32 32 -32s32 14.3359 32 32s-14.3359 32 -32 32zM176.09 16h252.141l55.6592 -43.5098
c-5.24609 -2.45703 -14.2061 -4.46875 -20 -4.49023h-288c-26.4961 0 -48 21.5039 -48 48v44.7998v0.220703c0 19.3428 8.78516 48.0498 19.6104 64.0791c18.7598 27.9004 49.5 43.46 82.0801 46.21l74.8398 -58.5098c-18.0332 1.43359 -46.2207 8.24316 -62.9199 15.2002
c-36.0254 -1.05371 -65.3291 -31.1592 -65.4102 -67.2002v-44.7998zM154.89 177.71c-11.2256 -8.37012 -26.6816 -24.5928 -34.5 -36.21c-3.26953 1.30469 -8.78027 2.4248 -12.2998 2.5h-24c-19.8115 -0.0605469 -35.9395 -16.1885 -36 -36c0 -13.248 -10.752 -24 -24 -24
s-24 10.752 -24 24c0.0664062 46.3018 37.6982 83.9336 84 84h24h0.0341797c14.1123 0 35.0635 -6.40234 46.7656 -14.29zM96.0898 224h-0.261719c-44.0215 0 -79.75 35.7275 -79.75 79.75c0 8.56738 2.6084 21.9678 5.82227 29.9102l43 -33.6006
c2.04004 -15.6699 15 -28.0596 31.1895 -28.0596c1.32031 0 2.44043 0.599609 3.71973 0.759766l42.9102 -33.5498c-11.5078 -8.37305 -32.3975 -15.1875 -46.6299 -15.21zM36 444.48l598 -467.48c3.31445 -2.65137 6.00391 -8.24902 6.00391 -12.4932
c0 -3.10645 -1.5791 -7.59375 -3.52344 -10.0166l-10 -12.4902c-2.65234 -3.30566 -8.24414 -5.98926 -12.4814 -5.98926c-3.09961 0 -7.5791 1.57227 -9.99902 3.50879l-598 467.48c-3.31738 2.65137 -6.00977 8.25098 -6.00977 12.498
c0 3.10449 1.57715 7.58984 3.51953 10.0117l10 12.4902c2.65234 3.30859 8.24512 5.99414 12.4854 5.99414c3.10156 0 7.58398 -1.57422 10.0049 -3.51367z"/>
			<glyph glyph-name="virus" unicode="&#xf974;" horiz-adv-x="512"
				   d="M224 272c26.4961 0 48 -21.5039 48 -48s-21.5039 -48 -48 -48s-48 21.5039 -48 48s21.5039 48 48 48zM304 168c13.248 0 24 -10.752 24 -24s-10.752 -24 -24 -24s-24 10.752 -24 24s10.752 24 24 24zM483.55 220.45
c0.147461 0.00292969 0.356445 0.00488281 0.503906 0.00488281c15.7041 0 28.4492 -12.7461 28.4492 -28.4502s-12.7451 -28.4502 -28.4492 -28.4502c-0.147461 0 -0.386719 0.00292969 -0.53418 0.00488281h-21.5391c-50.6807 0 -76.0703 -61.2793 -40.2305 -97.1191
l15.25 -15.2402c4.15039 -4.50879 7.51855 -13.1406 7.51855 -19.2686c0 -15.7051 -12.7451 -28.4502 -28.4502 -28.4502c-6.12793 0 -14.7598 3.36816 -19.2686 7.51855l-15.2402 15.2305c-9.04004 9.25 -26.875 16.7637 -39.8096 16.7695
c-29.25 0 -57.2998 -22.71 -57.2998 -57v-21.54c0 -15.7041 -12.7461 -28.4502 -28.4502 -28.4502s-28.4502 12.7461 -28.4502 28.4502v21.54c0 34.2998 -28.0498 57 -57.2998 57c-12.9316 -0.00195312 -30.7666 -7.50586 -39.8096 -16.75l-15.2402 -15.25
c-4.50879 -4.15039 -13.1406 -7.51855 -19.2686 -7.51855c-15.7051 0 -28.4502 12.7451 -28.4502 28.4502c0 6.12793 3.36816 14.7598 7.51855 19.2686l15.2305 15.2402c35.8398 35.8398 10.4492 97.1191 -40.2305 97.1191h-21.5498
c-0.147461 -0.00195312 -0.386719 -0.00488281 -0.533203 -0.00488281c-15.7051 0 -28.4502 12.7461 -28.4502 28.4502s12.7451 28.4502 28.4502 28.4502c0.146484 0 0.385742 -0.00195312 0.533203 -0.00488281h21.5693c50.6807 0 76.0703 61.2695 40.2305 97.1094
l-15.25 15.25c-4.21094 4.52148 -7.62793 13.2051 -7.62793 19.3828c0 15.6992 12.7412 28.4404 28.4404 28.4404c6.17969 0 14.8662 -3.41992 19.3877 -7.63281l15.2402 -15.2305c9.04199 -9.25293 26.8818 -16.7656 39.8193 -16.7695c29.2402 0 57.29 22.71 57.29 57
v21.5596c0 15.7051 12.7461 28.4502 28.4502 28.4502s28.4502 -12.7451 28.4502 -28.4502v-21.5596c0 -34.2998 28.0498 -57 57.29 -57c12.9375 0.00976562 30.7764 7.52734 39.8193 16.7803l15.2402 15.2197c4.52148 4.21289 13.208 7.63281 19.3877 7.63281
c15.6992 0 28.4404 -12.7412 28.4404 -28.4404c0 -6.17773 -3.41699 -14.8613 -7.62793 -19.3828l-15.2305 -15.25c-35.8398 -35.8398 -10.4492 -97.1094 40.2305 -97.1094h21.5498zM365.1 146.81c6.31152 15.3037 22.3545 35.5488 35.8105 45.1904
c-24.1885 17.3936 -43.8203 55.6904 -43.8203 85.4834c0 4.68555 0.609375 12.2412 1.36035 16.8662c-4.55762 -0.745117 -12.0039 -1.34961 -16.6221 -1.34961h-0.0878906h-0.015625c-29.9277 0 -68.332 19.7656 -85.7246 44.1201
c-17.3926 -24.3545 -55.7969 -44.1201 -85.7246 -44.1201h-0.015625h-0.0273438c-4.63477 0 -12.1084 0.609375 -16.6826 1.36035c0.751953 -4.62793 1.36133 -12.1885 1.36133 -16.876c0 -29.7939 -19.6318 -68.0908 -43.8213 -85.4844
c24.1895 -17.3887 43.8213 -55.6787 43.8213 -85.4688c0 -4.68652 -0.610352 -12.2451 -1.36133 -16.8711c4.56641 0.739258 12.0264 1.33984 16.6514 1.33984h0.0488281h0.0205078c29.9287 0 68.335 -19.7656 85.7295 -44.1201
c17.3945 24.3486 55.7979 44.1104 85.7217 44.1104h0.0283203h0.0488281c4.625 0 12.085 -0.600586 16.6514 -1.33984c-0.760742 4.64258 -1.37695 12.2285 -1.37695 16.9326c0 11.5449 3.5957 29.5664 8.02637 40.2266z"/>
			<glyph glyph-name="virus-slash" unicode="&#xf975;"
				   d="M320 337.12c-8.41992 -11.75 -19.5098 -21.29 -32 -28.75l-43.0195 33.6299c25.0195 4.79004 46.5791 25.9404 46.5791 56v21.5596c0.289062 15.4102 13.0332 27.917 28.4453 27.917c15.4131 0 28.1562 -12.5068 28.4453 -27.917v-21.5596
c0 -34.2998 28.0498 -57 57.29 -57c12.9375 0.00976562 30.7764 7.52734 39.8193 16.7803l15.25 15.2197c4.66113 5.03711 14.0127 9.125 20.875 9.125c15.6992 0 28.4404 -12.7412 28.4404 -28.4404c0 -6.8623 -4.08789 -16.2139 -9.125 -20.875l-15.2305 -15.25
c-35.8398 -35.8398 -10.4492 -97.1094 40.2305 -97.1094h21.5498c15.4102 -0.289062 27.917 -13.0322 27.917 -28.4453c0 -15.4121 -12.5068 -28.1562 -27.917 -28.4453h-21.5498c-0.0302734 0.000976562 -0.0791016 0.000976562 -0.110352 0.000976562
c-11.2109 0 -27.2402 -5.89648 -35.7793 -13.1602l-38.4707 30.0693c3.39551 3.49023 9.34082 8.65527 13.2705 11.5303c-24.1885 17.3936 -43.8203 55.6904 -43.8203 85.4834c0 4.68555 0.609375 12.2412 1.36035 16.8662
c-4.55762 -0.745117 -12.0039 -1.34961 -16.6221 -1.34961h-0.0878906h-0.015625c-29.9277 0 -68.332 19.7656 -85.7246 44.1201zM320 46.8799c8.41992 11.75 19.5098 21.29 32 28.75l43.0195 -33.6299c-25.0195 -4.7998 -46.5693 -25.9502 -46.5693 -56v-21.5498
c-0.289062 -15.4102 -13.0322 -27.917 -28.4453 -27.917c-15.4121 0 -28.1562 12.5068 -28.4453 27.917v21.5498c0 34.29 -28.0596 57 -57.3096 57c-12.9326 -0.00488281 -30.7676 -7.51367 -39.8096 -16.7598l-15.2402 -15.2402
c-4.65137 -4.95605 -13.9414 -8.97754 -20.7383 -8.97754c-15.6982 0 -28.4395 12.7412 -28.4395 28.4395c0 6.79688 4.02148 16.0869 8.97754 20.7383l15.2305 15.2402c35.8398 35.8398 10.4492 97.1191 -40.2305 97.1191h-21.5498
c-0.147461 -0.00195312 -0.386719 -0.00488281 -0.533203 -0.00488281c-15.7051 0 -28.4502 12.7461 -28.4502 28.4502s12.7451 28.4502 28.4502 28.4502c0.146484 0 0.385742 -0.00195312 0.533203 -0.00488281h21.5498h0.12793c11.207 0 27.2285 5.89551 35.7617 13.1602
l38.4707 -30.0703c-3.39551 -3.49219 -9.34082 -8.66211 -13.2705 -11.54c24.1934 -17.3955 43.8281 -55.6963 43.8281 -85.4941c0 -4.68262 -0.608398 -12.2334 -1.3584 -16.8555c4.57715 0.744141 12.0537 1.34961 16.6904 1.34961h0.03125
c29.9258 0 68.3281 -19.7656 85.7188 -44.1201zM634 -23c3.31445 -2.65137 6.00391 -8.24902 6.00391 -12.4932c0 -3.10645 -1.5791 -7.59375 -3.52344 -10.0166l-10 -12.4902c-2.65234 -3.30566 -8.24414 -5.98926 -12.4814 -5.98926
c-3.09961 0 -7.5791 1.57227 -9.99902 3.50879l-598 467.48c-3.31738 2.65137 -6.00977 8.25098 -6.00977 12.498c0 3.10449 1.57715 7.58984 3.51953 10.0117l10 12.4902c2.65234 3.30859 8.24512 5.99414 12.4854 5.99414c3.10156 0 7.58398 -1.57422 10.0049 -3.51367z
"/>
			<glyph glyph-name="viruses" unicode="&#xf976;"
				   d="M224 256c8.83203 0 16 -7.16797 16 -16s-7.16797 -16 -16 -16s-16 7.16797 -16 16s7.16797 16 16 16zM176 296c13.248 0 24 -10.752 24 -24s-10.752 -24 -24 -24s-24 10.752 -24 24s10.752 24 24 24zM624 96c8.83203 0 16 -7.16797 16 -16s-7.16797 -16 -16 -16h-12.1201
c-28.5098 0 -42.79 -34.4697 -22.6299 -54.6299l8.58008 -8.57031c2.58691 -2.58691 4.68652 -7.65625 4.68652 -11.3145c0 -8.83301 -7.16895 -16.002 -16.002 -16.002c-3.6582 0 -8.72754 2.09961 -11.3145 4.68652l-8.57031 8.58008
c-5.08691 5.20508 -15.1221 9.42969 -22.3994 9.42969c-16.4502 0 -32.2305 -12.7695 -32.2305 -32.0596v-12.1201c0 -8.83203 -7.16797 -16 -16 -16s-16 7.16797 -16 16v12.1201c0 19.29 -15.7803 32.0596 -32.2305 32.0596
c-7.27637 -0.00195312 -17.3115 -4.22656 -22.3994 -9.42969l-8.57031 -8.58008c-2.58691 -2.58691 -7.65625 -4.68652 -11.3145 -4.68652c-8.83301 0 -16.002 7.16895 -16.002 16.002c0 3.6582 2.09961 8.72754 4.68652 11.3145l8.58008 8.57031
c20.1602 20.1602 5.87988 54.6299 -22.6299 54.6299h-12.1201c-8.83203 0 -16 7.16797 -16 16s7.16797 16 16 16h12.1201c28.5098 0 42.79 34.4697 22.6299 54.6299l-8.58008 8.57031c-2.58691 2.58691 -4.68652 7.65625 -4.68652 11.3145
c0 8.83301 7.16895 16.002 16.002 16.002c3.6582 0 8.72754 -2.09961 11.3145 -4.68652l8.57031 -8.58008c5.08789 -5.20312 15.123 -9.42773 22.3994 -9.42969c16.4502 0 32.2305 12.7695 32.2305 32.0596v12.1201c0 8.83203 7.16797 16 16 16s16 -7.16797 16 -16v-12.1201
c0 -19.29 15.7803 -32.0596 32.2305 -32.0596c7.27637 0.00195312 17.3115 4.22656 22.3994 9.42969l8.57031 8.58008c2.58691 2.58691 7.65625 4.68652 11.3145 4.68652c8.83301 0 16.002 -7.16895 16.002 -16.002c0 -3.6582 -2.09961 -8.72754 -4.68652 -11.3145
l-8.58008 -8.57031c-20.1602 -20.1602 -5.87988 -54.6299 22.6299 -54.6299h12.1201zM464 56c13.248 0 24 10.752 24 24s-10.752 24 -24 24s-24 -10.752 -24 -24s10.752 -24 24 -24zM346.51 234.67c-38.0195 0 -57.0498 -45.96 -30.1299 -72.8398l11.4297 -11.4297
c3.44922 -3.44922 6.24902 -10.208 6.24902 -15.085c0 -11.7764 -9.55762 -21.334 -21.334 -21.334c-4.87695 0 -11.6357 2.7998 -15.085 6.24902l-11.4297 11.4297c-6.77832 6.94531 -20.1553 12.585 -29.8604 12.5898c-22 0 -43 -17.04 -43 -42.7598v-16.1602
c0 -11.7744 -9.55566 -21.3301 -21.3301 -21.3301c-11.7734 0 -21.3291 9.55566 -21.3291 21.3301v16.1602c0 25.7598 -21.0605 42.7598 -43 42.7598c-9.70508 -0.00488281 -23.082 -5.64453 -29.8604 -12.5898l-11.4297 -11.4297
c-3.44922 -3.44922 -10.208 -6.24902 -15.085 -6.24902c-11.7764 0 -21.334 9.55762 -21.334 21.334c0 4.87695 2.7998 11.6357 6.24902 15.085l11.4297 11.4297c26.8799 26.8398 7.83008 72.8398 -30.1699 72.8398h-16.1602c-11.7744 0 -21.3301 9.55566 -21.3301 21.3301
s9.55566 21.3301 21.3301 21.3301h16.1602c38.0195 0 57.0498 45.96 30.1699 72.8398l-11.4297 11.4297c-3.44922 3.44922 -6.24902 10.208 -6.24902 15.085c0 11.7764 9.55762 21.334 21.334 21.334c4.87695 0 11.6357 -2.7998 15.085 -6.24902l11.4297 -11.4297
c6.76855 -6.93555 20.1279 -12.5762 29.8203 -12.5898c22 0 43 17.04 43 42.7598v16.1602c0 11.7744 9.55566 21.3301 21.3301 21.3301c11.7734 0 21.3291 -9.55566 21.3291 -21.3301v-16.1602c0 -25.7598 21.0605 -42.7598 43 -42.7598
c9.70508 0.00488281 23.082 5.64453 29.8604 12.5898l11.4297 11.4297c3.44922 3.44922 10.208 6.24902 15.085 6.24902c11.7764 0 21.334 -9.55762 21.334 -21.334c0 -4.87695 -2.7998 -11.6357 -6.24902 -15.085l-11.4297 -11.4297
c-26.8799 -26.8398 -7.83008 -72.8398 30.1699 -72.8398h16.1602c11.7744 0 21.3301 -9.55566 21.3301 -21.3301s-9.55566 -21.3301 -21.3301 -21.3301h-16.1602zM262.74 226.67c3.7793 9.14844 12.5068 22.3047 19.4795 29.3301
c-14.4814 14.6191 -26.3213 43.1836 -26.4297 63.7598c-20.6318 0.0957031 -49.21 12.0215 -63.79 26.6201c-14.5801 -14.5986 -43.1582 -26.5244 -63.79 -26.6201c-0.108398 -20.5762 -11.9482 -49.1406 -26.4297 -63.7598
c14.4814 -14.6191 26.3213 -43.1836 26.4297 -63.7598c20.6318 -0.0957031 49.21 -12.0215 63.79 -26.6201c14.5723 14.5771 43.1279 26.4893 63.7402 26.5898c0.0585938 9.8916 3.19531 25.3291 7 34.46z"/>
		</font>
	</defs>
</svg>
