<svg xmlns:xlink="http://www.w3.org/1999/xlink" xmlns="http://www.w3.org/2000/svg" id="flag-icon-css-ar"
	 viewBox="0 0 512 512">
	<path fill="#74acdf" d="M0 0h512v512H0z"/>
	<path fill="#fff" d="M0 170.7h512v170.6H0z"/>
	<g id="c" transform="translate(-153.6) scale(1.024)">
		<path id="a" fill="#f6b40e" stroke="#85340a" stroke-width="1.1"
			  d="M396.8 251.3l28.5 62s.5 1.2 1.3.9c.8-.4.3-1.5.3-1.5l-23.7-64m-.7 24.1c-.4 9.4 5.4 14.6 4.7 23-.8 8.5 3.8 13.2 5 16.5 1 3.3-1.3 5.2-.3 5.7s3-2.1 2.4-6.8c-.7-4.6-4.2-6-3.4-16.3.8-10.3-4.2-12.7-3-22"/>
		<use width="100%" height="100%" transform="rotate(22.5 400 250)" xlink:href="#a"/>
		<use width="100%" height="100%" transform="rotate(45 400 250)" xlink:href="#a"/>
		<use width="100%" height="100%" transform="rotate(67.5 400 250)" xlink:href="#a"/>
		<path id="b" fill="#85340a"
			  d="M404.3 274.4c.5 9 5.6 13 4.6 21.3 2.2-6.5-3.1-11.6-2.8-21.2m-7.7-23.8l19.5 42.6-16.3-43.9"/>
		<use width="100%" height="100%" transform="rotate(22.5 400 250)" xlink:href="#b"/>
		<use width="100%" height="100%" transform="rotate(45 400 250)" xlink:href="#b"/>
		<use width="100%" height="100%" transform="rotate(67.5 400 250)" xlink:href="#b"/>
	</g>
	<use width="100%" height="100%" transform="rotate(90 256 256)" xlink:href="#c"/>
	<use width="100%" height="100%" transform="rotate(180 256 256)" xlink:href="#c"/>
	<use width="100%" height="100%" transform="rotate(-90 256 256)" xlink:href="#c"/>
	<circle cx="256" cy="256" r="28.4" fill="#f6b40e" stroke="#85340a" stroke-width="1.5"/>
	<path id="h" fill="#843511"
		  d="M265.7 250c-2 0-3.8.8-4.9 2.5 2.2 2 7 2.2 10.3-.2a7.5 7.5 0 00-5.4-2.4zm0 .4c1.9 0 3.6.8 3.9 1.7-2.2 2.4-5.7 2.2-7.9.4a4.6 4.6 0 014-2.1z"/>
	<use width="100%" height="100%" transform="matrix(-1 0 0 1 512.3 0)" xlink:href="#d"/>
	<use width="100%" height="100%" transform="matrix(-1 0 0 1 512.3 0)" xlink:href="#e"/>
	<use width="100%" height="100%" transform="translate(19.3)" xlink:href="#f"/>
	<use width="100%" height="100%" transform="matrix(-1 0 0 1 512.3 0)" xlink:href="#g"/>
	<path fill="#85340a"
		  d="M251.7 260a2 2 0 102 3c.7.6 1.7.6 2.3.6h.3a4.2 4.2 0 002.3-.6 2 2 0 102-3c.5.1.9.6.9 1.2a1.3 1.3 0 01-1.3 1.3 1.3 1.3 0 01-1.3-1.3 3.3 3.3 0 01-2.8 1.8 3.3 3.3 0 01-2.7-1.8 1.3 1.3 0 01-1.3 1.3 1.3 1.3 0 01-1.3-1.3c0-.6.3-1 .8-1.3zm2 5.8c-2.1 0-3 2-5 3.3 1.2-.5 2-1.3 3.6-2.2 1.5-.9 2.8.2 3.7.2.9 0 2.2-1.1 3.7-.2 1.5.9 2.4 1.7 3.5 2.2-2-1.4-2.8-3.3-5-3.3a6 6 0 00-2.2.6 5.8 5.8 0 00-2.2-.6z"/>
	<path fill="#85340a"
		  d="M253 268.4a15 15 0 00-3.6.7c4-1 4.8.4 6.6.4 1.8 0 2.6-1.3 6.6-.5-4.4-1.2-5.3-.4-6.6-.4-.9 0-1.5-.3-3-.3z"/>
	<path fill="#85340a"
		  d="M249.6 269h-.8c4.6.5 2.3 3.1 7.2 3.1 4.8 0 2.6-2.6 7.2-3-4.8-.5-3.3 2.4-7.2 2.4-3.7 0-2.6-2.5-6.4-2.5zm10.3 7.1a4 4 0 00-3.9-4 4 4 0 00-4 4 4 4 0 014-3 4 4 0 014 3z"/>
	<path id="e" fill="#85340a"
		  d="M238.3 249.9c5-4.4 11.4-5 14.9-1.8a8.6 8.6 0 011.6 3.7c.5 2.5-.3 5.2-2.3 8 .3 0 .7.1 1 .4 1.6-3.4 2.3-6.8 1.7-10a14.2 14.2 0 00-.7-2.5c-4.8-4-11.4-4.4-16.2 2.2z"/>
	<path id="d" fill="#85340a"
		  d="M246.2 248.6c2.8 0 3.5.6 4.8 1.7 1.3 1.1 2 .9 2.2 1.1.2.2 0 .9-.5.7-.4-.3-1.2-.7-2.6-1.8-1.3-1-2.6-1-4-1-3.8 0-6 3.2-6.5 3-.4-.2 2.2-3.7 6.6-3.7z"/>
	<use width="100%" height="100%" transform="translate(-19.6)" xlink:href="#h"/>
	<circle id="f" cx="246.3" cy="252.1" r="2" fill="#85340a"/>
	<path id="g" fill="#85340a"
		  d="M241 253.4c3.7 2.8 7.4 2.6 9.6 1.3 2.2-1.3 2.2-1.8 1.7-1.8-.4 0-.9.5-2.6 1.3-1.8 1-4.4 1-8.8-.8z"/>
</svg>
