<svg xmlns="http://www.w3.org/2000/svg" id="flag-icon-css-es" viewBox="0 0 512 512">
	<path fill="#AA151B" d="M0 0h512v512H0z"/>
	<path fill="#F1BF00" d="M0 128h512v256H0z"/>
	<path fill="#ad1519"
		  d="M171.7 227.6s-.5 0-.8-.2a12.1 12.1 0 01-1.1-1l-.7-.5-.7-.9s-.7-1.2-.4-2c.4-1 1-1.3 1.5-1.6.5-.3 1.6-.6 1.6-.6l1.2-.5 1.3-.3.6-.3.9-.1 1.1-.3 1.7.1h5.1a41 41 0 003.6 1.2c.6.1 1.9.3 2.4.6.6.3 1 .8 1.3 1.1.3.4.3.8.4 1.1v1.1l-.5.9-.6 1-.8.7s-.6.5-1.1.5c-.5 0-5.1-.9-8.2-.9-3 0-7.8.9-7.8.9"/>
	<path fill="none" stroke="#000" stroke-linejoin="round" stroke-width=".3"
		  d="M171.7 227.6s-.5 0-.8-.2a12.1 12.1 0 01-1.1-1l-.7-.5-.7-.9s-.7-1.2-.4-2c.4-1 1-1.3 1.5-1.6.5-.3 1.6-.6 1.6-.6l1.2-.5 1.3-.3.6-.3.9-.1 1.1-.3 1.7.1h5.1a41 41 0 003.6 1.2c.6.1 1.9.3 2.4.6.6.3 1 .8 1.3 1.1.3.4.3.8.4 1.1v1.1l-.5.9-.6 1-.8.7s-.6.5-1.1.5c-.5 0-5.1-.9-8.2-.9-3 0-7.8.9-7.8.9z"/>
	<path fill="#c8b100"
		  d="M178.2 220.9c0-1.5.6-2.6 1.4-2.6.8 0 1.4 1.1 1.4 2.6 0 1.4-.6 2.5-1.4 2.5-.8 0-1.4-1.1-1.4-2.5"/>
	<path fill="none" stroke="#000" stroke-width=".3"
		  d="M178.2 220.9c0-1.5.6-2.6 1.4-2.6.8 0 1.4 1.1 1.4 2.6 0 1.4-.6 2.5-1.4 2.5-.8 0-1.4-1.1-1.4-2.5z"/>
	<path fill="#c8b100" d="M179 220.9c0-1.3.3-2.4.6-2.4.4 0 .7 1 .7 2.4 0 1.3-.3 2.3-.7 2.3-.3 0-.6-1-.6-2.3"/>
	<path fill="none" stroke="#000" stroke-width=".3"
		  d="M179 220.9c0-1.3.3-2.4.6-2.4.4 0 .7 1 .7 2.4 0 1.3-.3 2.3-.7 2.3-.3 0-.6-1-.6-2.3z"/>
	<path fill="#c8b100" d="M178.7 218.2c0-.5.4-1 .9-1s1 .5 1 1-.5.9-1 .9a1 1 0 01-1-1"/>
	<path fill="#c8b100" d="M180.3 217.8v.6h-1.5v-.6h.5v-1.3h-.7v-.6h.7v-.6h.6v.6h.6v.6h-.6v1.3h.4"/>
	<path fill="none" stroke="#000" stroke-width=".3"
		  d="M180.3 217.8v.6h-1.5v-.6h.5v-1.3h-.7v-.6h.7v-.6h.6v.6h.6v.6h-.6v1.3h.4"/>
	<path fill="#c8b100" d="M181 217.8v.6h-2.7v-.6h1v-1.3h-.7v-.6h.7v-.6h.6v.6h.6v.6h-.6v1.3h1"/>
	<path fill="none" stroke="#000" stroke-width=".3"
		  d="M181 217.8v.6h-2.7v-.6h1v-1.3h-.7v-.6h.7v-.6h.6v.6h.6v.6h-.6v1.3h1"/>
	<path fill="none" stroke="#000" stroke-width=".3"
		  d="M179.9 217.3a.9.9 0 01.6.9c0 .5-.4.9-.9.9s-1-.4-1-1c0-.3.4-.7.8-.8"/>
	<path fill="#c8b100"
		  d="M179.6 227.4h-5v-1.2l-.3-1.2-.2-1.6c-1.4-1.8-2.6-3-3-2.7 0-.4.2-.6.4-.8 1.2-.7 3.7 1 5.6 3.9l.5.7h4l.5-.7c1.9-2.9 4.4-4.6 5.6-3.9.2.2.4.4.5.8-.5-.3-1.7.9-3 2.7l-.3 1.6-.2 1.2-.1 1.2h-5"/>
	<path fill="none" stroke="#000" stroke-width=".3"
		  d="M179.6 227.4h-5v-1.2l-.3-1.2-.2-1.6c-1.4-1.8-2.6-3-3-2.7 0-.4.2-.6.4-.8 1.2-.7 3.7 1 5.6 3.9l.5.7h4l.5-.7c1.9-2.9 4.4-4.6 5.6-3.9.2.2.4.4.5.8-.5-.3-1.7.9-3 2.7l-.3 1.6-.2 1.2-.1 1.2h-5z"/>
	<path fill="none" stroke="#000" stroke-width=".3"
		  d="M171.3 220.6c1-.5 3 1.2 4.8 3.8m11.9-3.8c-1-.5-3.1 1.2-4.9 3.8"/>
	<path fill="#c8b100"
		  d="M172.3 229.6a4.8 4.8 0 00-.6-1c2-.7 4.8-1 7.9-1 3 0 5.9.3 7.9 1l-.6.9-.3.8c-1.8-.6-4.2-.8-7-.8-2.9 0-5.6.3-7 .8l-.3-.7"/>
	<path fill="none" stroke="#000" stroke-width=".3"
		  d="M172.3 229.6a4.8 4.8 0 00-.6-1c2-.7 4.8-1 7.9-1 3 0 5.9.3 7.9 1l-.6.9-.3.8c-1.8-.6-4.2-.8-7-.8-2.9 0-5.6.3-7 .8l-.3-.7"/>
	<path fill="#c8b100"
		  d="M179.6 232.2a27 27 0 006.2-.7c.7-.2 1.1-.5 1-.8 0-.2-.1-.3-.3-.4a25.8 25.8 0 00-7-.9c-2.6 0-5.3.4-6.8.9-.2 0-.3.2-.4.4 0 .3.4.6 1 .8 1 .3 3.8.7 6.3.7"/>
	<path fill="none" stroke="#000" stroke-width=".3"
		  d="M179.6 232.2a27 27 0 006.2-.7c.7-.2 1.1-.5 1-.8 0-.2-.1-.3-.3-.4a25.8 25.8 0 00-7-.9c-2.6 0-5.3.4-6.8.9-.2 0-.3.2-.4.4 0 .3.4.6 1 .8 1 .3 3.8.7 6.3.7z"/>
	<path fill="#c8b100"
		  d="M187.6 227.4l-.6-.5s-.6.3-1.3.2c-.7-.1-1-1-1-1s-.8.7-1.5.6c-.6 0-1-.6-1-.6s-.8.5-1.4.5c-.7 0-1.3-.9-1.3-.9s-.6.9-1.2 1c-.7 0-1.2-.6-1.2-.6s-.3.6-1 .7c-.9.1-1.6-.6-1.6-.6s-.5.7-1 1c-.6.1-1.3-.4-1.3-.4l-.2.5-.3.2.2.4a32.5 32.5 0 0115.5.1l.2-.6"/>
	<path fill="none" stroke="#000" stroke-width=".3"
		  d="M187.6 227.4l-.6-.5s-.6.3-1.3.2c-.7-.1-1-1-1-1s-.8.7-1.5.6c-.6 0-1-.6-1-.6s-.8.5-1.4.5c-.7 0-1.3-.9-1.3-.9s-.6.9-1.2 1c-.7 0-1.2-.6-1.2-.6s-.3.6-1 .7c-.9.1-1.6-.6-1.6-.6s-.5.7-1 1c-.6.1-1.3-.4-1.3-.4l-.2.5-.3.2.2.4a32.5 32.5 0 0115.5.1l.2-.6z"/>
	<path fill="#c8b100"
		  d="M179.6 224.8h.3a1.1 1.1 0 001 1.5c.6 0 1-.3 1.2-.8l.1-.4v.5c.1.5.6.9 1.2.9a1.1 1.1 0 001.1-1.1v-.1l.4-.4.2.4a1 1 0 00-.1.5c0 .6.5 1 1 1 .4 0 .8-.1 1-.4l.2-.3v.4c0 .3.2.6.5.7 0 0 .4 0 1-.4l.8-.8v.5s-.5.8-1 1.1l-1 .3c-.3-.1-.5-.4-.7-.7a1.6 1.6 0 01-.8.3c-.6 0-1.2-.4-1.4-1a1.6 1.6 0 01-1.2.6 2 2 0 01-1.3-.6 1.6 1.6 0 01-1.1.4c-.6 0-1.1-.3-1.4-.7-.3.4-.8.7-1.4.7a1.6 1.6 0 01-1-.4c-.4.3-.9.6-1.4.6a1.6 1.6 0 01-1.2-.5c-.2.5-.8.8-1.4.8-.3 0-.6 0-.8-.2-.1.3-.4.6-.7.7a2 2 0 01-1-.3 4.4 4.4 0 01-1-1.1v-.5l.9.8c.5.4.9.4.9.4.4 0 .5-.4.5-.7v-.4l.2.3c.2.3.6.5 1 .5.5 0 1-.5 1-1a1 1 0 000-.6l.1-.4.4.4c0 .7.5 1.2 1 1.2.7 0 1.2-.4 1.2-1v-.3l.2.3c.2.5.6.8 1.1.8.7 0 1.2-.5 1.2-1.1a1 1 0 00-.1-.4h.3"/>
	<path fill="none" stroke="#000" stroke-width=".3"
		  d="M179.6 224.8h.3a1.1 1.1 0 001 1.5c.6 0 1-.3 1.2-.8l.1-.4v.5c.1.5.6.9 1.2.9a1.1 1.1 0 001.1-1.1v-.1l.4-.4.2.4a1 1 0 00-.1.5c0 .6.5 1 1 1 .4 0 .8-.1 1-.4l.2-.3v.4c0 .3.2.6.5.7 0 0 .4 0 1-.4l.8-.8v.5s-.5.8-1 1.1l-1 .3c-.3-.1-.5-.4-.7-.7a1.6 1.6 0 01-.8.3c-.6 0-1.2-.4-1.4-1a1.6 1.6 0 01-1.2.6 2 2 0 01-1.3-.6 1.6 1.6 0 01-1.1.4c-.6 0-1.1-.3-1.4-.7-.3.4-.8.7-1.4.7a1.6 1.6 0 01-1-.4c-.4.3-.9.6-1.4.6a1.6 1.6 0 01-1.2-.5c-.2.5-.8.8-1.4.8-.3 0-.6 0-.8-.2-.1.3-.4.6-.7.7a2 2 0 01-1-.3 4.4 4.4 0 01-1-1.1v-.5l.9.8c.5.4.9.4.9.4.4 0 .5-.4.5-.7v-.4l.2.3c.2.3.6.5 1 .5.5 0 1-.5 1-1a1 1 0 000-.6l.1-.4.4.4c0 .7.5 1.2 1 1.2.7 0 1.2-.4 1.2-1v-.3l.2.3c.2.5.6.8 1.1.8.7 0 1.2-.5 1.2-1.1a1 1 0 00-.1-.4h.3z"/>
	<path fill="#c8b100"
		  d="M179.6 227.6c-3.1 0-5.9.3-7.9 1l-.3-.2c0-.2 0-.3.2-.4 2-.6 4.8-1 8-1s6 .4 8 1l.2.3c0 .2-.2.3-.3.2-2-.6-4.8-1-8-1"/>
	<path fill="none" stroke="#000" stroke-linejoin="round" stroke-width=".3"
		  d="M179.6 227.6c-3.1 0-5.9.3-7.9 1l-.3-.2c0-.2 0-.3.2-.4 2-.6 4.8-1 8-1s6 .4 8 1l.2.3c0 .2-.2.3-.3.2-2-.6-4.8-1-8-1z"/>
	<path fill="#fff" d="M176.6 228.7c0-.3.2-.5.5-.5.2 0 .4.2.4.5 0 .2-.2.4-.5.4s-.4-.2-.4-.4"/>
	<path fill="none" stroke="#000" stroke-width=".3"
		  d="M176.6 228.7c0-.3.2-.5.5-.5.2 0 .4.2.4.5 0 .2-.2.4-.5.4s-.4-.2-.4-.4z"/>
	<path fill="#ad1519" d="M179.6 228.8h-1a.3.3 0 01-.3-.3c0-.1.1-.3.3-.3h2a.3.3 0 01.4.3.3.3 0 01-.4.3h-1"/>
	<path fill="none" stroke="#000" stroke-width=".3"
		  d="M179.6 228.8h-1a.3.3 0 01-.3-.3c0-.1.1-.3.3-.3h2a.3.3 0 01.4.3.3.3 0 01-.4.3h-1"/>
	<path fill="#058e6e"
		  d="M174.7 229.2h-.7c-.2.1-.4 0-.4-.2a.3.3 0 01.2-.3l.7-.1.8-.2c.2 0 .3.1.4.3 0 .2-.1.3-.3.4h-.8"/>
	<path fill="none" stroke="#000" stroke-width=".3"
		  d="M174.7 229.2h-.7c-.2.1-.4 0-.4-.2a.3.3 0 01.2-.3l.7-.1.8-.2c.2 0 .3.1.4.3 0 .2-.1.3-.3.4h-.8"/>
	<path fill="#ad1519" d="M171.8 229.7l.3-.5.7.1-.4.6-.6-.2"/>
	<path fill="none" stroke="#000" stroke-width=".3" d="M171.8 229.7l.3-.5.7.1-.4.6-.6-.2"/>
	<path fill="#fff" d="M181.7 228.7c0-.3.2-.5.4-.5.3 0 .5.2.5.5 0 .2-.2.4-.5.4s-.4-.2-.4-.4"/>
	<path fill="none" stroke="#000" stroke-width=".3"
		  d="M181.7 228.7c0-.3.2-.5.4-.5.3 0 .5.2.5.5 0 .2-.2.4-.5.4s-.4-.2-.4-.4z"/>
	<path fill="#058e6e"
		  d="M184.5 229.2h.8c.1.1.3 0 .3-.2a.3.3 0 00-.2-.3l-.8-.1-.7-.2c-.2 0-.3.1-.4.3 0 .2.1.3.3.4h.7"/>
	<path fill="none" stroke="#000" stroke-width=".3"
		  d="M184.5 229.2h.8c.1.1.3 0 .3-.2a.3.3 0 00-.2-.3l-.8-.1-.7-.2c-.2 0-.3.1-.4.3 0 .2.1.3.3.4h.7"/>
	<path fill="#ad1519" d="M187.3 229.7l-.2-.5h-.7l.3.6h.7"/>
	<path fill="none" stroke="#000" stroke-width=".3" d="M187.3 229.7l-.2-.5h-.7l.3.6h.7"/>
	<path fill="#ad1519" d="M179.6 231.6c-2.5 0-4.8-.2-6.5-.7a27.2 27.2 0 016.5-.7c2.5 0 4.7.3 6.5.7-1.8.5-4 .7-6.5.7"/>
	<path fill="none" stroke="#000" stroke-linejoin="round" stroke-width=".3"
		  d="M179.6 231.6c-2.5 0-4.8-.2-6.5-.7a27.2 27.2 0 016.5-.7c2.5 0 4.7.3 6.5.7-1.8.5-4 .7-6.5.7z"/>
	<path fill="#c8b100" d="M187.4 226.2c.1-.2 0-.4 0-.4-.2 0-.4 0-.5.2 0 .2 0 .4.2.5.1 0 .3-.1.3-.3"/>
	<path fill="none" stroke="#000" stroke-width=".3"
		  d="M187.4 226.2c.1-.2 0-.4 0-.4-.2 0-.4 0-.5.2 0 .2 0 .4.2.5.1 0 .3-.1.3-.3z"/>
	<path fill="#c8b100" d="M182.5 225.2c0-.2 0-.3-.2-.4-.2 0-.3.2-.3.4s0 .3.2.4c.1 0 .3-.2.3-.4"/>
	<path fill="none" stroke="#000" stroke-width=".3"
		  d="M182.5 225.2c0-.2 0-.3-.2-.4-.2 0-.3.2-.3.4s0 .3.2.4c.1 0 .3-.2.3-.4z"/>
	<path fill="#c8b100" d="M176.7 225.2c0-.2 0-.3.2-.4.2 0 .3.2.3.4s0 .3-.2.4l-.3-.4"/>
	<path fill="none" stroke="#000" stroke-width=".3" d="M176.7 225.2c0-.2 0-.3.2-.4.2 0 .3.2.3.4s0 .3-.2.4l-.3-.4z"/>
	<path fill="#c8b100" d="M171.8 226.2c-.1-.2 0-.4.1-.4s.3 0 .4.2c0 .2 0 .4-.2.5-.1 0-.3-.1-.3-.3"/>
	<path fill="none" stroke="#000" stroke-width=".3"
		  d="M171.8 226.2c-.1-.2 0-.4.1-.4s.3 0 .4.2c0 .2 0 .4-.2.5-.1 0-.3-.1-.3-.3z"/>
	<path fill="#c8b100" d="M179.6 222.4l-.9.5.7 1.4.2.2.2-.2.7-1.4-1-.5"/>
	<path fill="none" stroke="#000" stroke-width=".3" d="M179.6 222.4l-.9.5.7 1.4.2.2.2-.2.7-1.4-1-.5"/>
	<path fill="#c8b100" d="M177.7 224.5l.4.6 1.3-.4.2-.2-.2-.2-1.3-.4-.4.6"/>
	<path fill="none" stroke="#000" stroke-width=".3" d="M177.7 224.5l.4.6 1.3-.4.2-.2-.2-.2-1.3-.4-.4.6"/>
	<path fill="#c8b100" d="M181.5 224.5l-.4.6-1.3-.4-.2-.2.1-.2 1.4-.4.4.6"/>
	<path fill="none" stroke="#000" stroke-width=".3" d="M181.5 224.5l-.4.6-1.3-.4-.2-.2.1-.2 1.4-.4.4.6"/>
	<path fill="#c8b100" d="M173.9 223l-.7.6.9 1.2.2.1.2-.2.3-1.4-1-.3"/>
	<path fill="none" stroke="#000" stroke-width=".3" d="M173.9 223l-.7.6.9 1.2.2.1.2-.2.3-1.4-1-.3"/>
	<path fill="#c8b100" d="M172.4 225.3l.5.5 1.3-.7v-.4h-1.5l-.3.6"/>
	<path fill="none" stroke="#000" stroke-width=".3" d="M172.4 225.3l.5.5 1.3-.7v-.4h-1.5l-.3.6"/>
	<path fill="#c8b100" d="M176.2 224.6l-.3.6-1.4-.1-.2-.2.1-.2 1.3-.7.5.6"/>
	<path fill="none" stroke="#000" stroke-width=".3" d="M176.2 224.6l-.3.6-1.4-.1-.2-.2.1-.2 1.3-.7.5.6"/>
	<path fill="#c8b100" d="M171 225.5v.7l-1.5.1h-.2v-.3l1.1-1 .6.5"/>
	<path fill="none" stroke="#000" stroke-width=".3" d="M171 225.5v.7l-1.5.1h-.2v-.3l1.1-1 .6.5"/>
	<path fill="#c8b100" d="M173.8 225c0-.4.2-.6.5-.6s.5.2.5.5a.5.5 0 01-.5.5.5.5 0 01-.5-.5"/>
	<path fill="none" stroke="#000" stroke-width=".3"
		  d="M173.8 225c0-.4.2-.6.5-.6s.5.2.5.5a.5.5 0 01-.5.5.5.5 0 01-.5-.5z"/>
	<path fill="#c8b100" d="M185.3 223l.7.6-.9 1.2-.2.1-.2-.2-.3-1.4 1-.3"/>
	<path fill="none" stroke="#000" stroke-width=".3" d="M185.3 223l.7.6-.9 1.2-.2.1-.2-.2-.3-1.4 1-.3"/>
	<path fill="#c8b100" d="M186.8 225.3l-.6.5-1.2-.7-.1-.2.2-.2h1.4l.3.6"/>
	<path fill="none" stroke="#000" stroke-width=".3" d="M186.8 225.3l-.6.5-1.2-.7-.1-.2.2-.2h1.4l.3.6"/>
	<path fill="#c8b100" d="M183 224.6l.3.6 1.4-.1.2-.2-.1-.2-1.3-.7-.5.6"/>
	<path fill="none" stroke="#000" stroke-width=".3" d="M183 224.6l.3.6 1.4-.1.2-.2-.1-.2-1.3-.7-.5.6"/>
	<path fill="#c8b100" d="M188 225.5v.7l1.5.1h.2v-.3l-1.1-1-.6.5"/>
	<path fill="none" stroke="#000" stroke-width=".3" d="M188 225.5v.7l1.5.1h.2v-.3l-1.1-1-.6.5"/>
	<path fill="#c8b100" d="M179 224.5a.5.5 0 01.6-.5c.3 0 .5.2.5.5a.5.5 0 01-.5.4.5.5 0 01-.5-.4"/>
	<path fill="none" stroke="#000" stroke-width=".3"
		  d="M179 224.5a.5.5 0 01.6-.5c.3 0 .5.2.5.5a.5.5 0 01-.5.4.5.5 0 01-.5-.4z"/>
	<path fill="#c8b100" d="M184.4 225a.5.5 0 01.5-.6.5.5 0 01.5.5.5.5 0 01-.5.5.5.5 0 01-.5-.5"/>
	<path fill="none" stroke="#000" stroke-width=".3"
		  d="M184.4 225a.5.5 0 01.5-.6.5.5 0 01.5.5.5.5 0 01-.5.5.5.5 0 01-.5-.5z"/>
	<path fill="#c8b100" d="M169.1 226.3l-.7-.8-.7-.3s.3-.3.6-.3l.5.2v-.2s.3 0 .4.4v1"/>
	<path fill="none" stroke="#000" stroke-width=".3" d="M169.1 226.3l-.7-.8-.7-.3s.3-.3.6-.3l.5.2v-.2s.3 0 .4.4v1z"/>
	<path fill="#c8b100" d="M169.1 226l.6.1c.2.2.2.4 0 .5s-.3.1-.4 0c-.2-.2-.3-.4-.2-.5"/>
	<path fill="none" stroke="#000" stroke-width=".3" d="M169.1 226l.6.1c.2.2.2.4 0 .5s-.3.1-.4 0c-.2-.2-.3-.4-.2-.5z"/>
	<path fill="#c8b100" d="M189.9 226.3l.7-.8.7-.3s-.3-.3-.6-.3a.6.6 0 00-.5.2v-.2s-.3 0-.4.4v.7l.1.3"/>
	<path fill="none" stroke="#000" stroke-width=".3"
		  d="M189.9 226.3l.7-.8.7-.3s-.3-.3-.6-.3a.6.6 0 00-.5.2v-.2s-.3 0-.4.4v.7l.1.3z"/>
	<path fill="#c8b100" d="M189.9 226l-.5.1c-.2.2-.3.4-.2.5h.6c.2-.2.2-.4.1-.5"/>
	<path fill="none" stroke="#000" stroke-width=".3" d="M189.9 226l-.5.1c-.2.2-.3.4-.2.5h.6c.2-.2.2-.4.1-.5z"/>
	<path fill="#c8b100" d="M168.2 238h22.9v-6h-22.9v6z"/>
	<path fill="none" stroke="#000" stroke-width=".4" d="M168.2 238h22.9v-6h-22.9v6z"/>
	<path fill="#c8b100"
		  d="M170.6 242l.5-.1h17.5c-.6-.2-1-.7-1-1.3 0-.6.5-1.2 1-1.4a1.8 1.8 0 01-.5.1h-17a1.5 1.5 0 01-.5 0c.7.2 1 .7 1 1.3 0 .6-.4 1.1-1 1.3"/>
	<path fill="none" stroke="#000" stroke-linejoin="round" stroke-width=".4"
		  d="M170.6 242l.5-.1h17.5c-.6-.2-1-.7-1-1.3 0-.6.5-1.2 1-1.4a1.8 1.8 0 01-.5.1h-17a1.5 1.5 0 01-.5 0c.7.2 1 .7 1 1.3 0 .6-.4 1.1-1 1.3z"/>
	<path fill="#c8b100" d="M171 241.9h17.2c.5 0 1 .3 1 .8 0 .4-.5.8-1 .8H171c-.6 0-1.1-.4-1.1-.8 0-.5.5-.8 1-.8"/>
	<path fill="none" stroke="#000" stroke-width=".4"
		  d="M171 241.9h17.2c.5 0 1 .3 1 .8 0 .4-.5.8-1 .8H171c-.6 0-1.1-.4-1.1-.8 0-.5.5-.8 1-.8z"/>
	<path fill="#c8b100" d="M171 238h17.2c.5 0 1 .2 1 .6 0 .4-.5.7-1 .7H171c-.6 0-1-.3-1-.7 0-.4.4-.7 1-.7"/>
	<path fill="none" stroke="#000" stroke-width=".4"
		  d="M171 238h17.2c.5 0 1 .2 1 .6 0 .4-.5.7-1 .7H171c-.6 0-1-.3-1-.7 0-.4.4-.7 1-.7z"/>
	<path fill="#005bbf"
		  d="M195.6 338.6a8.7 8.7 0 01-4-.9 8.9 8.9 0 00-4-.8c-1.6 0-3 .3-4 .8a8.8 8.8 0 01-4 1 8.7 8.7 0 01-4-1 9 9 0 00-4-.8 9 9 0 00-3.9.8c-1 .6-2.4 1-4 1v2.4a8.9 8.9 0 004-1 8.8 8.8 0 014-.8 9 9 0 013.9.9 9 9 0 004 .9 9 9 0 004-.9 9 9 0 014-.9c1.5 0 3 .4 4 .9a8.6 8.6 0 004 .9v-2.5"/>
	<path fill="none" stroke="#000" stroke-width=".4"
		  d="M195.6 338.6a8.7 8.7 0 01-4-.9 8.9 8.9 0 00-4-.8c-1.6 0-3 .3-4 .8a8.8 8.8 0 01-4 1 8.7 8.7 0 01-4-1 9 9 0 00-4-.8 9 9 0 00-3.9.8c-1 .6-2.4 1-4 1v2.4a8.9 8.9 0 004-1 8.8 8.8 0 014-.8 9 9 0 013.9.9 9 9 0 004 .9 9 9 0 004-.9 9 9 0 014-.9c1.5 0 3 .4 4 .9a8.6 8.6 0 004 .9v-2.5z"/>
	<path fill="#ccc"
		  d="M195.6 341a8.7 8.7 0 01-4-.8 8.9 8.9 0 00-4-.8c-1.6 0-3 .3-4 .8a9 9 0 01-4 .9 8.7 8.7 0 01-4-1 9 9 0 00-4-.8c-1.5 0-2.9.3-3.9.9a9 9 0 01-4 .9v2.4a8.9 8.9 0 004-.9 8.6 8.6 0 014-.8 9 9 0 013.9.8 8.7 8.7 0 004 1 8.9 8.9 0 004-1 9 9 0 014-.8 8.9 8.9 0 014 .9 9 9 0 004 .9V341"/>
	<path fill="none" stroke="#000" stroke-width=".4"
		  d="M195.6 341a8.7 8.7 0 01-4-.8 8.9 8.9 0 00-4-.8c-1.6 0-3 .3-4 .8a9 9 0 01-4 .9 8.7 8.7 0 01-4-1 9 9 0 00-4-.8c-1.5 0-2.9.3-3.9.9a9 9 0 01-4 .9v2.4a8.9 8.9 0 004-.9 8.6 8.6 0 014-.8 9 9 0 013.9.8 8.7 8.7 0 004 1 8.9 8.9 0 004-1 9 9 0 014-.8 8.9 8.9 0 014 .9 9 9 0 004 .9V341"/>
	<path fill="#005bbf"
		  d="M195.6 343.6a8.7 8.7 0 01-4-1 8.9 8.9 0 00-4-.8 9 9 0 00-4 .9 8.9 8.9 0 01-4 .9 8.7 8.7 0 01-4-1 9 9 0 00-4-.8 9 9 0 00-3.9.8 8.9 8.9 0 01-4 1v2.4c1.5 0 3-.3 4-.9a8.7 8.7 0 014-.8 9 9 0 013.9.8 9 9 0 008 0 9 9 0 014-.8c1.5 0 3 .3 4 .8 1 .6 2.4 1 4 1v-2.6"/>
	<path fill="none" stroke="#000" stroke-width=".4"
		  d="M195.6 343.6a8.7 8.7 0 01-4-1 8.9 8.9 0 00-4-.8 9 9 0 00-4 .9 8.9 8.9 0 01-4 .9 8.7 8.7 0 01-4-1 9 9 0 00-4-.8 9 9 0 00-3.9.8 8.9 8.9 0 01-4 1v2.4c1.5 0 3-.3 4-.9a8.7 8.7 0 014-.8 9 9 0 013.9.8 9 9 0 008 0 9 9 0 014-.8c1.5 0 3 .3 4 .8 1 .6 2.4 1 4 1v-2.6"/>
	<path fill="#ccc"
		  d="M195.6 348.5a8.6 8.6 0 01-4-1 9 9 0 00-4-.7 9 9 0 00-4 .8 8.9 8.9 0 01-4 .9 8.7 8.7 0 01-4-1 9 9 0 00-4-.7 9 9 0 00-3.9.8 9 9 0 01-4 .9V346a9 9 0 004-.9 8.8 8.8 0 014-.8 9 9 0 013.9.8c1 .6 2.4 1 4 1a9 9 0 004-1 9 9 0 014-.8 9 9 0 014 .8c1 .6 2.4 1 4 1v2.4"/>
	<path fill="none" stroke="#000" stroke-width=".4"
		  d="M195.6 348.5a8.6 8.6 0 01-4-1 9 9 0 00-4-.7 9 9 0 00-4 .8 8.9 8.9 0 01-4 .9 8.7 8.7 0 01-4-1 9 9 0 00-4-.7 9 9 0 00-3.9.8 9 9 0 01-4 .9V346a9 9 0 004-.9 8.8 8.8 0 014-.8 9 9 0 013.9.8c1 .6 2.4 1 4 1a9 9 0 004-1 9 9 0 014-.8 9 9 0 014 .8c1 .6 2.4 1 4 1v2.4"/>
	<path fill="#005bbf"
		  d="M195.6 351a8.7 8.7 0 01-4-1 8.8 8.8 0 00-4-.8 9 9 0 00-4 .9 9 9 0 01-4 .8 8.7 8.7 0 01-4-.9 9 9 0 00-4-.8 9 9 0 00-3.9.8c-1 .6-2.4 1-4 1v-2.5c1.5 0 3-.4 4-1a8.8 8.8 0 014-.7 9 9 0 013.9.8 9 9 0 004 .9 8.9 8.9 0 004-.9 9 9 0 014-.8 9 9 0 014 .8 9 9 0 004 .9v2.5"/>
	<path fill="none" stroke="#000" stroke-width=".4"
		  d="M195.6 351a8.7 8.7 0 01-4-1 8.8 8.8 0 00-4-.8 9 9 0 00-4 .9 9 9 0 01-4 .8 8.7 8.7 0 01-4-.9 9 9 0 00-4-.8 9 9 0 00-3.9.8c-1 .6-2.4 1-4 1v-2.5c1.5 0 3-.4 4-1a8.8 8.8 0 014-.7 9 9 0 013.9.8 9 9 0 004 .9 8.9 8.9 0 004-.9 9 9 0 014-.8 9 9 0 014 .8 9 9 0 004 .9v2.5z"/>
	<path fill="#c8b100"
		  d="M170.6 328.5l.2.6c0 1.5-1.3 2.7-3 2.7h23.6c-1.6 0-2.9-1.2-2.9-2.7l.1-.6a1.4 1.4 0 01-.5 0h-17.5"/>
	<path fill="none" stroke="#000" stroke-linejoin="round" stroke-width=".4"
		  d="M170.6 328.5l.2.6c0 1.5-1.3 2.7-3 2.7h23.6c-1.6 0-2.9-1.2-2.9-2.7l.1-.6a1.4 1.4 0 01-.5 0h-17.5z"/>
	<path fill="#c8b100" d="M171 327h17.2c.5 0 1 .3 1 .7 0 .5-.5.8-1 .8H171c-.6 0-1.1-.3-1.1-.8 0-.4.5-.8 1-.8"/>
	<path fill="none" stroke="#000" stroke-width=".4"
		  d="M171 327h17.2c.5 0 1 .3 1 .7 0 .5-.5.8-1 .8H171c-.6 0-1.1-.3-1.1-.8 0-.4.5-.8 1-.8z"/>
	<path fill="#c8b100" d="M168 337.8h23.3v-6H168v6z"/>
	<path fill="none" stroke="#000" stroke-width=".4" d="M168 337.8h23.3v-6H168v6z"/>
	<path fill="#ad1519"
		  d="M166 305.8c-2.2 1.3-3.8 2.7-3.5 3.4 0 .6.8 1 1.9 1.8 1.6 1.1 2.6 3.2 1.8 4.1a5.9 5.9 0 00-.1-9.3"/>
	<path fill="none" stroke="#000" stroke-width=".4"
		  d="M166 305.8c-2.2 1.3-3.8 2.7-3.5 3.4 0 .6.8 1 1.9 1.8 1.6 1.1 2.6 3.2 1.8 4.1a5.9 5.9 0 00-.1-9.3z"/>
	<path fill="#ccc" d="M171.3 326h16.6v-81.6h-16.6V326z"/>
	<path fill="none" stroke="#000" stroke-width=".4" d="M183.1 244.5V326m2-81.4V326m-13.8 0h16.6v-81.5h-16.6V326z"/>
	<path fill="#ad1519"
		  d="M205 275a52.8 52.8 0 00-17-3 51.6 51.6 0 00-8 .8c-9.9 1.7-17.5 5.6-16.9 8.9v.2l-3.7-8.7c-.7-3.6 7.7-8 18.8-9.8a57 57 0 019.8-.8c7 0 13.2.9 16.9 2.3v10"/>
	<path fill="none" stroke="#000" stroke-linejoin="round" stroke-width=".4"
		  d="M205 275a52.8 52.8 0 00-17-3 51.6 51.6 0 00-8 .8c-9.9 1.7-17.5 5.6-16.9 8.9v.2l-3.7-8.7c-.7-3.6 7.7-8 18.8-9.8a57 57 0 019.8-.8c7 0 13.2.9 16.9 2.3v10"/>
	<path fill="#ad1519" d="M171.3 285.1c-4.7-.3-7.8-1.5-8.2-3.5-.3-1.5 1.3-3.2 4-4.7 1.3.1 2.7.3 4.2.3v8"/>
	<path fill="none" stroke="#000" stroke-width=".4"
		  d="M171.3 285.1c-4.7-.3-7.8-1.5-8.2-3.5-.3-1.5 1.3-3.2 4-4.7 1.3.1 2.7.3 4.2.3v8"/>
	<path fill="#ad1519" d="M188 279c2.8.4 5 1 6 2l.2.1c.5 1-2 3.3-6.3 5.8v-8"/>
	<path fill="none" stroke="#000" stroke-width=".4" d="M188 279c2.8.4 5 1 6 2l.2.1c.5 1-2 3.3-6.3 5.8v-8"/>
	<path fill="#ad1519"
		  d="M160.9 300.9c-.4-1.3 4-4 10.4-6.3 3-1 5.3-2.1 8.3-3.4 8.9-4 15.4-8.4 14.6-10l-.1-.2c.5.4 1.2 8.4 1.2 8.4.8 1.5-5.2 6-13.3 9.8-2.6 1.3-8.1 3.3-10.7 4.2-4.7 1.6-9.3 4.7-8.9 5.8l-1.5-8.3"/>
	<path fill="none" stroke="#000" stroke-linejoin="round" stroke-width=".4"
		  d="M160.9 300.9c-.4-1.3 4-4 10.4-6.3 3-1 5.3-2.1 8.3-3.4 8.9-4 15.4-8.4 14.6-10l-.1-.2c.5.4 1.2 8.4 1.2 8.4.8 1.5-5.2 6-13.3 9.8-2.6 1.3-8.1 3.3-10.7 4.2-4.7 1.6-9.3 4.7-8.9 5.8l-1.5-8.3z"/>
	<path fill="#c8b100"
		  d="M170.1 271c2-.7 3.4-1.6 2.7-3.2-.4-1-1.4-1.2-3-.7l-2.8 1 2.5 6.2.9-.3.8-.3-1-2.7zm-1.2-3l.7-.2c.6-.3 1.3 0 1.5.8.3.5.2 1.1-.5 1.6a4.7 4.7 0 01-.7.3l-1-2.5m7.7-2.6l-.8.3h-1l1.5 6.5 4.5-.9-.2-.4v-.4l-2.7.7-1.3-5.8m9 5.6l2.9-6.8a5.4 5.4 0 01-1.1 0 58.5 58.5 0 01-2 5c-.8-1.6-1.7-3.1-2.4-4.7l-1 .1h-1.1l3.7 6.5.5-.1h.5m9.4-5l.5-.9a3.7 3.7 0 00-1.9-.6c-1.8-.2-2.8.6-3 1.7-.2 2.3 3.4 2.1 3.3 3.7-.1.6-.8.9-1.6.8-.8 0-1.4-.5-1.5-1.2h-.2a8 8 0 01-.5 1.2c.5.3 1.2.5 1.9.6 1.8.2 3.3-.6 3.4-1.8.2-2.2-3.4-2.3-3.3-3.6 0-.6.5-1 1.4-.8.7 0 1.1.4 1.3 1h.2"/>
	<path fill="#ad1519"
		  d="M332.4 225.7s-.8.8-1.3 1c-.6 0-1.3-.6-1.3-.6s-.5.5-1.1.7c-.6.1-1.4-.7-1.4-.7s-.6.8-1.2 1c-.5.2-1.1-.2-1.1-.2s-.2.4-.7.6h-.5l-.6-.5-.7-.7-.6-.2-.3-1.1-.1-.6c-.1-.7.9-1.4 2.4-1.8.8-.2 1.5-.1 2 0a6 6 0 013.3-.8 6 6 0 013.2.7 5.9 5.9 0 013-.7c1.5 0 2.7.3 3.3.8a4.2 4.2 0 012.1 0c1.5.4 2.5 1.1 2.4 1.8v.6l-.4 1-.6.3-.7.8-.6.3s-.3.2-.5.1c-.5-.2-.7-.6-.7-.6s-.6.4-1.2.2c-.5-.2-1-1-1-1s-.9.8-1.5.7c-.6-.2-1.1-.7-1.1-.7s-.7.6-1.2.5c-.6 0-1.4-.9-1.4-.9"/>
	<path fill="none" stroke="#000" stroke-width=".3"
		  d="M332.4 225.7s-.8.8-1.3 1c-.6 0-1.3-.6-1.3-.6s-.5.5-1.1.7c-.6.1-1.4-.7-1.4-.7s-.6.8-1.2 1c-.5.2-1.1-.2-1.1-.2s-.2.4-.7.6h-.5l-.6-.5-.7-.7-.6-.2-.3-1.1-.1-.6c-.1-.7.9-1.4 2.4-1.8.8-.2 1.5-.1 2 0a6 6 0 013.3-.8 6 6 0 013.2.7 5.9 5.9 0 013-.7c1.5 0 2.7.3 3.3.8a4.2 4.2 0 012.1 0c1.5.4 2.5 1.1 2.4 1.8v.6l-.4 1-.6.3-.7.8-.6.3s-.3.2-.5.1c-.5-.2-.7-.6-.7-.6s-.6.4-1.2.2c-.5-.2-1-1-1-1s-.9.8-1.5.7c-.6-.2-1.1-.7-1.1-.7s-.7.6-1.2.5c-.6 0-1.4-.9-1.4-.9z"/>
	<path fill="#c8b100" d="M331 221.4c0-1.1.6-2 1.3-2 .8 0 1.4.9 1.4 2s-.6 2-1.4 2c-.8 0-1.4-.9-1.4-2"/>
	<path fill="none" stroke="#000" stroke-width=".3"
		  d="M331 221.4c0-1.1.6-2 1.3-2 .8 0 1.4.9 1.4 2s-.6 2-1.4 2c-.8 0-1.4-.9-1.4-2z"/>
	<path fill="#c8b100" d="M331.7 221.4c0-1 .3-1.9.7-1.9.3 0 .6.9.6 1.9 0 1-.3 1.8-.7 1.8-.3 0-.6-.8-.6-1.8"/>
	<path fill="none" stroke="#000" stroke-width=".3"
		  d="M331.7 221.4c0-1 .3-1.9.7-1.9.3 0 .6.9.6 1.9 0 1-.3 1.8-.7 1.8-.3 0-.6-.8-.6-1.8z"/>
	<path fill="#c8b100"
		  d="M325 229.6a4.8 4.8 0 00-.5-1c2-.7 4.7-1 7.8-1 3.1 0 6 .3 8 1l-.6.9-.4.8c-1.8-.6-4.1-.8-7-.8-2.8 0-5.6.3-7 .8l-.2-.7"/>
	<path fill="none" stroke="#000" stroke-width=".3"
		  d="M325 229.6a4.8 4.8 0 00-.5-1c2-.7 4.7-1 7.8-1 3.1 0 6 .3 8 1l-.6.9-.4.8c-1.8-.6-4.1-.8-7-.8-2.8 0-5.6.3-7 .8l-.2-.7"/>
	<path fill="#c8b100"
		  d="M332.3 232.2c2.5 0 5.3-.4 6.3-.7.7-.2 1-.5 1-.8 0-.2-.2-.3-.4-.4a25.7 25.7 0 00-6.9-.9 26 26 0 00-6.8.9c-.2 0-.4.2-.4.4 0 .3.3.6 1 .8 1 .3 3.7.7 6.2.7"/>
	<path fill="none" stroke="#000" stroke-width=".3"
		  d="M332.3 232.2c2.5 0 5.3-.4 6.3-.7.7-.2 1-.5 1-.8 0-.2-.2-.3-.4-.4a25.7 25.7 0 00-6.9-.9 26 26 0 00-6.8.9c-.2 0-.4.2-.4.4 0 .3.3.6 1 .8 1 .3 3.7.7 6.2.7z"/>
	<path fill="#fff" d="M338.4 222.3a.5.5 0 01.4-.5c.3 0 .5.2.5.5 0 .2-.2.4-.5.4a.5.5 0 01-.4-.4"/>
	<path fill="none" stroke="#000" stroke-width=".2"
		  d="M338.4 222.3a.5.5 0 01.4-.5c.3 0 .5.2.5.5 0 .2-.2.4-.5.4a.5.5 0 01-.4-.4zm-.3-1.6a.5.5 0 01.5-.4c.2 0 .4.2.4.4s-.2.5-.4.5a.5.5 0 01-.5-.4zm-1.1-1a.5.5 0 01.4-.3c.3 0 .5.1.5.4s-.2.4-.5.4a.5.5 0 01-.4-.4zm-1.5-.4c0-.2.2-.4.5-.4a.5.5 0 01.4.4.5.5 0 01-.4.5c-.3 0-.5-.2-.5-.5zm-1.5 0a.5.5 0 01.5-.4c.3 0 .5.2.5.5s-.2.4-.5.4a.5.5 0 01-.5-.4z"/>
	<path fill="none" stroke="#000" stroke-linecap="round" stroke-width=".3"
		  d="M343 225.3a3 3 0 00.2-1.1 3 3 0 00-3-3 2.8 2.8 0 00-1.3.4"/>
	<path fill="none" stroke="#000" stroke-width=".3" d="M337.8 223.2l.3-.9c0-1.2-1.3-2.1-2.7-2.1-.7 0-1.3.1-1.7.4"/>
	<path fill="none" stroke="#000" stroke-width=".2"
		  d="M343.4 224c0-.3.2-.5.4-.5s.5.2.5.4-.2.5-.5.5c-.2 0-.4-.2-.4-.5zm-.2-1.7c0-.2.2-.4.5-.4.2 0 .4.2.4.4s-.2.4-.5.4c-.2 0-.4-.1-.4-.4zm-1-1.2a.5.5 0 01.4-.5c.3 0 .5.2.5.5s-.2.4-.5.4a.5.5 0 01-.5-.4zm-1.5-.7c0-.2.3-.4.5-.4.3 0 .5.2.5.4a.5.5 0 01-.5.5.5.5 0 01-.4-.5zm-1.4 0c0-.2.2-.4.4-.4s.5.2.5.5-.2.4-.5.4-.4-.2-.4-.4z"/>
	<path fill="#c8b100"
		  d="M340.3 227.4l-.6-.5s-.6.3-1.3.2c-.7-.1-1-1-1-1s-.7.7-1.4.6c-.7 0-1.1-.6-1.1-.6s-.7.5-1.4.5c-.6 0-1.2-.9-1.2-.9s-.7.9-1.3 1c-.6 0-1.1-.6-1.1-.6s-.3.6-1.1.7c-.8.1-1.5-.6-1.5-.6s-.5.7-1 1c-.6.1-1.3-.4-1.3-.4l-.2.5-.4.2.2.4a32.5 32.5 0 0115.5.1l.2-.6"/>
	<path fill="none" stroke="#000" stroke-width=".3"
		  d="M340.3 227.4l-.6-.5s-.6.3-1.3.2c-.7-.1-1-1-1-1s-.7.7-1.4.6c-.7 0-1.1-.6-1.1-.6s-.7.5-1.4.5c-.6 0-1.2-.9-1.2-.9s-.7.9-1.3 1c-.6 0-1.1-.6-1.1-.6s-.3.6-1.1.7c-.8.1-1.5-.6-1.5-.6s-.5.7-1 1c-.6.1-1.3-.4-1.3-.4l-.2.5-.4.2.2.4a32.5 32.5 0 0115.5.1l.2-.6z"/>
	<path fill="#fff" d="M325.3 222.3a.5.5 0 01.5-.5.5.5 0 01.4.5.5.5 0 01-.4.4c-.3 0-.5-.2-.5-.4"/>
	<path fill="none" stroke="#000" stroke-width=".2"
		  d="M325.3 222.3a.5.5 0 01.5-.5.5.5 0 01.4.5.5.5 0 01-.4.4c-.3 0-.5-.2-.5-.4zm.3-1.6a.5.5 0 01.4-.4.5.5 0 01.5.4.5.5 0 01-.5.5.4.4 0 01-.4-.4zm1.1-1c0-.1.2-.3.5-.3s.5.1.5.4-.2.4-.5.4a.5.5 0 01-.5-.4zm1.5-.4c0-.2.2-.4.4-.4s.5.2.5.4c0 .3-.2.5-.5.5-.2 0-.4-.2-.4-.5zm1.5 0a.5.5 0 01.4-.4.5.5 0 01.5.5c0 .2-.2.4-.5.4a.5.5 0 01-.4-.4z"/>
	<path fill="none" stroke="#000" stroke-linecap="round" stroke-width=".3"
		  d="M321.7 225.3a3 3 0 01-.3-1.1 3 3 0 013-3c.4 0 1 .2 1.3.4"/>
	<path fill="none" stroke="#000" stroke-width=".3" d="M326.9 223.2l-.3-.9c0-1.2 1.2-2.1 2.7-2.1.6 0 1.2.1 1.6.4"/>
	<path fill="none" stroke="#000" stroke-width=".2"
		  d="M320.3 224c0-.3.2-.5.5-.5s.5.2.5.4a.5.5 0 01-.5.5c-.3 0-.5-.2-.5-.5zm.2-1.7c0-.2.2-.4.5-.4s.4.2.4.4-.2.4-.4.4a.5.5 0 01-.5-.4zm1-1.2c0-.3.3-.5.5-.5a.5.5 0 01.5.5.5.5 0 01-.5.4.5.5 0 01-.4-.4zm1.5-.7a.5.5 0 01.4-.4c.3 0 .5.2.5.4a.5.5 0 01-.5.5.5.5 0 01-.5-.5zm1.4 0c0-.2.2-.4.5-.4a.5.5 0 01.4.5c0 .2-.2.4-.4.4s-.5-.2-.5-.4z"/>
	<path fill="#c8b100"
		  d="M332.4 224.8h.2v.4c0 .6.5 1 1.1 1 .5 0 1-.2 1.1-.7l.2-.4v.5c0 .5.6.9 1.1.9a1.1 1.1 0 001.2-1.1.7.7 0 000-.1l.3-.4.2.4a1 1 0 000 .5c0 .6.4 1 1 1a1.1 1.1 0 001-.4l.1-.3v.4c0 .3.2.6.5.7 0 0 .4 0 1-.4l.8-.8v.5s-.5.8-1 1.1c-.2.1-.6.3-1 .3-.3-.1-.5-.4-.6-.7a1.6 1.6 0 01-.8.3c-.7 0-1.3-.4-1.5-1a1.6 1.6 0 01-1.2.6 1.7 1.7 0 01-1.3-.6c-.3.3-.7.4-1 .4a1.7 1.7 0 01-1.5-.7 1.7 1.7 0 01-2.4.3 1.7 1.7 0 01-1.3.6c-.5 0-1-.2-1.2-.5-.2.5-.8.8-1.5.8-.3 0-.5 0-.8-.2-.1.3-.3.6-.7.7a2 2 0 01-1-.3l-1-1.1v-.5l1 .8c.4.4.8.4.8.4.4 0 .5-.4.5-.7v-.4l.3.3c.2.3.5.5.9.5.6 0 1-.5 1-1a1 1 0 000-.6l.2-.4.3.4c0 .7.5 1.2 1.1 1.2.6 0 1.1-.4 1.2-1v-.3l.2.3c.1.5.6.8 1 .8a1.1 1.1 0 001.2-1.5h.2"/>
	<path fill="none" stroke="#000" stroke-width=".3"
		  d="M332.4 224.8h.2v.4c0 .6.5 1 1.1 1 .5 0 1-.2 1.1-.7l.2-.4v.5c0 .5.6.9 1.1.9a1.1 1.1 0 001.2-1.1.7.7 0 000-.1l.3-.4.2.4a1 1 0 000 .5c0 .6.4 1 1 1a1.1 1.1 0 001-.4l.1-.3v.4c0 .3.2.6.5.7 0 0 .4 0 1-.4l.8-.8v.5s-.5.8-1 1.1c-.2.1-.6.3-1 .3-.3-.1-.5-.4-.6-.7a1.6 1.6 0 01-.8.3c-.7 0-1.3-.4-1.5-1a1.6 1.6 0 01-1.2.6 1.7 1.7 0 01-1.3-.6c-.3.3-.7.4-1 .4a1.7 1.7 0 01-1.5-.7 1.7 1.7 0 01-2.4.3 1.7 1.7 0 01-1.3.6c-.5 0-1-.2-1.2-.5-.2.5-.8.8-1.5.8-.3 0-.5 0-.8-.2-.1.3-.3.6-.7.7a2 2 0 01-1-.3l-1-1.1v-.5l1 .8c.4.4.8.4.8.4.4 0 .5-.4.5-.7v-.4l.3.3c.2.3.5.5.9.5.6 0 1-.5 1-1a1 1 0 000-.6l.2-.4.3.4c0 .7.5 1.2 1.1 1.2.6 0 1.1-.4 1.2-1v-.3l.2.3c.1.5.6.8 1 .8a1.1 1.1 0 001.2-1.5h.2z"/>
	<path fill="#c8b100"
		  d="M332.3 227.6c-3 0-5.8.3-7.8 1l-.4-.2.2-.4c2-.6 4.9-1 8-1s6 .4 8 1c.2 0 .3.2.2.3 0 .2-.2.3-.3.2-2-.6-4.8-1-7.9-1"/>
	<path fill="none" stroke="#000" stroke-width=".3"
		  d="M332.3 227.6c-3 0-5.8.3-7.8 1l-.4-.2.2-.4c2-.6 4.9-1 8-1s6 .4 8 1c.2 0 .3.2.2.3 0 .2-.2.3-.3.2-2-.6-4.8-1-7.9-1z"/>
	<path fill="#fff" d="M329.4 228.7c0-.3.2-.5.4-.5s.5.2.5.5c0 .2-.3.4-.5.4s-.5-.2-.5-.4"/>
	<path fill="none" stroke="#000" stroke-width=".3"
		  d="M329.4 228.7c0-.3.2-.5.4-.5s.5.2.5.5c0 .2-.3.4-.5.4s-.5-.2-.5-.4z"/>
	<path fill="#ad1519" d="M332.4 228.8h-1c-.2 0-.4-.1-.4-.3 0-.1.2-.3.4-.3h2a.3.3 0 01.3.3c0 .2-.1.3-.3.3h-1"/>
	<path fill="none" stroke="#000" stroke-width=".3"
		  d="M332.4 228.8h-1c-.2 0-.4-.1-.4-.3 0-.1.2-.3.4-.3h2a.3.3 0 01.3.3c0 .2-.1.3-.3.3h-1"/>
	<path fill="#058e6e"
		  d="M327.4 229.2h-.7a.3.3 0 01-.4-.2.3.3 0 01.3-.3l.7-.1.7-.2c.2 0 .4.1.4.3 0 .2 0 .3-.3.4h-.7"/>
	<path fill="none" stroke="#000" stroke-width=".3"
		  d="M327.4 229.2h-.7a.3.3 0 01-.4-.2.3.3 0 01.3-.3l.7-.1.7-.2c.2 0 .4.1.4.3 0 .2 0 .3-.3.4h-.7"/>
	<path fill="#ad1519" d="M324.5 229.7l.4-.5.6.1-.4.6-.6-.2"/>
	<path fill="none" stroke="#000" stroke-width=".3" d="M324.5 229.7l.4-.5.6.1-.4.6-.6-.2"/>
	<path fill="#fff" d="M334.4 228.7c0-.3.2-.5.5-.5.2 0 .4.2.4.5 0 .2-.2.4-.4.4s-.5-.2-.5-.4"/>
	<path fill="none" stroke="#000" stroke-width=".3"
		  d="M334.4 228.7c0-.3.2-.5.5-.5.2 0 .4.2.4.5 0 .2-.2.4-.4.4s-.5-.2-.5-.4z"/>
	<path fill="#058e6e"
		  d="M337.3 229.2h.7c.2.1.3 0 .4-.2a.3.3 0 00-.3-.3l-.7-.1-.7-.2c-.2 0-.4.1-.4.3 0 .2 0 .3.3.4h.7"/>
	<path fill="none" stroke="#000" stroke-width=".3"
		  d="M337.3 229.2h.7c.2.1.3 0 .4-.2a.3.3 0 00-.3-.3l-.7-.1-.7-.2c-.2 0-.4.1-.4.3 0 .2 0 .3.3.4h.7"/>
	<path fill="#ad1519" d="M340.1 229.7l-.3-.5h-.7l.4.6h.6"/>
	<path fill="none" stroke="#000" stroke-width=".3" d="M340.1 229.7l-.3-.5h-.7l.4.6h.6"/>
	<path fill="#ad1519" d="M332.3 231.6a27.1 27.1 0 01-6.4-.7 27.9 27.9 0 0113 0 27.1 27.1 0 01-6.6.7"/>
	<path fill="none" stroke="#000" stroke-linejoin="round" stroke-width=".3"
		  d="M332.3 231.6a27.1 27.1 0 01-6.4-.7 27.9 27.9 0 0113 0 27.1 27.1 0 01-6.6.7z"/>
	<path fill="#c8b100" d="M340.2 226.2l-.1-.4c-.2 0-.3 0-.4.2l.1.5c.2 0 .3-.1.4-.3"/>
	<path fill="none" stroke="#000" stroke-width=".3" d="M340.2 226.2l-.1-.4c-.2 0-.3 0-.4.2l.1.5c.2 0 .3-.1.4-.3z"/>
	<path fill="#c8b100" d="M335.2 225.2c0-.2 0-.3-.2-.4-.1 0-.3.2-.3.4s0 .3.2.4c.2 0 .3-.2.3-.4"/>
	<path fill="none" stroke="#000" stroke-width=".3"
		  d="M335.2 225.2c0-.2 0-.3-.2-.4-.1 0-.3.2-.3.4s0 .3.2.4c.2 0 .3-.2.3-.4z"/>
	<path fill="#c8b100" d="M329.5 225.2c0-.2 0-.3.2-.4.1 0 .3.2.3.4s0 .3-.2.4c-.2 0-.3-.2-.3-.4"/>
	<path fill="none" stroke="#000" stroke-width=".3"
		  d="M329.5 225.2c0-.2 0-.3.2-.4.1 0 .3.2.3.4s0 .3-.2.4c-.2 0-.3-.2-.3-.4z"/>
	<path fill="#c8b100" d="M324.5 226.2l.1-.4c.2 0 .3 0 .4.2l-.1.5c-.2 0-.3-.1-.4-.3"/>
	<path fill="none" stroke="#000" stroke-width=".3" d="M324.5 226.2l.1-.4c.2 0 .3 0 .4.2l-.1.5c-.2 0-.3-.1-.4-.3z"/>
	<path fill="#c8b100" d="M332.3 222.4l-.8.5.6 1.4.2.2.3-.2.6-1.4-.9-.5"/>
	<path fill="none" stroke="#000" stroke-width=".3" d="M332.3 222.4l-.8.5.6 1.4.2.2.3-.2.6-1.4-.9-.5"/>
	<path fill="#c8b100" d="M330.4 224.5l.4.6 1.4-.4.1-.2-.1-.2-1.4-.4-.4.6"/>
	<path fill="none" stroke="#000" stroke-width=".3" d="M330.4 224.5l.4.6 1.4-.4.1-.2-.1-.2-1.4-.4-.4.6"/>
	<path fill="#c8b100" d="M334.3 224.5l-.4.6-1.4-.4-.1-.2.1-.2 1.4-.4.4.6"/>
	<path fill="none" stroke="#000" stroke-width=".3" d="M334.3 224.5l-.4.6-1.4-.4-.1-.2.1-.2 1.4-.4.4.6"/>
	<path fill="#c8b100" d="M326.6 223l-.7.6 1 1.2.2.1.1-.2.3-1.4-.9-.3"/>
	<path fill="none" stroke="#000" stroke-width=".3" d="M326.6 223l-.7.6 1 1.2.2.1.1-.2.3-1.4-.9-.3"/>
	<path fill="#c8b100" d="M325.2 225.3l.5.5 1.2-.7.1-.2-.1-.2h-1.5l-.2.6"/>
	<path fill="none" stroke="#000" stroke-width=".3" d="M325.2 225.3l.5.5 1.2-.7.1-.2-.1-.2h-1.5l-.2.6"/>
	<path fill="#c8b100" d="M329 224.6l-.3.6-1.4-.1-.2-.2v-.2l1.3-.7.6.6"/>
	<path fill="none" stroke="#000" stroke-width=".3" d="M329 224.6l-.3.6-1.4-.1-.2-.2v-.2l1.3-.7.6.6"/>
	<path fill="#c8b100" d="M323.8 225.5l-.1.7-1.5.1h-.2v-.3l1.2-1 .6.5"/>
	<path fill="none" stroke="#000" stroke-width=".3" d="M323.8 225.5l-.1.7-1.5.1h-.2v-.3l1.2-1 .6.5"/>
	<path fill="#c8b100" d="M326.6 225a.5.5 0 01.5-.6.5.5 0 01.5.5.5.5 0 01-.5.5.5.5 0 01-.5-.5"/>
	<path fill="none" stroke="#000" stroke-width=".3"
		  d="M326.6 225a.5.5 0 01.5-.6.5.5 0 01.5.5.5.5 0 01-.5.5.5.5 0 01-.5-.5z"/>
	<path fill="#c8b100" d="M338 223l.8.6-1 1.2-.2.1-.1-.2-.3-1.4.9-.3"/>
	<path fill="none" stroke="#000" stroke-width=".3" d="M338 223l.8.6-1 1.2-.2.1-.1-.2-.3-1.4.9-.3"/>
	<path fill="#c8b100" d="M339.5 225.3l-.5.5-1.3-.7v-.2l.1-.2h1.5l.2.6"/>
	<path fill="none" stroke="#000" stroke-width=".3" d="M339.5 225.3l-.5.5-1.3-.7v-.2l.1-.2h1.5l.2.6"/>
	<path fill="#c8b100" d="M335.7 224.6l.3.6 1.4-.1.2-.2v-.2l-1.3-.7-.6.6"/>
	<path fill="none" stroke="#000" stroke-width=".3" d="M335.7 224.6l.3.6 1.4-.1.2-.2v-.2l-1.3-.7-.6.6"/>
	<path fill="#c8b100" d="M340.7 225.5l.1.7 1.4.1h.3v-.3l-1.2-1-.6.5"/>
	<path fill="none" stroke="#000" stroke-width=".3" d="M340.7 225.5l.1.7 1.4.1h.3v-.3l-1.2-1-.6.5"/>
	<path fill="#c8b100" d="M331.8 224.5c0-.3.3-.5.5-.5s.5.2.5.5c0 .2-.2.4-.5.4a.5.5 0 01-.5-.4"/>
	<path fill="none" stroke="#000" stroke-width=".3"
		  d="M331.8 224.5c0-.3.3-.5.5-.5s.5.2.5.5c0 .2-.2.4-.5.4a.5.5 0 01-.5-.4z"/>
	<path fill="#c8b100" d="M337.1 225a.5.5 0 01.5-.6c.3 0 .5.2.5.5s-.2.5-.5.5a.5.5 0 01-.5-.5"/>
	<path fill="none" stroke="#000" stroke-width=".3"
		  d="M337.1 225a.5.5 0 01.5-.6c.3 0 .5.2.5.5s-.2.5-.5.5a.5.5 0 01-.5-.5z"/>
	<path fill="#c8b100" d="M331.4 219c0-.4.4-.8 1-.8s.9.4.9.9-.4.9-1 .9a1 1 0 01-.9-1"/>
	<path fill="#c8b100" d="M333 218.8v.6h-1.5v-.6h.5v-1.4h-.6v-.6h.6v-.5h.7v.5h.6v.6h-.6v1.4h.3"/>
	<path fill="none" stroke="#000" stroke-width=".3"
		  d="M333 218.8v.6h-1.5v-.6h.5v-1.4h-.6v-.6h.6v-.5h.7v.5h.6v.6h-.6v1.4h.3z"/>
	<path fill="#c8b100" d="M333.7 218.8v.6H331v-.6h1v-1.4h-.7v-.6h.6v-.5h.7v.5h.6v.6h-.6v1.4h1"/>
	<path fill="none" stroke="#000" stroke-width=".3"
		  d="M332.6 218.2a.9.9 0 01.7.9c0 .5-.4.9-1 .9a1 1 0 01-.9-1c0-.3.3-.7.7-.8"/>
	<path fill="#c8b100" d="M321.9 226.3l-.7-.8-.7-.3s.3-.3.6-.3l.5.2v-.2s.2 0 .3.4c.2.3 0 .7 0 .7v.3"/>
	<path fill="none" stroke="#000" stroke-width=".3"
		  d="M321.9 226.3l-.7-.8-.7-.3s.3-.3.6-.3l.5.2v-.2s.2 0 .3.4c.2.3 0 .7 0 .7v.3z"/>
	<path fill="#c8b100" d="M321.9 226l.5.1c.2.2.3.4.1.5h-.5c-.2-.2-.2-.4-.1-.5"/>
	<path fill="none" stroke="#000" stroke-width=".3" d="M321.9 226l.5.1c.2.2.3.4.1.5h-.5c-.2-.2-.2-.4-.1-.5z"/>
	<path fill="#c8b100" d="M342.6 226.3l.7-.8.7-.3s-.3-.3-.6-.3a.6.6 0 00-.5.2v-.2s-.3 0-.4.4v.7l.1.3"/>
	<path fill="none" stroke="#000" stroke-width=".3"
		  d="M342.6 226.3l.7-.8.7-.3s-.3-.3-.6-.3a.6.6 0 00-.5.2v-.2s-.3 0-.4.4v.7l.1.3z"/>
	<path fill="#c8b100" d="M342.6 226l-.5.1c-.2.2-.2.4-.1.5.1.2.3.1.5 0 .2-.2.3-.4.1-.5"/>
	<path fill="none" stroke="#000" stroke-width=".3"
		  d="M342.6 226l-.5.1c-.2.2-.2.4-.1.5.1.2.3.1.5 0 .2-.2.3-.4.1-.5z"/>
	<path fill="#c8b100" d="M321 238h22.8v-6h-22.9v6z"/>
	<path fill="none" stroke="#000" stroke-width=".4" d="M321 238h22.8v-6h-22.9v6z"/>
	<path fill="#c8b100"
		  d="M341.4 242a1 1 0 00-.4-.1h-17.6c.6-.2 1-.7 1-1.3 0-.6-.5-1.2-1-1.4l.4.1h17.6c-.7.2-1 .7-1 1.3 0 .6.4 1.1 1 1.3"/>
	<path fill="none" stroke="#000" stroke-linejoin="round" stroke-width=".4"
		  d="M341.4 242a1 1 0 00-.4-.1h-17.6c.6-.2 1-.7 1-1.3 0-.6-.5-1.2-1-1.4l.4.1h17.6c-.7.2-1 .7-1 1.3 0 .6.4 1.1 1 1.3z"/>
	<path fill="#c8b100" d="M323.9 241.9h17c.6 0 1.1.3 1.1.8 0 .4-.5.8-1 .8h-17.1c-.6 0-1-.4-1-.8 0-.5.4-.8 1-.8"/>
	<path fill="none" stroke="#000" stroke-width=".4"
		  d="M323.9 241.9h17c.6 0 1.1.3 1.1.8 0 .4-.5.8-1 .8h-17.1c-.6 0-1-.4-1-.8 0-.5.4-.8 1-.8z"/>
	<path fill="#c8b100" d="M323.9 238h17c.6 0 1.1.2 1.1.6 0 .4-.5.7-1 .7h-17.1c-.6 0-1.1-.3-1.1-.7 0-.4.5-.7 1-.7"/>
	<path fill="none" stroke="#000" stroke-width=".4"
		  d="M323.9 238h17c.6 0 1.1.2 1.1.6 0 .4-.5.7-1 .7h-17.1c-.6 0-1.1-.3-1.1-.7 0-.4.5-.7 1-.7z"/>
	<path fill="#005bbf"
		  d="M316.4 338.6c1.6 0 3-.3 4-.9a8.9 8.9 0 014-.8c1.5 0 3 .3 4 .8 1 .6 2.5 1 4 1a8.7 8.7 0 004-1 9 9 0 014-.8c1.5 0 2.8.3 3.9.8 1 .6 2.5 1 4 1v2.4a8.9 8.9 0 01-4-1 8.8 8.8 0 00-4-.8c-1.5 0-2.8.4-3.9.9a8.8 8.8 0 01-4 .9 9 9 0 01-4-.9 9 9 0 00-4-.9c-1.5 0-3 .4-4 .9a8.6 8.6 0 01-4 .9v-2.5"/>
	<path fill="none" stroke="#000" stroke-width=".4"
		  d="M316.4 338.6c1.6 0 3-.3 4-.9a8.9 8.9 0 014-.8c1.5 0 3 .3 4 .8 1 .6 2.5 1 4 1a8.7 8.7 0 004-1 9 9 0 014-.8c1.5 0 2.8.3 3.9.8 1 .6 2.5 1 4 1v2.4a8.9 8.9 0 01-4-1 8.8 8.8 0 00-4-.8c-1.5 0-2.8.4-3.9.9a8.8 8.8 0 01-4 .9 9 9 0 01-4-.9 9 9 0 00-4-.9c-1.5 0-3 .4-4 .9a8.6 8.6 0 01-4 .9v-2.5z"/>
	<path fill="#ccc"
		  d="M316.4 341a8.7 8.7 0 004-.8 8.9 8.9 0 014-.8c1.5 0 3 .3 4 .8a9 9 0 004 .9c1.6 0 3-.4 4-1a8.9 8.9 0 014-.8 8 8 0 013.9.9 8.9 8.9 0 004 .9v2.4a8.9 8.9 0 01-4-.9 8.6 8.6 0 00-4-.8c-1.5 0-2.8.3-3.9.8a8.7 8.7 0 01-4 1 8.9 8.9 0 01-4-1 9 9 0 00-4-.8 8.9 8.9 0 00-4 .9 8.6 8.6 0 01-4 .9V341"/>
	<path fill="none" stroke="#000" stroke-width=".4"
		  d="M316.4 341a8.7 8.7 0 004-.8 8.9 8.9 0 014-.8c1.5 0 3 .3 4 .8a9 9 0 004 .9c1.6 0 3-.4 4-1a8.9 8.9 0 014-.8 8 8 0 013.9.9 8.9 8.9 0 004 .9v2.4a8.9 8.9 0 01-4-.9 8.6 8.6 0 00-4-.8c-1.5 0-2.8.3-3.9.8a8.7 8.7 0 01-4 1 8.9 8.9 0 01-4-1 9 9 0 00-4-.8 8.9 8.9 0 00-4 .9 8.6 8.6 0 01-4 .9V341"/>
	<path fill="#005bbf"
		  d="M316.4 343.6c1.6 0 3-.4 4-1a8.9 8.9 0 014-.8 9 9 0 014 .9c1 .5 2.5.9 4 .9 1.6 0 3-.4 4-1a9 9 0 014-.8c1.5 0 2.8.3 3.9.8 1 .6 2.5 1 4 1v2.4a8.9 8.9 0 01-4-.9 8.7 8.7 0 00-4-.8 9 9 0 00-3.9.8 8.7 8.7 0 01-4 1 9 9 0 01-4-1 9 9 0 00-4-.8c-1.5 0-3 .3-4 .8a8.6 8.6 0 01-4 1v-2.6"/>
	<path fill="none" stroke="#000" stroke-width=".4"
		  d="M316.4 343.6c1.6 0 3-.4 4-1a8.9 8.9 0 014-.8 9 9 0 014 .9c1 .5 2.5.9 4 .9 1.6 0 3-.4 4-1a9 9 0 014-.8c1.5 0 2.8.3 3.9.8 1 .6 2.5 1 4 1v2.4a8.9 8.9 0 01-4-.9 8.7 8.7 0 00-4-.8 9 9 0 00-3.9.8 8.7 8.7 0 01-4 1 9 9 0 01-4-1 9 9 0 00-4-.8c-1.5 0-3 .3-4 .8a8.6 8.6 0 01-4 1v-2.6"/>
	<path fill="#ccc"
		  d="M316.4 348.5a8.6 8.6 0 004-1 9 9 0 014-.7 9 9 0 014 .8c1 .5 2.5.9 4 .9 1.6 0 3-.4 4-1a9 9 0 014-.7c1.5 0 2.8.3 3.9.8 1 .5 2.5.9 4 .9V346a8.8 8.8 0 01-4-.9 8.8 8.8 0 00-4-.8 9 9 0 00-3.9.8 8.7 8.7 0 01-4 1 9 9 0 01-4-1 9 9 0 00-4-.8 9 9 0 00-4 .8 8.7 8.7 0 01-4 1v2.4"/>
	<path fill="none" stroke="#000" stroke-width=".4"
		  d="M316.4 348.5a8.6 8.6 0 004-1 9 9 0 014-.7 9 9 0 014 .8c1 .5 2.5.9 4 .9 1.6 0 3-.4 4-1a9 9 0 014-.7c1.5 0 2.8.3 3.9.8 1 .5 2.5.9 4 .9V346a8.8 8.8 0 01-4-.9 8.8 8.8 0 00-4-.8 9 9 0 00-3.9.8 8.7 8.7 0 01-4 1 9 9 0 01-4-1 9 9 0 00-4-.8 9 9 0 00-4 .8 8.7 8.7 0 01-4 1v2.4"/>
	<path fill="#005bbf"
		  d="M316.4 351c1.6 0 3-.4 4-1a8.8 8.8 0 014-.8 9 9 0 014 .9c1 .5 2.5.8 4 .8 1.6 0 3-.3 4-.9a9 9 0 014-.8c1.5 0 2.8.3 3.9.8 1 .6 2.5 1 4 1v-2.5a8.8 8.8 0 01-4-1 8.8 8.8 0 00-4-.7c-1.5 0-2.8.3-3.9.8a8.8 8.8 0 01-4 .9 8.9 8.9 0 01-4-.9 9 9 0 00-4-.8 8.9 8.9 0 00-4 .8 8.7 8.7 0 01-4 .9v2.5"/>
	<path fill="none" stroke="#000" stroke-width=".4"
		  d="M316.4 351c1.6 0 3-.4 4-1a8.8 8.8 0 014-.8 9 9 0 014 .9c1 .5 2.5.8 4 .8 1.6 0 3-.3 4-.9a9 9 0 014-.8c1.5 0 2.8.3 3.9.8 1 .6 2.5 1 4 1v-2.5a8.8 8.8 0 01-4-1 8.8 8.8 0 00-4-.7c-1.5 0-2.8.3-3.9.8a8.8 8.8 0 01-4 .9 8.9 8.9 0 01-4-.9 9 9 0 00-4-.8 8.9 8.9 0 00-4 .8 8.7 8.7 0 01-4 .9v2.5z"/>
	<path fill="#c8b100" d="M341.4 328.5l-.2.6c0 1.5 1.3 2.7 3 2.7h-23.6c1.6 0 2.9-1.2 2.9-2.7a2.8 2.8 0 000-.6h17.9"/>
	<path fill="none" stroke="#000" stroke-linejoin="round" stroke-width=".4"
		  d="M341.4 328.5l-.2.6c0 1.5 1.3 2.7 3 2.7h-23.6c1.6 0 2.9-1.2 2.9-2.7a2.8 2.8 0 000-.6h17.9z"/>
	<path fill="#c8b100" d="M323.9 327h17c.6 0 1.1.3 1.1.7 0 .5-.5.8-1 .8h-17.1c-.6 0-1-.3-1-.8 0-.4.4-.8 1-.8"/>
	<path fill="none" stroke="#000" stroke-width=".4"
		  d="M323.9 327h17c.6 0 1.1.3 1.1.7 0 .5-.5.8-1 .8h-17.1c-.6 0-1-.3-1-.8 0-.4.4-.8 1-.8z"/>
	<path fill="#c8b100" d="M320.7 337.8H344v-6h-23.4v6z"/>
	<path fill="none" stroke="#000" stroke-width=".4" d="M320.7 337.8H344v-6h-23.4v6z"/>
	<path fill="#ad1519"
		  d="M346 305.8c2.2 1.3 3.8 2.7 3.6 3.4-.2.6-1 1-2 1.8-1.6 1.1-2.6 3.2-1.8 4.1a5.9 5.9 0 01.1-9.3"/>
	<path fill="none" stroke="#000" stroke-width=".4"
		  d="M346 305.8c2.2 1.3 3.8 2.7 3.6 3.4-.2.6-1 1-2 1.8-1.6 1.1-2.6 3.2-1.8 4.1a5.9 5.9 0 01.1-9.3z"/>
	<path fill="#ccc" d="M324 326h16.7v-81.6h-16.6V326z"/>
	<path fill="none" stroke="#000" stroke-width=".4" d="M336.2 244.4v81.4m1.8-81.4v81.4m-14 .2h16.7v-81.6h-16.6V326z"/>
	<path fill="#ad1519"
		  d="M307 275a53 53 0 0125-2.2c9.9 1.7 17.5 5.6 16.9 8.9v.2s3.7-8.4 3.7-8.7c.7-3.6-7.7-8-18.8-9.8a57 57 0 00-9.8-.8c-7 0-13.2.9-16.9 2.3v10"/>
	<path fill="none" stroke="#000" stroke-linejoin="round" stroke-width=".4"
		  d="M307 275a53 53 0 0125-2.2c9.9 1.7 17.5 5.6 16.9 8.9v.2s3.7-8.4 3.7-8.7c.7-3.6-7.7-8-18.8-9.8a57 57 0 00-9.8-.8c-7 0-13.2.9-16.9 2.3v10"/>
	<path fill="#ad1519" d="M340.8 285.1c4.6-.3 7.7-1.5 8-3.5.4-1.5-1.2-3.2-4-4.7-1.2.1-2.6.3-4 .3v8"/>
	<path fill="none" stroke="#000" stroke-width=".4"
		  d="M340.8 285.1c4.6-.3 7.7-1.5 8-3.5.4-1.5-1.2-3.2-4-4.7-1.2.1-2.6.3-4 .3v8"/>
	<path fill="#ad1519" d="M324 279c-2.8.4-5 1-6 2l-.2.1c-.5 1 2 3.3 6.3 5.8v-8"/>
	<path fill="none" stroke="#000" stroke-width=".4" d="M324 279c-2.8.4-5 1-6 2l-.2.1c-.5 1 2 3.3 6.3 5.8v-8"/>
	<path fill="#ad1519"
		  d="M351.1 300.9c.4-1.3-4-4-10.4-6.3-3-1-5.3-2.1-8.3-3.4-8.8-4-15.4-8.4-14.6-10l.1-.2c-.4.4-1.2 8.4-1.2 8.4-.8 1.5 5.2 6 13.3 9.8 2.6 1.3 8.1 3.3 10.7 4.2 4.7 1.6 9.3 4.7 8.9 5.8l1.5-8.3"/>
	<path fill="none" stroke="#000" stroke-linejoin="round" stroke-width=".4"
		  d="M351.1 300.9c.4-1.3-4-4-10.4-6.3-3-1-5.3-2.1-8.3-3.4-8.8-4-15.4-8.4-14.6-10l.1-.2c-.4.4-1.2 8.4-1.2 8.4-.8 1.5 5.2 6 13.3 9.8 2.6 1.3 8.1 3.3 10.7 4.2 4.7 1.6 9.3 4.7 8.9 5.8l1.5-8.3z"/>
	<path fill="#c8b100"
		  d="M317.5 271.3c.6-2.4 1.4-4.7 2.2-7a5.7 5.7 0 01-.5.1 5.4 5.4 0 01-.6 0c-.4 1.8-.9 3.4-1.5 5.1l-2.9-4.4-1 .2-1 .1a140 140 0 014.2 6h1.1m6.3-7H322l-.2 6.5h4.6v-.8a32 32 0 01-2.7.1v-5.9m7.3 1.1l2.1.3v-.4l.1-.4-6.2-.5v.8h2.2l-.6 6h1l.8.1.6-5.9m2.5 6.5c.3 0 .6 0 1 .2l.8.2.7-3h.1l.5 1.2 1 2.3c.3 0 .7 0 1 .2l1.1.2-.3-.6-1.5-3.1c1.2 0 2-.4 2.3-1.3.1-.7-.1-1.2-.7-1.6a6 6 0 00-1.9-.6l-2.5-.5-1.6 6.4m3.2-5.6c.8.2 1.7.3 1.7 1.1a2 2 0 010 .5c-.3 1-1 1.3-2.3 1l.6-2.6m8.7 7.6l-.3 2.1.9.5.9.5.6-7.4a3.6 3.6 0 01-.8-.4l-6.6 4.1.6.3.4.3 1.8-1.4 2.5 1.4zm-1.9-1.7l2.2-1.4-.3 2.4-1.9-1"/>
	<path fill="none" stroke="#000" stroke-width=".1"
		  d="M230.3 205.3c0-1.2 1-2.1 2.2-2.1 1.3 0 2.3.9 2.3 2 0 1.2-1 2.2-2.3 2.2a2.2 2.2 0 01-2.2-2.1z"/>
	<path fill="#ad1519" stroke="#000" stroke-width=".3"
		  d="M255.3 187.1c6.8 0 13 1 16.8 2.6a32 32 0 008.6 2.2c2.6.3 5 .4 7 .2 2.9 0 6.9.8 11 2.6a29.2 29.2 0 018 5l-1.7 1.5-.4 4-4.4 5-2.2 2-5.3 4-2.6.3-.8 2.3-33.7-4-33.8 4-.9-2.3-2.6-.2-5.2-4.2-2.2-1.9-4.4-5-.5-4-1.6-1.5a29.5 29.5 0 018-5c4-1.8 8-2.6 10.9-2.6 2 .2 4.4.1 7-.2a32 32 0 008.6-2.2c4-1.6 9.6-2.6 16.4-2.6z"/>
	<path fill="#c8b100" stroke="#000" stroke-width=".4"
		  d="M255.9 231.6c-12.6 0-23.8-1.5-31.9-4-.6 0-.9-.6-.8-1.2a1.2 1.2 0 01.8-1.2 120 120 0 0131.9-4c12.5.1 23.8 1.6 31.8 4 .6.2.9.7.9 1.2 0 .6-.3 1.1-1 1.3a119 119 0 01-31.7 4"/>
	<path fill="#ad1519"
		  d="M255.8 230a121 121 0 01-29.3-3.4c7.8-2 18-3.2 29.3-3.2a123 123 0 0129.5 3.2c-7.8 2-18.1 3.4-29.5 3.4"/>
	<path fill="none" stroke="#000" stroke-width=".1" d="M256.7 230v-6.7m-1.9 6.7v-6.7"/>
	<path fill="none" stroke="#000" stroke-width=".2" d="M253.1 230v-6.7m-1.7 6.7v-6.7"/>
	<path fill="none" stroke="#000" stroke-width=".3" d="M249.9 230v-6.7m-2.9 6.4v-6.2m1.4 6.2v-6.4"/>
	<path fill="none" stroke="#000" stroke-width=".4"
		  d="M244.3 229.4v-5.7m1.4 5.9v-6m-5 5.4v-4.9m1.2 5V224m1.2 5.4V224"/>
	<path fill="none" stroke="#000" stroke-width=".5" d="M239.4 229v-4.8m-1.1 4.6v-4.5"/>
	<path fill="none" stroke="#000" stroke-width=".6" d="M237 228.7v-4.2m-2.6 3.8V225m1.4 3.5v-3.7"/>
	<path fill="none" stroke="#000" stroke-width=".7" d="M233.1 228v-2.9m-1.2 2.7v-2.4"/>
	<path fill="none" stroke="#000" stroke-width=".8" d="M230.6 227.5v-2m-1.4 1.8v-1.4"/>
	<path fill="none" stroke="#000" stroke-width=".9" d="M227.8 227v-.7"/>
	<path fill="none" stroke="#000" stroke-width=".1" d="M264 229.7v-6.2m-3.2 6.4v-6.6m-2.2 6.6v-6.6"/>
	<path fill="#c8b100" stroke="#000" stroke-width=".4"
		  d="M255.8 221.3a115 115 0 00-32.2 4c.7-.3.6-1-.2-3.2-1-2.6-2.6-2.5-2.6-2.5a130 130 0 0135-4.3c13.8 0 26.2 1.7 35.1 4.3 0 0-1.5-.1-2.5 2.5-.9 2.1-1 3-.3 3.3-8-2.5-19.6-4.1-32.3-4.1"/>
	<path fill="#c8b100" stroke="#000" stroke-width=".4"
		  d="M255.8 215.3a131 131 0 00-35 4.3c-.5.2-1.2 0-1.4-.6a1.1 1.1 0 01.8-1.4c8.9-2.7 21.6-4.4 35.6-4.4 14.1 0 26.9 1.7 35.8 4.4.6.2.9.9.7 1.4-.2.6-.8.8-1.4.6-8.9-2.6-21.3-4.2-35-4.3"/>
	<path fill="none" stroke="#000" stroke-linejoin="round" stroke-width=".4"
		  d="M255.8 230a121 121 0 01-29.3-3.4c7.8-2 18-3.2 29.3-3.2a123 123 0 0129.5 3.2c-7.8 2-18.1 3.4-29.5 3.4z"/>
	<path fill="#fff" stroke="#000" stroke-width=".4"
		  d="M246 218.5c0-.6.5-1.1 1.1-1.1.7 0 1.2.5 1.2 1 0 .6-.5 1.1-1.2 1.1a1.1 1.1 0 01-1-1"/>
	<path fill="#ad1519" stroke="#000" stroke-width=".4"
		  d="M255.9 219.3h-3.4c-.6 0-1.1-.5-1.1-1 0-.6.5-1.1 1-1.1h6.9a1 1 0 011.1 1c0 .6-.5 1.1-1.1 1.1h-3.4"/>
	<path fill="#058e6e" stroke="#000" stroke-width=".4"
		  d="M239 220.2l-2.5.3c-.6 0-1.2-.3-1.2-1a1 1 0 011-1.1l2.4-.3 2.5-.3a1.1 1.1 0 011.2 1c0 .5-.4 1-1 1.1l-2.5.3"/>
	<path fill="#fff" stroke="#000" stroke-width=".4"
		  d="M229.1 220.4c0-.5.5-1 1.1-1a1 1 0 011.2 1c0 .6-.5 1.1-1.2 1.1a1.1 1.1 0 01-1-1"/>
	<path fill="#ad1519" stroke="#000" stroke-width=".4" d="M221.6 222.4l1.3-1.7 3.4.5-2.7 2-2-.8"/>
	<path fill="#058e6e" stroke="#000" stroke-width=".4"
		  d="M272.8 220.2l2.4.3c.6 0 1.2-.3 1.3-1a1 1 0 00-1-1.1l-2.5-.3-2.4-.3c-.7 0-1.2.4-1.3 1 0 .5.4 1 1 1.1l2.5.3"/>
	<path fill="#fff" stroke="#000" stroke-width=".4"
		  d="M263.4 218.5c0-.6.6-1.1 1.2-1.1s1.1.5 1.1 1c0 .6-.5 1.1-1.1 1.1a1.1 1.1 0 01-1.2-1m17 2c0-.6.5-1.1 1-1.1a1 1 0 011.2 1c0 .6-.5 1.1-1.1 1.1a1.1 1.1 0 01-1.1-1"/>
	<path fill="#ad1519" stroke="#000" stroke-width=".4" d="M290 222.4l-1.2-1.7-3.4.5 2.8 2 1.9-.8"/>
	<path fill="none" stroke="#000" stroke-width=".4" d="M225.1 227c8-2.3 18.7-3.6 30.7-3.7 12 0 22.9 1.4 30.8 3.7"/>
	<path fill="#c8b100"
		  d="M230.4 196l1.5 1.1 2.1-3.4a7.9 7.9 0 01-3.8-7.6c.2-4.5 5.6-8.1 12.5-8.1 3.5 0 6.7 1 9 2.5l.2-1.9a18.6 18.6 0 00-9.2-2.3c-8 0-14.1 4.4-14.4 9.8a9.5 9.5 0 003.3 8l-1.2 2"/>
	<path fill="none" stroke="#000" stroke-width=".4"
		  d="M230.4 196l1.5 1.1 2.1-3.4a7.9 7.9 0 01-3.8-7.6c.2-4.5 5.6-8.1 12.5-8.1 3.5 0 6.7 1 9 2.5l.2-1.9a18.6 18.6 0 00-9.2-2.3c-8 0-14.1 4.4-14.4 9.8a9.5 9.5 0 003.3 8l-1.2 2"/>
	<path fill="#c8b100"
		  d="M230.5 196a9.8 9.8 0 01-4.3-7.7c0-3.5 2.2-6.6 5.7-8.6a9.1 9.1 0 00-3.6 6.4 9.5 9.5 0 003.3 8l-1 2"/>
	<path fill="none" stroke="#000" stroke-width=".4"
		  d="M230.5 196a9.8 9.8 0 01-4.3-7.7c0-3.5 2.2-6.6 5.7-8.6a9.1 9.1 0 00-3.6 6.4 9.5 9.5 0 003.3 8l-1 2"/>
	<path fill="#c8b100"
		  d="M206.8 199.6a9.4 9.4 0 01-2.5-6.3c0-1.4.4-2.8 1-4 2.1-4.5 9-7.8 17.1-7.8 2.2 0 4.4.2 6.3.7-.4.5-.8 1-1 1.5a27.2 27.2 0 00-5.3-.5c-7.4 0-13.6 3-15.4 6.8a7.5 7.5 0 00-.8 3.3 7.8 7.8 0 002.9 6l-2.7 4.4-1.5-1.2 1.9-3"/>
	<path fill="none" stroke="#000" stroke-width=".4"
		  d="M206.8 199.6a9.4 9.4 0 01-2.5-6.3c0-1.4.4-2.8 1-4 2.1-4.5 9-7.8 17.1-7.8 2.2 0 4.4.2 6.3.7-.4.5-.8 1-1 1.5a27.2 27.2 0 00-5.3-.5c-7.4 0-13.6 3-15.4 6.8a7.5 7.5 0 00-.8 3.3 7.8 7.8 0 002.9 6l-2.7 4.4-1.5-1.2 1.9-3z"/>
	<path fill="#c8b100"
		  d="M209.5 184.8a11.3 11.3 0 00-4.2 4.4 9.2 9.2 0 00-1 4.1c0 2.4 1 4.6 2.5 6.3l-1.7 2.6a11.1 11.1 0 01-2.4-6.8c0-4.3 2.7-8.1 6.8-10.6"/>
	<path fill="none" stroke="#000" stroke-width=".4"
		  d="M209.5 184.8a11.3 11.3 0 00-4.2 4.4 9.2 9.2 0 00-1 4.1c0 2.4 1 4.6 2.5 6.3l-1.7 2.6a11.1 11.1 0 01-2.4-6.8c0-4.3 2.7-8.1 6.8-10.6z"/>
	<path fill="#c8b100"
		  d="M255.8 175.4c1.7 0 3.3 1.2 3.7 2.8.2 1.4.4 3 .4 4.7v1.2c0 3.6.6 6.7 1.3 8.7l-5.5 5.2-5.5-5.2c.7-2 1.2-5.1 1.3-8.7v-1.2c0-1.7.2-3.3.5-4.7.3-1.6 2-2.8 3.7-2.8"/>
	<path fill="none" stroke="#000" stroke-width=".4"
		  d="M255.8 175.4c1.7 0 3.3 1.2 3.7 2.8.2 1.4.4 3 .4 4.7v1.2c0 3.6.6 6.7 1.3 8.7l-5.5 5.2-5.5-5.2c.7-2 1.2-5.1 1.3-8.7v-1.2c0-1.7.2-3.3.5-4.7.3-1.6 2-2.8 3.7-2.8z"/>
	<path fill="#c8b100"
		  d="M255.8 177a2 2 0 011.9 1.5 30.6 30.6 0 01.4 4.5v1.1c0 3.4.5 6.4 1.2 8.2l-3.6 3.5-3.6-3.5c.7-1.8 1.2-4.8 1.2-8.2V183c0-1.6.2-3.1.5-4.5.2-.8 1-1.4 2-1.4"/>
	<path fill="none" stroke="#000" stroke-width=".4"
		  d="M255.8 177a2 2 0 011.9 1.5 30.6 30.6 0 01.4 4.5v1.1c0 3.4.5 6.4 1.2 8.2l-3.6 3.5-3.6-3.5c.7-1.8 1.2-4.8 1.2-8.2V183c0-1.6.2-3.1.5-4.5.2-.8 1-1.4 2-1.4z"/>
	<path fill="#c8b100"
		  d="M281 196l-1.4 1.1-2.2-3.4a7.9 7.9 0 003.9-7.6c-.2-4.5-5.7-8.1-12.5-8.1a16 16 0 00-9 2.5 24.5 24.5 0 00-.3-1.9 18.6 18.6 0 019.3-2.3c7.9 0 14 4.4 14.4 9.8a9.5 9.5 0 01-3.3 8l1.1 1.9"/>
	<path fill="none" stroke="#000" stroke-width=".4"
		  d="M281 196l-1.4 1.1-2.2-3.4a7.9 7.9 0 003.9-7.6c-.2-4.5-5.7-8.1-12.5-8.1a16 16 0 00-9 2.5 24.5 24.5 0 00-.3-1.9 18.6 18.6 0 019.3-2.3c7.9 0 14 4.4 14.4 9.8a9.5 9.5 0 01-3.3 8l1.1 1.9"/>
	<path fill="#c8b100"
		  d="M280.9 196c2.7-2 4.4-4.7 4.4-7.7 0-3.5-2.3-6.6-5.7-8.6a9 9 0 013.6 7.3c0 2.8-1.3 5.4-3.3 7.2l1 1.9"/>
	<path fill="none" stroke="#000" stroke-width=".4"
		  d="M280.9 196c2.7-2 4.4-4.7 4.4-7.7 0-3.5-2.3-6.6-5.7-8.6a9 9 0 013.6 7.3c0 2.8-1.3 5.4-3.3 7.2l1 1.9"/>
	<path fill="#c8b100"
		  d="M304.7 199.6a9.3 9.3 0 001.5-10.3c-2.2-4.5-9-7.8-17.2-7.8a28.4 28.4 0 00-6.3.7c.5.5.8 1 1.1 1.5a27.1 27.1 0 015.2-.5c7.5 0 13.7 3 15.5 6.8.5 1 .8 2.1.8 3.3a7.8 7.8 0 01-3 6l2.8 4.4 1.4-1.2-1.8-3"/>
	<path fill="none" stroke="#000" stroke-width=".4"
		  d="M304.7 199.6a9.3 9.3 0 001.5-10.3c-2.2-4.5-9-7.8-17.2-7.8a28.4 28.4 0 00-6.3.7c.5.5.8 1 1.1 1.5a27.1 27.1 0 015.2-.5c7.5 0 13.7 3 15.5 6.8.5 1 .8 2.1.8 3.3a7.8 7.8 0 01-3 6l2.8 4.4 1.4-1.2-1.8-3z"/>
	<path fill="#c8b100"
		  d="M302 184.8a11.3 11.3 0 014.2 4.4 9.3 9.3 0 011 4.1c0 2.4-1 4.6-2.5 6.3l1.6 2.6a11.1 11.1 0 002.5-6.8c0-4.3-2.7-8.1-6.9-10.6"/>
	<path fill="none" stroke="#000" stroke-width=".4"
		  d="M302 184.8a11.3 11.3 0 014.2 4.4 9.3 9.3 0 011 4.1c0 2.4-1 4.6-2.5 6.3l1.6 2.6a11.1 11.1 0 002.5-6.8c0-4.3-2.7-8.1-6.9-10.6z"/>
	<path fill="#fff" d="M253.8 193.5c0-1 .9-1.9 2-1.9 1 0 1.9.9 1.9 1.9a1.9 1.9 0 01-2 1.8 1.9 1.9 0 01-2-1.8"/>
	<path fill="none" stroke="#000" stroke-width=".4"
		  d="M253.8 193.5c0-1 .9-1.9 2-1.9 1 0 1.9.9 1.9 1.9a1.9 1.9 0 01-2 1.8 1.9 1.9 0 01-2-1.8z"/>
	<path fill="#fff" stroke="#000" stroke-width=".4"
		  d="M253.8 189.8a1.9 1.9 0 012-1.8 1.9 1.9 0 011.9 1.9 1.9 1.9 0 01-2 1.8 1.9 1.9 0 01-2-1.8m.5-4c0-.8.7-1.4 1.5-1.4.9 0 1.6.6 1.6 1.5 0 .8-.7 1.4-1.6 1.4-.8 0-1.5-.6-1.5-1.4m.4-3.6c0-.5.5-1 1.1-1a1 1 0 011.2 1c0 .6-.5 1.1-1.2 1.1a1.1 1.1 0 01-1-1m.1-3.1c0-.5.4-.9 1-.9s.8.4.8.9-.4.8-.9.8-.9-.3-.9-.8"/>
	<path fill="#c8b100" stroke="#000" stroke-width=".4"
		  d="M255.9 204.6l1.3.2a5 5 0 004.8 6.4 5 5 0 004.8-3.3s.4-1.7.6-1.7c.2 0 .2 1.9.3 1.9.3 2.4 2.5 4 5 4a4.9 4.9 0 005-5.4l1.5-1.5.9 2a4.3 4.3 0 00-.5 2 4.7 4.7 0 004.8 4.6 5 5 0 004-2l1-1.3v1.6c0 1.5.7 3 2.2 3.2 0 0 1.8.1 4.1-1.7a28 28 0 003.7-3.4l.2 1.9s-2 3-4 4.2c-1.2.7-3 1.4-4.4 1.1-1.5-.2-2.6-1.4-3.1-2.7a7.2 7.2 0 01-3.6 1 7 7 0 01-6.5-4 7.5 7.5 0 01-11-.3 7.4 7.4 0 01-5 1.9 7.4 7.4 0 01-6.1-3.1 7.3 7.3 0 01-6.1 3 7.4 7.4 0 01-5-1.8 7.5 7.5 0 01-11 .3 7 7 0 01-6.5 4 7.1 7.1 0 01-3.6-1c-.6 1.3-1.6 2.5-3.1 2.8-1.4.2-3.2-.5-4.3-1.2-2.2-1.2-4.1-4.3-4.1-4.3l.2-1.8s1.3 1.5 3.6 3.4c2.4 1.8 4.2 1.7 4.2 1.7 1.5-.2 2.2-1.7 2.2-3.2v-1.6l1 1.3a4.9 4.9 0 004 2c2.6 0 4.8-2 4.8-4.6 0-.7-.2-1.4-.5-2l.8-2 1.6 1.5v.6a4.9 4.9 0 005 4.8c2.5 0 4.7-1.7 5-4 0 0 0-1.9.2-1.9s.7 1.8.7 1.7a5 5 0 004.8 3.3 4.9 4.9 0 004.8-6.4l1.3-.2"/>
	<path fill="#fff" stroke="#000" stroke-width=".4"
		  d="M290.5 210.8c.3-.8 0-1.7-.6-1.8-.6-.2-1.4.3-1.6 1.2-.3.8 0 1.7.5 1.8.6.2 1.4-.3 1.7-1.2m-22-4.2c.2-.9-.2-1.6-.9-1.7-.6-.1-1.2.5-1.3 1.4-.1 1 .3 1.7 1 1.8.6 0 1.2-.6 1.3-1.5m-25.4 0c-.1-.9.3-1.6 1-1.7.6-.1 1.2.5 1.3 1.4.1 1-.3 1.7-1 1.8-.6 0-1.2-.6-1.3-1.5m-22 4.3c-.2-.9 0-1.7.7-2 .6-.1 1.3.4 1.6 1.3.3.8 0 1.7-.6 1.9-.6.1-1.3-.4-1.6-1.2"/>
	<path fill="#c8b100" stroke="#000" stroke-width=".4"
		  d="M230.8 196.3a5.5 5.5 0 012.4 3s0-.2.7-.6c.6-.3 1.1-.3 1.1-.3l-.2 1.4c-.1.3-.1 1.4-.4 2.3a7.8 7.8 0 01-.6 1.8 2 2 0 00-1.6-.5 2 2 0 00-1.4 1s-.7-.6-1.2-1.4l-1.2-2.2-.7-1.2h1.1c.7.1 1 .3 1 .3a5.2 5.2 0 011-3.7"/>
	<path fill="#c8b100" stroke="#000" stroke-width=".4"
		  d="M231.3 206.7a1.9 1.9 0 01-.7-1.1 1.7 1.7 0 01.2-1.3l-1.9-.7c-.7-.2-2-.2-2.4-.2h-1.2l.3.6.5.7a5.4 5.4 0 00-3 2.2 5.6 5.6 0 003.6 1l-.2.8v.7l1-.4c.4-.2 1.6-.6 2.2-1 .9-.6 1.6-1.3 1.6-1.3m2.9-.5a1.8 1.8 0 00.2-1.2 1.8 1.8 0 00-.7-1.1s.7-.8 1.5-1.3l2.3-1 1-.4v.6l-.2.9a5.6 5.6 0 013.7 1 5.4 5.4 0 01-3.1 2.1 7.1 7.1 0 00.8 1.4h-1.2c-.4 0-1.7 0-2.4-.3-1-.2-2-.7-2-.7"/>
	<path fill="#ad1519" stroke="#000" stroke-width=".4"
		  d="M230.3 205.3c0-1.2 1-2.1 2.2-2.1 1.3 0 2.3.9 2.3 2 0 1.2-1 2.2-2.3 2.2a2.2 2.2 0 01-2.2-2.1"/>
	<path fill="#c8b100" stroke="#000" stroke-width=".4"
		  d="M255.8 192.9a6 6 0 012 3.9s.2-.3 1-.6 1.2-.1 1.2-.1l-.5 1.4c-.2.4-.4 1.6-.9 2.6a8.8 8.8 0 01-1 1.8 2.3 2.3 0 00-1.8-.7c-.6 0-1.3.3-1.7.7 0 0-.6-.7-1-1.8-.5-1-.7-2.2-.9-2.6l-.6-1.4s.6-.1 1.3.2c.8.2 1 .5 1 .5a6 6 0 012-4"/>
	<path fill="#c8b100" stroke="#000" stroke-width=".4"
		  d="M254.2 204.6a2 2 0 01-.6-1.3c0-.6.2-1 .6-1.4 0 0-1-.7-2-1.1-.8-.4-2.2-.6-2.6-.7l-1.3-.3.1.7.4 1c-1.5 0-2.9.8-3.9 1.8a6.3 6.3 0 004 1.8l-.5 1-.2.6 1.4-.2 2.6-.7 2-1.2m3.3 0c.3-.3.5-.8.5-1.3a2 2 0 00-.5-1.4s1-.7 2-1.1c.8-.4 2.2-.6 2.6-.7l1.3-.3-.2.7a7.6 7.6 0 01-.4 1 6 6 0 014 1.8 6.3 6.3 0 01-4 1.8l.4 1 .2.6-1.3-.2-2.6-.7a13 13 0 01-2-1.2m23.5-8.4a5.5 5.5 0 00-2.4 3.1l-.7-.6c-.6-.3-1.1-.3-1.1-.3l.2 1.4.3 2.3.7 1.8a2 2 0 011.6-.5 2 2 0 011.4 1l1.2-1.4 1.2-2.2.7-1.2h-1.2c-.7.1-.9.3-.9.3a5.2 5.2 0 00-1-3.7"/>
	<path fill="#c8b100" stroke="#000" stroke-width=".4"
		  d="M280.5 206.7c.3-.3.6-.7.7-1.1a1.8 1.8 0 00-.2-1.3l1.8-.7c.8-.2 2-.2 2.5-.2h1.1l-.2.6-.6.7a5.4 5.4 0 013.1 2.2 5.6 5.6 0 01-3.6 1l.2.8v.7l-1-.4-2.3-1a11.5 11.5 0 01-1.5-1.3m-2.9-.5a1.8 1.8 0 01-.3-1.2c.1-.5.4-.9.7-1.1 0 0-.7-.8-1.5-1.3-.6-.4-1.8-.9-2.2-1l-1-.4v.6c0 .5.2.9.2.9a5.6 5.6 0 00-3.7 1c.7 1 1.8 1.8 3 2.1l-.4.8a4 4 0 00-.3.6h1.2c.4 0 1.7 0 2.4-.3 1-.2 1.9-.7 1.9-.7"/>
	<path fill="#ad1519" stroke="#000" stroke-width=".4"
		  d="M277 205.3c0-1.2 1-2.1 2.2-2.1 1.3 0 2.3.9 2.3 2 0 1.2-1 2.2-2.3 2.2a2.2 2.2 0 01-2.2-2.1m24.8 4.6c-.5-.5-1.6-.4-2.4.3-.8.7-1 1.7-.5 2.2s1.6.5 2.4-.2c.8-.7 1-1.7.5-2.3"/>
	<path fill="#c8b100" stroke="#000" stroke-width=".4"
		  d="M298.7 211.3c0-.4.4-.8.7-1.1.8-.7 2-.8 2.4-.3l.2.3s1.2-2.1 2.5-2.9 3.6-.5 3.6-.5a3 3 0 00-3.1-3c-1 0-2 .5-2.5 1.2l-.3-1.1s-1.4.3-2 1.8c-.6 1.7 0 4 0 4s-.3-1-.8-1.7a8.5 8.5 0 00-2.6-1.7l-1.4-.8v1.5a8.4 8.4 0 00-4 .5 5 5 0 002.7 2.3l-.8.8-.5.5 1.4.2c.4 0 1.8.3 2.7.2a15.7 15.7 0 001.8-.2m-85.6 0a2.3 2.3 0 00-.8-1.1c-.8-.7-1.9-.8-2.4-.3a1.1 1.1 0 00-.2.3s-1-2.1-2.4-2.9-3.6-.5-3.6-.5a3 3 0 013-3c1 0 2 .5 2.6 1.2l.2-1.1s1.4.3 2 1.9c.7 1.6 0 3.9 0 3.9s.4-1 .9-1.7 1.8-1.4 2.5-1.7l1.4-.8a7.4 7.4 0 000 1.5 8.4 8.4 0 014 .5 5 5 0 01-2.7 2.3l.9.8.4.5-1.3.2c-.4 0-1.9.3-2.7.2a15.7 15.7 0 01-1.8-.2"/>
	<path fill="#ad1519" stroke="#000" stroke-width=".4"
		  d="M210 210c.5-.6 1.5-.5 2.3.2.9.7 1 1.7.6 2.2-.6.6-1.6.5-2.4-.2-.9-.7-1.1-1.7-.6-2.3m43.7-6.6c0-1.2 1-2.1 2.3-2.1s2.2.9 2.2 2-1 2.2-2.3 2.2a2.2 2.2 0 01-2.2-2.1"/>
	<path fill="#005bbf" stroke="#000" stroke-width=".3"
		  d="M251.2 171.3c0-2.4 2-4.3 4.6-4.3 2.5 0 4.5 2 4.5 4.3a4.4 4.4 0 01-4.5 4.3 4.4 4.4 0 01-4.6-4.3"/>
	<path fill="#c8b100" stroke="#000" stroke-width=".3"
		  d="M254.6 159.3v2.3H252v2.3h2.5v6.8h-3.2l-.2.6c0 .6.2 1.2.4 1.7h8.3a4.1 4.1 0 00.4-1.7l-.2-.6h-3V164h2.4v-2.3H257v-2.3h-2.5z"/>
	<path fill="#ccc"
		  d="M256.2 352.6a87.4 87.4 0 01-37.8-8.8 24.2 24.2 0 01-13.7-21.6V288h102.8v34c0 9.5-5.4 17.7-13.7 21.8a86.4 86.4 0 01-37.6 8.7"/>
	<path fill="none" stroke="#000" stroke-width=".5"
		  d="M256.2 352.6a87.4 87.4 0 01-37.8-8.8 24.2 24.2 0 01-13.7-21.6V288h102.8v34c0 9.5-5.4 17.7-13.7 21.8a86.4 86.4 0 01-37.6 8.7z"/>
	<path fill="#ccc" d="M256 288h51.5v-57H256v57z"/>
	<path fill="none" stroke="#000" stroke-width=".5" d="M256 288h51.5v-57H256v57z"/>
	<path fill="#ad1519" d="M256 322.1a25 25 0 01-25.6 24.4c-14.2 0-25.8-11-25.8-24.4V288H256v34"/>
	<path fill="#c8b100" stroke="#000" stroke-width=".5" d="M215.8 342.3c1.7.8 3.9 2.2 6.2 2.8l-.1-58.3h-6v55.4z"/>
	<path fill="#c8b100" stroke="#000" stroke-linejoin="round" stroke-width=".5"
		  d="M204.5 321.7a26 26 0 006 16v-50.6h-5.9v34.6z"/>
	<path fill="#c7b500" stroke="#000" stroke-width=".5" d="M227.3 346.4c2.4.2 4.1.2 6 0v-59.6h-6v59.6z"/>
	<path fill="#c8b100" stroke="#000" stroke-width=".5" d="M238.6 345a20.3 20.3 0 006.2-2.6v-55.6h-6l-.2 58.3z"/>
	<path fill="#ad1519" d="M204.6 288H256v-57h-51.4v57z"/>
	<path fill="none" stroke="#000" stroke-width=".5" d="M204.6 288H256v-57h-51.4v57z"/>
	<path fill="#c8b100" stroke="#000" stroke-width=".5" d="M250.4 337.1c2.5-2.2 4.9-7.3 5.7-13l.2-37.3h-6V337z"/>
	<path fill="none" stroke="#000" stroke-width=".5"
		  d="M256 322.1a25 25 0 01-25.6 24.4c-14.2 0-25.8-11-25.8-24.4V288H256v34"/>
	<path fill="#ad1519" d="M307.6 288v34a25.1 25.1 0 01-25.8 24.4c-14.2 0-25.8-11-25.8-24.4v-34h51.6"/>
	<path fill="none" stroke="#000" stroke-width=".5"
		  d="M307.6 288v34a25.1 25.1 0 01-25.8 24.4c-14.2 0-25.8-11-25.8-24.4v-34h51.6"/>
	<path fill="#c8b100"
		  d="M265.4 313.7l.1.6c0 .6-.5 1.1-1.2 1.1-.6 0-1.2-.5-1.2-1.1 0-.2 0-.4.2-.5h-1.7a2.7 2.7 0 001.9 3v4.1h1.7v-4.1a2.7 2.7 0 001.8-1.7h4.7v-1.4h-6.3m23.1 0v1.4h-4.2a2.7 2.7 0 01-.3.6l5 5.6-1.4 1-4.9-5.6-.2.1v9.3h-1.8v-9.3l-.2-.1-5 5.6-1.4-1 5.1-5.7a2.3 2.3 0 01-.2-.5h-4.4v-1.4h14zm2.8 0v1.4h4.8c.2.8.9 1.4 1.7 1.7v4.1h1.8v-4.1a2.7 2.7 0 002-2.5l-.2-.6h-1.6a1.2 1.2 0 01-1 1.7c-.8 0-1.3-.5-1.3-1.1l.1-.5h-6.3m-7 23.5a16.6 16.6 0 003.8-1l.9 1.4a18.8 18.8 0 01-4.6 1.3 2.8 2.8 0 01-2.8 2 2.8 2.8 0 01-2.7-2 18.7 18.7 0 01-4.8-1.3l.8-1.5c1.3.6 2.7 1 4.2 1.2a2.7 2.7 0 011.6-1.5v-7.1h1.8v7.1a3 3 0 011.7 1.4zm-11.8-2.4l-.9 1.5a17.8 17.8 0 01-3.9-3.3 3 3 0 01-2.6-.5 2.5 2.5 0 01-.4-3.7l.2-.2a16.3 16.3 0 01-1.4-5.1h1.8a14 14 0 001.1 4.4 3.1 3.1 0 011.5.1l4.4-4.8 1.3 1-4.4 4.9a2.5 2.5 0 010 3 16.2 16.2 0 003.2 2.7zm-6.5-5a1.2 1.2 0 011.7-.2 1 1 0 010 1.6 1.3 1.3 0 01-1.6.2 1.1 1.1 0 01-.1-1.6zm-2.2-4.8l-1.8-.4-.3-4.6 1.8-.6v2.6c0 1 0 2 .2 3zm1.4-5.7l1.8.4v2.3c0-.8.3 2.3.3 2.3l-1.8.6-.3-2.9v-2.7zm6 14.6a16.7 16.7 0 005.1 2.7l.4-1.7a14.6 14.6 0 01-4.3-2.1l-1.2 1m-1 1.6a18.6 18.6 0 005.2 2.7l-1.3 1.3a20 20 0 01-4.2-2.2l.4-1.8m2.3-10l1.7.7 3.2-3.5-1-1.5-3.9 4.2m-1.3-1l-1-1.5 3.1-3.5 1.7.7-3.8 4.3m19.3 10.5l.9 1.5a17.8 17.8 0 003.8-3.3c1 .3 2 .1 2.7-.5a2.5 2.5 0 00.3-3.7l-.1-.2c.7-1.6 1.2-3.3 1.3-5.1h-1.7a14.2 14.2 0 01-1.2 4.4 3.1 3.1 0 00-1.5.1l-4.3-4.8-1.3 1 4.3 4.9a2.5 2.5 0 00.1 3 16 16 0 01-3.3 2.7zm6.5-5a1.2 1.2 0 00-1.7-.2 1.1 1.1 0 00-.1 1.6c.4.5 1.2.6 1.7.1a1 1 0 000-1.6zm2.2-4.8l1.8-.5.2-4.5-1.7-.6v2.6l-.3 3zm-1.5-5.7l-1.8.4v2.3c0-.8-.3 2.3-.3 2.3l1.9.6.2-2.9v-2.7m-6 14.6a16.8 16.8 0 01-5 2.7l-.5-1.7a14.6 14.6 0 004.3-2.1l1.3 1m.9 1.6a18.6 18.6 0 01-5.2 2.7l1.3 1.3a20 20 0 004.3-2.2l-.4-1.8m-2.4-10l-1.7.7-3.1-3.5 1-1.5 3.8 4.2m1.4-1l1-1.5-3.2-3.5-1.7.7 3.8 4.3m-21.4-9.3l.5 1.7h4.8l.6-1.7h-5.9m22.5 0l-.5 1.7h-4.8l-.5-1.7h5.9m-12.4 23.3c0-.6.5-1.1 1.2-1.1.6 0 1.1.5 1.1 1.1 0 .7-.5 1.2-1.2 1.2s-1.2-.6-1.2-1.2zm2-8.2l1.8-.5V325l-1.8-.5v5.6m-1.8 0l-1.8-.5V325l1.8-.5v5.6"/>
	<path fill="#c8b100"
		  d="M261.6 313.8c.2-1 1-1.7 1.9-2V306h1.7v5.7c.9.3 1.6.9 1.8 1.7h4.7v.3h-6.3a1.2 1.2 0 00-1-.6 1.2 1.2 0 00-1.1.6h-1.7m13 0v-.3h4.4l.2-.4-5.4-6 1.3-1 5.3 5.8h.3v-8h1.7v7.9h.3l5.2-5.8 1.3 1-5.2 5.9.3.6h4.2v.3h-13.9zm23 0a1.2 1.2 0 011.1-.6c.5 0 .9.2 1 .6h1.7a2.7 2.7 0 00-1.8-2V306h-1.8v5.7a2.7 2.7 0 00-1.8 1.7h-4.6v.3h6.3m-32.2-16l6.5 7.3 1.3-1-6.5-7.3.3-.6h4.7v-1.6h-4.7a2.8 2.8 0 00-2.7-1.9 2.7 2.7 0 00-2.8 2.7c0 1.1.8 2.1 1.9 2.5v5.6h1.7v-5.6h.3zm34 .1v5.6h-1.7v-5.6a2.6 2.6 0 01-.4-.2L291 305l-1.3-1 6.5-7.5a2.4 2.4 0 01-.1-.3h-4.8v-1.6h4.8a2.8 2.8 0 012.6-1.9c1.6 0 2.8 1.2 2.8 2.7 0 1.2-.8 2.2-2 2.5zm-17 0v3.4h-1.8V298a2.7 2.7 0 01-1.8-1.7h-4.3v-1.6h4.3a2.8 2.8 0 012.6-1.9c1.3 0 2.3.8 2.7 1.9h4.3v1.6h-4.3a2.7 2.7 0 01-1.7 1.7zm-19 4.1l-1.8.5v4.6l1.8.5V302m1.8 0l1.8.5v4.6l-1.8.5V302m32.5 0l-1.8.5v4.6l1.8.5V302m1.8 0l1.8.5v4.6l-1.8.5V302m-27.3 1l1.7-.8 3.2 3.5-1 1.5-3.9-4.2m-1.3 1l-1 1.5 3 3.5 1.8-.7-3.8-4.3m19.7-1.2l-1.8-.7-3 3.5 1 1.5 3.8-4.3m1.3 1l1 1.6-3 3.5-1.8-.7 3.8-4.3m-21.7 9.6l.5-1.7h4.8l.6 1.7h-5.9m-7-18.1c0-.6.5-1.2 1.1-1.2.7 0 1.2.5 1.2 1.2s-.5 1.1-1.2 1.1c-.6 0-1.2-.5-1.2-1.1zm12.8.8l-.5 1.7h-4.8l-.5-1.7h5.8m0-1.7l-.5-1.7h-4.8l-.5 1.7h5.8m16.7 19l-.5-1.7h-4.8l-.5 1.7h5.9m4.6-18.1c0-.6.6-1.2 1.2-1.2.7 0 1.2.5 1.2 1.2s-.5 1.1-1.2 1.1c-.6 0-1.2-.5-1.2-1.1zm-17.2 0c0-.6.6-1.2 1.2-1.2s1.2.5 1.2 1.2-.5 1.1-1.2 1.1c-.6 0-1.2-.5-1.2-1.1zm6.7.8l.6 1.7h4.8l.5-1.7H287m0-1.6l.5-1.8h4.9l.5 1.7H287m-6.3 5.4l-1.8.5v4.6l1.8.5v-5.6m1.7 0l1.8.5v4.6l-1.8.5v-5.6"/>
	<path fill="none" stroke="#c8b100" stroke-width=".3"
		  d="M284.2 337.3a16.6 16.6 0 004-1l.8 1.4a18.8 18.8 0 01-4.6 1.3 2.8 2.8 0 01-2.8 2 2.8 2.8 0 01-2.7-2 18.7 18.7 0 01-4.8-1.3l.8-1.5c1.3.6 2.7 1 4.2 1.1a2.7 2.7 0 011.6-1.4v-7.2h1.8v7.2a2.8 2.8 0 011.7 1.4zm-5-21.7a2.4 2.4 0 01-.2-.5h-4.4v-1.6h4.4c0-.2 0-.3.2-.4l-5.4-6 1.3-1 5.3 5.8a2.2 2.2 0 01.3-.1V304h1.7v7.7l.3.1 5.2-5.9 1.3 1-5.2 6 .3.6h4.2v1.6h-4.2l-.3.6 5 5.6-1.4 1-4.9-5.6-.2.1v9.3h-1.8v-9.3l-.2-.1-5 5.6-1.4-1 5.1-5.7m-13.7-17.7l6.5 7.2 1.3-1-6.5-7.3.3-.6h4.7v-1.7h-4.7a2.8 2.8 0 00-2.7-1.8 2.7 2.7 0 00-2.8 2.7c0 1.1.8 2.1 1.9 2.5v5.5h1.7V298h.3zm7 37l-.9 1.5a17.8 17.8 0 01-3.9-3.3c-.9.3-1.9.1-2.6-.5a2.5 2.5 0 01-.3-3.7v-.2a16.3 16.3 0 01-1.3-5.1h1.8a14 14 0 001.1 4.4 3.1 3.1 0 011.5.1l4.4-4.8 1.3 1-4.3 4.9a2.5 2.5 0 01-.1 3 16.2 16.2 0 003.3 2.7zm-9-14v-4a2.7 2.7 0 01-2-2.6c0-1.2.9-2.2 2-2.6v-5.6h1.7v5.7c.9.2 1.5.9 1.8 1.7h4.7v1.6H267a2.7 2.7 0 01-1.8 1.7v4.1h-1.7m2.5 9a1.2 1.2 0 011.7-.2c.5.4.5 1.1 0 1.6a1.3 1.3 0 01-1.6.1 1.1 1.1 0 01-.1-1.6zm-2.2-4.9l-1.8-.4-.3-4.5 1.8-.6v2.6c0 1 0 2 .3 3zm1.5-5.6l1.7.4a64.3 64.3 0 00.3 4.6l-1.8.6-.3-2.9v-2.7zm5.9 14.6a16.7 16.7 0 005.1 2.7l.4-1.7a14.6 14.6 0 01-4.3-2.2l-1.2 1.2m-1 1.5a18.6 18.6 0 005.3 2.7l-1.4 1.2a20 20 0 01-4.2-2.1l.4-1.8"/>
	<path fill="none" stroke="#c8b100" stroke-width=".3"
		  d="M272.6 325.4l1.7.8 3.2-3.5-1-1.5-3.9 4.2m-1.3-1l-1-1.5 3.1-3.5 1.7.7-3.8 4.3m-8.2-10.1c0-.7.6-1.2 1.2-1.2.7 0 1.2.5 1.2 1.2 0 .6-.5 1.1-1.2 1.1-.6 0-1.2-.5-1.2-1.1zm27.5 20.6l.8 1.5a17.8 17.8 0 004-3.3c.8.3 1.8.1 2.6-.5a2.5 2.5 0 00.3-3.7l-.2-.2c.8-1.6 1.2-3.3 1.4-5.1h-1.7a14.2 14.2 0 01-1.2 4.4 3.1 3.1 0 00-1.5.1l-4.3-4.8-1.4 1 4.4 4.9a2.5 2.5 0 00.1 3 16 16 0 01-3.3 2.7zm9-14v-4.1a2.7 2.7 0 002-2.5 2.7 2.7 0 00-2-2.6v-5.6h-1.8v5.7c-.8.2-1.5.9-1.8 1.7h-4.7v1.6h4.8a2.7 2.7 0 001.7 1.7v4.1h1.8zm-2.5 9a1.2 1.2 0 00-1.7-.2 1.1 1.1 0 00-.1 1.6c.4.5 1.1.6 1.7.1a1 1 0 000-1.6zm2.2-4.8l1.8-.4.2-4.6-1.7-.6v2.6l-.3 3zm-1.5-5.7l-1.8.4v2.3c0-.8-.3 2.3-.3 2.3l1.9.6.2-2.9v-2.7m1.8-21.5v5.5h-1.8V298a2.4 2.4 0 01-.4-.2L291 305l-1.3-1.1 6.5-7.4a2.5 2.5 0 01-.1-.3h-4.8v-1.7h4.8a2.8 2.8 0 012.6-1.8c1.6 0 2.8 1.2 2.8 2.7 0 1.2-.8 2.2-2 2.5zm-17.2 0v3.4h-1.7v-3.4a2.7 2.7 0 01-1.8-1.7h-4.3v-1.7h4.3a2.8 2.8 0 012.6-1.8c1.3 0 2.3.8 2.7 1.8h4.3v1.7h-4.3a2.7 2.7 0 01-1.7 1.7zm9.5 36a16.8 16.8 0 01-5.2 2.8l-.4-1.7a14.6 14.6 0 004.3-2.1l1.3 1m.9 1.6a18.6 18.6 0 01-5.2 2.7l1.3 1.3a20 20 0 004.3-2.2l-.4-1.8M263.5 302l-1.8.5v4.6l1.8.5V302m1.8 0l1.8.5v4.6l-1.8.5V302m32.5 0l-1.8.5v4.6l1.8.5V302"/>
	<path fill="none" stroke="#c8b100" stroke-width=".3"
		  d="M299.6 302l1.8.5v4.6l-1.8.5V302m-9.2 23.4l-1.7.8-3.1-3.5 1-1.5 3.8 4.2m1.3-1l1-1.5-3-3.5-1.8.7 3.8 4.3m-19.4-21.5l1.7-.7 3.1 3.5-1 1.5-3.8-4.3M271 304l-1 1.5 3 3.5 1.8-.8-3.8-4.2m19.7-1.2l-1.8-.7-3 3.5 1 1.5 3.8-4.3m1.3 1l1 1.5-3 3.5-1.8-.7 3.8-4.2m-21.7 9.6l.5-1.7h4.8l.6 1.7h-5.9m0 1.6l.5 1.7h4.8l.6-1.7h-5.9m-7-19.7c0-.7.5-1.2 1.1-1.2.7 0 1.2.5 1.2 1.2s-.5 1.1-1.2 1.1c-.6 0-1.2-.5-1.2-1.1zm12.8.8l-.5 1.7h-4.8l-.5-1.7h5.8m0-1.7l-.5-1.7h-4.8l-.5 1.7h5.8m21.4 19.8c0-.6.5-1.2 1.2-1.2s1.2.5 1.2 1.2c0 .6-.5 1.1-1.2 1.1s-1.2-.5-1.2-1.1zm-4.7-.8l-.5-1.7h-4.8l-.5 1.7h5.9m0 1.6l-.6 1.7h-4.8l-.5-1.7h5.9m-12.4 23.3c0-.6.5-1.1 1.2-1.1.6 0 1.1.5 1.1 1.1 0 .7-.5 1.2-1.2 1.2s-1.2-.5-1.2-1.2zm2-8.2l1.8-.5V325l-1.8-.5v5.6m-1.8 0l-1.8-.5V325l1.8-.5v5.6m16.8-34.8c0-.7.6-1.2 1.2-1.2.7 0 1.2.5 1.2 1.2s-.5 1.1-1.2 1.1c-.6 0-1.2-.5-1.2-1.1zm-17.2 0c0-.7.6-1.2 1.2-1.2.7 0 1.2.5 1.2 1.2s-.5 1.1-1.2 1.1c-.6 0-1.2-.5-1.2-1.1zm6.7.8l.6 1.7h4.8l.5-1.7H287m0-1.7l.6-1.7h4.8l.5 1.7H287m-6.3 5.4l-1.8.5v4.5l1.8.5V300m1.7 0l1.8.5v4.5l-1.8.5V300"/>
	<path fill="#058e6e"
		  d="M278.8 314.3a2.7 2.7 0 012.8-2.6c1.6 0 2.8 1.1 2.8 2.6a2.7 2.7 0 01-2.8 2.7 2.7 2.7 0 01-2.8-2.7"/>
	<path fill="#db4446"
		  d="M282.3 245v-.6l.1-.4s-1.6.2-2.5 0a6.3 6.3 0 01-2.5-1.4c-.8-.7-1.1-1-1.7-1.2-1.4-.2-2.4.4-2.4.4s1 .4 1.8 1.4a5 5 0 002 1.5c.6.2 2.7 0 3.3.1l1.9.2"/>
	<path fill="none" stroke="#000" stroke-width=".4"
		  d="M282.3 245v-.6l.1-.4s-1.6.2-2.5 0a6.3 6.3 0 01-2.5-1.4c-.8-.7-1.1-1-1.7-1.2-1.4-.2-2.4.4-2.4.4s1 .4 1.8 1.4a5 5 0 002 1.5c.6.2 2.7 0 3.3.1l1.9.2z"/>
	<path fill="#ed72aa" stroke="#000" stroke-width=".4"
		  d="M290 242.7v1.4c.1.7-.2 1.3 0 1.7l.2 1c.2.2.3.9.3.9l-.8-.6-.6-.4v1c.1.3.3 1 .6 1.3.3.3.9 1 1 1.4.3.4.2 1.4.2 1.4s-.4-.7-.9-.9l-1.3-.6s.9.8.9 1.6c0 .7-.4 1.6-.4 1.6s-.3-.7-.8-1.1l-1.2-1s.5 1.2.5 2v2.6s-.5-.7-1-1l-1-.8c0-.2.5.7.6 1.2 0 .5.3 2.4 2 4.8 1 1.4 2.4 3.8 5.6 3 3.2-.8 2-5 1.3-7-.6-2-1-4.3-1-5 .1-.8.7-3 .6-3.5a8.5 8.5 0 01.1-3.4c.4-1.3.8-1.9 1-2.4l.5-1.4v-1.4l.8 1.5.1 1.5s.1-1.1 1-1.7c1-.6 2-1.2 2.2-1.5l.4-.5s-.1 2-.7 2.7l-1.8 2.2s.8-.3 1.3-.3h.9s-.7.5-1.5 1.6c-.8 1.2-.5 1.3-1 2.3-.7 1-1.1 1-1.9 1.6-1 1-.5 4.5-.3 5 .1.5 2 4.9 2 6 .1 1 .3 3.3-1.6 4.9-1.2 1-3.1 1-3.6 1.2-.4.3-1.3 1.2-1.3 3s.7 2.1 1.2 2.6c.5.4 1.2.2 1.3.5l.5.8c.2.2.4.5.3.8 0 .4-1 1.3-1.2 2-.3.6-1 2.2-1 2.5 0 .2 0 1 .3 1.4 0 0 .9 1 .2 1.3-.4.1-.8-.3-1-.2l-1 .4c-.3 0-.3-.2-.4-.8l-.1-.7c-.3 0-.4.2-.4.5 0 .2 0 .9-.3.9s-.6-.5-.9-.6c-.2 0-.8-.2-.9-.5 0-.3.4-.9.8-1 .4 0 .8-.3.5-.5-.2-.2-.5-.2-.7 0s-.8 0-.8-.3.1-.7 0-.8c0-.2-.4-.6.2-.9.6-.3.8.3 1.4.2.6-.1 1-.3 1.1-.7.2-.3.2-1-.2-1.5s-.8-.5-1-.8l-.3-1v2.4l-.8-.9c-.3-.3-.6-1.4-.6-1.4v1.4c0 .4.4.7.2.9-.1.1-.8-.8-1-.9-.2-.1-.8-.6-1-1l-.6-1.5c0-.2-.2-1.4 0-1.6l.4-1.2h-1.4c-.8 0-1.3-.2-1.6.3-.3.5-.2 1.6.2 3 .4 1.3.6 2 .5 2.2a4 4 0 01-.8 1l-1-.1c-.2-.1-.5-.3-1.2-.3h-1.4c-.3 0-1-.4-1.2-.3-.3 0-.8.3-.7.7.2.6-.2.8-.5.7l-1-.2c-.3-.1-.9 0-.8-.4 0-.5.2-.5.4-.8.2-.3.3-.5 0-.5h-.7c-.2.2-.5.6-.7.5-.3-.2-.5-.5-.5-1.1 0-.7-.7-1.3 0-1.3.6 0 1.4.5 1.5.2.2-.4 0-.5-.3-.8-.3-.3-.7-.5-.3-.8l.8-.6c.2-.1.4-.8.7-.6.7.3 0 .7.7 1.4.6.7 1 1 2.1.9 1-.1 1.4-.3 1.4-.6l-.2-1 .2-1s-.5.3-.6.6l-.5.8v-2.1l-.2-.9-.3 1-.1 1s-.7-.5-.5-1.5v-2.1c.3-.4.9-1.7 2.2-1.8h2.8l2.1-.3s-3-1.5-3.7-2c-.7-.5-1.8-1.7-2.1-2.2-.4-.6-.7-1.6-.7-1.6s-.5 0-1 .3a5.3 5.3 0 00-1.3 1l-.7 1v-2s-.4 1.3-1 1.8l-1.5 1.2v-1l.2-1s-.5.8-1.2 1-1.9 0-2 .5c0 .5.2 1.1 0 1.4-.1.4-.5.6-.5.6s-.4-.4-.8-.4-.7.2-.7.2-.4-.4-.2-.7c0-.3.7-.7.5-.9-.1-.1-.6.1-.9.2-.3.2-.9.3-.8-.2 0-.4.2-.7 0-1-.1-.3 0-.6.2-.6.2-.1 1.2 0 1.3-.2 0-.3-.3-.5-.9-.7-.6-.1-.9-.5-.6-.8l.6-.6c.1-.3.2-.8.7-.6.6.3.5.9 1 1 .6.3 2 0 2.3-.1l1.5-1 1.7-1.2-1.1-.8-1-1.1a8.8 8.8 0 00-2-.7c-.5 0-1.8-.5-1.8-.5l.8-.3c.2-.2.7-.6.9-.6h.3-1.5c-.3-.2-1-.6-1.3-.6h-.9s.8-.4 1.4-.5l1.2-.1s-1-.3-1.3-.6l-.6-1c-.2-.2-.3-.6-.6-.6s-.9.4-1.2.3c-.3 0-.5-.2-.6-.7v-.5c-.2-.3-.7-.8-.2-1h1.4c.1-.2-.5-.7-.8-1-.4-.1-1-.4-.7-.7l.8-.6c.2-.3.4-1 .8-.7.3.2.9 1.3 1.1 1.2.3-.1.4-.9.3-1.2 0-.3 0-1 .3-.9.3 0 .5.5 1 .5.4 0 1.1-.1 1 .2 0 .4-.3.8-.6 1.1a1.6 1.6 0 00-.2 1.6 4 4 0 001.2 1.5c.4.3 1.3.5 1.8.8.6.4 1.9 1.4 2.3 1.5l.9.3s.5-.2 1.1-.2c.7 0 2.2.1 2.8-.1.6-.3 1.3-.7 1.1-1.2-.2-.5-1.5-1-1.4-1.4.1-.4.6-.4 1.4-.5.8 0 1.8.2 2-1 .2-1 .3-1.6-.8-1.9-1.1-.2-2-.3-2.1-1-.2-.8-.4-1-.2-1.3.2-.2.6-.3 1.5-.3.8-.1 1.7-.1 2-.3.2-.2.3-.7.6-1l1.5-.3s1.5.7 3 1.7c1.2 1 2.3 2.3 2.3 2.3"/>
	<path d="M279.3 242l-.2-.7-.1-.3s.9 0 .9.2c0 .3-.3.3-.4.4 0 .2-.2.3-.2.3"/>
	<path fill="none" stroke="#000" stroke-width=".3"
		  d="M279.3 242l-.2-.7-.1-.3s.9 0 .9.2c0 .3-.3.3-.4.4 0 .2-.2.3-.2.3z"/>
	<path d="M283.4 240.5v-.5s.7 0 1.1.3c.6.4 1 1 1 1-.2.2-.6-.2-1-.3h-.4c-.2 0-.3 0-.4-.2v-.3h-.3"/>
	<path fill="none" stroke="#000" stroke-width=".1"
		  d="M283.4 240.5v-.5s.7 0 1.1.3c.6.4 1 1 1 1-.2.2-.6-.2-1-.3h-.4c-.2 0-.3 0-.4-.2v-.3h-.3z"/>
	<path fill="none" stroke="#000" stroke-width=".3" d="M289 246.7l-.4-.7a8 8 0 01-.2-.5"/>
	<path fill="#db4446" d="M267.9 241.8s.5.3.8.3l.9.1s.2-.5.1-1c-.2-1.2-1.3-1.4-1.3-1.4s.3.7.1 1c-.2.6-.6 1-.6 1"/>
	<path fill="none" stroke="#000" stroke-width=".4"
		  d="M267.9 241.8s.5.3.8.3l.9.1s.2-.5.1-1c-.2-1.2-1.3-1.4-1.3-1.4s.3.7.1 1c-.2.6-.6 1-.6 1z"/>
	<path fill="#db4446" d="M265.5 242.8s-.4-.8-1.3-.7c-1 .1-1.6.9-1.6.9h1.3c.4.3.5 1 .5 1l.7-.6.4-.6"/>
	<path fill="none" stroke="#000" stroke-width=".4"
		  d="M265.5 242.8s-.4-.8-1.3-.7c-1 .1-1.6.9-1.6.9h1.3c.4.3.5 1 .5 1l.7-.6.4-.6z"/>
	<path fill="#db4446" d="M264.4 246s-.8.1-1.2.6c-.5.5-.4 1.5-.4 1.5s.5-.6 1-.6l1.2.2-.3-.9c0-.3-.3-.8-.3-.8"/>
	<path fill="none" stroke="#000" stroke-width=".4"
		  d="M264.4 246s-.8.1-1.2.6c-.5.5-.4 1.5-.4 1.5s.5-.6 1-.6l1.2.2-.3-.9c0-.3-.3-.8-.3-.8z"/>
	<path d="M279.3 245.9l.4-.5.3.5h-.7"/>
	<path fill="none" stroke="#000" stroke-width=".3" d="M279.3 245.9l.4-.5.3.5h-.7"/>
	<path d="M280.2 245.9l.4-.6.4.5h-.8"/>
	<path fill="none" stroke="#000" stroke-width=".3" d="M280.2 245.9l.4-.6.4.5h-.8"/>
	<path d="M279.8 242.5l.8.3-.7.4-.1-.7"/>
	<path fill="none" stroke="#000" stroke-width=".3" d="M279.8 242.5l.8.3-.7.4-.1-.7"/>
	<path d="M280.8 242.8l.8.2-.6.4-.2-.6"/>
	<path fill="none" stroke="#000" stroke-width=".3" d="M280.8 242.8l.8.2-.6.4-.2-.6"/>
	<path fill="none" stroke="#000" stroke-width=".4"
		  d="M275.2 249.2s-.9.3-1.2.7c-.3.6-.3 1.1-.3 1.1s.7-.6 1.6-.3l1.3.3c.4 0 1.3-.4 1.3-.4s-.7.9-.6 1.5c0 .6.2.9.1 1.2 0 .7-.5 1.6-.5 1.6l1-.3a4.9 4.9 0 001.8-.9l1-1s-.2 1 0 1.5l.2 1.7s.4-.5.8-.7c.2 0 .8-.4 1-.7l.3-1s0 .8.4 1.3c.3.4.7 1.8.7 1.8s.3-.9.6-1.3c.3-.3.7-.8.7-1v-1l.4 1m-11.7.6s.5-.9 1-1.2l1.2-.8 1-.4m1 5.3l1.4-.8a4.2 4.2 0 001.2-1.2"/>
	<path fill="#db4446" d="M267 256.4s-.4-.5-1.2-.3c-.7 0-1.2 1-1.2 1l1-.2c.4.2.6.5.6.5l.5-.4.3-.6"/>
	<path fill="none" stroke="#000" stroke-width=".4"
		  d="M267 256.4s-.4-.5-1.2-.3c-.7 0-1.2 1-1.2 1l1-.2c.4.2.6.5.6.5l.5-.4.3-.6z"/>
	<path fill="#db4446" d="M266.2 259.4s-.7 0-1.2.4c-.6.4-.6 1.2-.6 1.2s.5-.4 1-.3l.8.2.1-.6c.1-.4-.1-.9-.1-.9"/>
	<path fill="none" stroke="#000" stroke-width=".4"
		  d="M266.2 259.4s-.7 0-1.2.4c-.6.4-.6 1.2-.6 1.2s.5-.4 1-.3l.8.2.1-.6c.1-.4-.1-.9-.1-.9z"/>
	<path fill="#db4446" d="M267.6 262.2s0 .8.4 1.3c.4.6 1.2.6 1.2.6l-.3-.8c-.1-.4.3-.7.3-.7s-.4-.4-.7-.4h-.8"/>
	<path fill="none" stroke="#000" stroke-width=".4"
		  d="M267.6 262.2s0 .8.4 1.3c.4.6 1.2.6 1.2.6l-.3-.8c-.1-.4.3-.7.3-.7s-.4-.4-.7-.4h-.8zm17.1 1.4s2.1 1.3 2 2.4c0 1-1.1 2.4-1.1 2.4"/>
	<path fill="#db4446" d="M275.2 269.4s-.5-.6-1.3-.6c-.7 0-1.5.7-1.5.7s1 0 1.2.2l.4.7.6-.3.6-.7"/>
	<path fill="none" stroke="#000" stroke-width=".4"
		  d="M275.2 269.4s-.5-.6-1.3-.6c-.7 0-1.5.7-1.5.7s1 0 1.2.2l.4.7.6-.3.6-.7z"/>
	<path fill="#db4446" d="M273 272.3s-1-.1-1.5.4-.4 1.4-.4 1.4.6-.7 1-.6c.6 0 1.2.3 1.2.3l-.2-.8a14 14 0 00-.2-.7"/>
	<path fill="none" stroke="#000" stroke-width=".4"
		  d="M273 272.3s-1-.1-1.5.4-.4 1.4-.4 1.4.6-.7 1-.6c.6 0 1.2.3 1.2.3l-.2-.8a14 14 0 00-.2-.7z"/>
	<path fill="#db4446" d="M275 275.4s-.5.6-.1 1.1c.3.6 1 .8 1 .8s-.2-.4-.1-.8.7-.8.7-.8l-1.5-.3"/>
	<path fill="none" stroke="#000" stroke-width=".4"
		  d="M275 275.4s-.5.6-.1 1.1c.3.6 1 .8 1 .8s-.2-.4-.1-.8.7-.8.7-.8l-1.5-.3z"/>
	<path fill="#db4446" d="M287.7 276.6s-.8-.2-1.3 0c-.5.3-.8 1.5-.8 1.5s.7-.6 1.3-.6l1 .3v-.8a2.8 2.8 0 00-.2-.4"/>
	<path fill="none" stroke="#000" stroke-width=".4"
		  d="M287.7 276.6s-.8-.2-1.3 0c-.5.3-.8 1.5-.8 1.5s.7-.6 1.3-.6l1 .3v-.8a2.8 2.8 0 00-.2-.4z"/>
	<path fill="#db4446" d="M288.1 279.7s-.6.6-.4 1.2a7.3 7.3 0 00.6 1s0-.7.3-1c.3-.3 1-.3 1-.3l-.7-.6-.8-.3"/>
	<path fill="none" stroke="#000" stroke-width=".4"
		  d="M288.1 279.7s-.6.6-.4 1.2a7.3 7.3 0 00.6 1s0-.7.3-1c.3-.3 1-.3 1-.3l-.7-.6-.8-.3z"/>
	<path fill="#db4446" d="M291.3 280.6s-.3.8.3 1.3c.6.6 1.1.6 1.1.6s-.5-.8-.3-1.3c.1-.4.5-.7.5-.7l-.8-.2-.8.3"/>
	<path fill="none" stroke="#000" stroke-width=".4"
		  d="M291.3 280.6s-.3.8.3 1.3c.6.6 1.1.6 1.1.6s-.5-.8-.3-1.3c.1-.4.5-.7.5-.7l-.8-.2-.8.3z"/>
	<path fill="#ffd691" stroke="#000" stroke-width=".5"
		  d="M258.7 337.5c2.1.6 3.2 2.2 3.2 4 0 2.5-2.3 4.3-5.4 4.3-3 0-5.6-1.8-5.6-4.2 0-1.9 1-4 3.2-4 0 0 0-.3-.3-.6l-.6-.7h1.3l.7.5.6-.7c.3-.4.7-.6.7-.6l.6.7.3.6s.4-.4.8-.5l.9-.3-.3.7-.1.8"/>
	<path fill="#058e6e" stroke="#000" stroke-width=".5"
		  d="M256 348.5s-4-2.8-5.8-3.1c-2.3-.5-4.8-.1-5.9-.2l1.9 1.5a11 11 0 003.5 2c3.3.8 6.3-.2 6.3-.2m1.2.2s2.6-2.7 5.3-3c3.3-.5 5.4.2 6.6.5 0 0-1 .5-1.6 1-.5.3-2 1.5-4.2 1.6-2.2 0-4.7-.3-5.1-.2l-1 .1"/>
	<path fill="#ad1519" stroke="#000" stroke-width=".5"
		  d="M256.4 345.4a5.2 5.2 0 010-7.6 5.2 5.2 0 011.7 3.8 5.2 5.2 0 01-1.7 3.8"/>
	<path fill="#058e6e" stroke="#000" stroke-width=".5"
		  d="M255.4 351s.6-1.6.7-3l-.2-2.2h.8s.4 1.2.4 2.2l-.2 2.5-.7.1-.8.3"/>
	<path fill="#fff" d="M307 203.4c0-.6.4-1 1-1 .7 0 1.2.4 1.2 1s-.5 1.1-1.2 1.1a1 1 0 01-1-1"/>
	<path fill="none" stroke="#000" stroke-width=".4"
		  d="M307 203.4c0-.6.4-1 1-1 .7 0 1.2.4 1.2 1s-.5 1.1-1.2 1.1a1 1 0 01-1-1z"/>
	<path fill="#fff" d="M308.4 200.7c0-.6.6-1 1.2-1a1 1 0 011 1c0 .6-.4 1-1 1a1.1 1.1 0 01-1.2-1"/>
	<path fill="none" stroke="#000" stroke-width=".4"
		  d="M308.4 200.7c0-.6.6-1 1.2-1a1 1 0 011 1c0 .6-.4 1-1 1a1.1 1.1 0 01-1.2-1z"/>
	<path fill="#fff" d="M309.5 197.6c0-.6.5-1 1-1a1 1 0 011.2 1c0 .6-.5 1-1.1 1a1.1 1.1 0 01-1.1-1"/>
	<path fill="none" stroke="#000" stroke-width=".4"
		  d="M309.5 197.6c0-.6.5-1 1-1a1 1 0 011.2 1c0 .6-.5 1-1.1 1a1.1 1.1 0 01-1.1-1z"/>
	<path fill="#fff" d="M309.6 194.2c0-.6.5-1 1.1-1a1 1 0 011.1 1c0 .6-.5 1-1 1-.7 0-1.2-.4-1.2-1"/>
	<path fill="none" stroke="#000" stroke-width=".4"
		  d="M309.6 194.2c0-.6.5-1 1.1-1a1 1 0 011.1 1c0 .6-.5 1-1 1-.7 0-1.2-.4-1.2-1z"/>
	<path fill="#fff" d="M308.8 190.9c0-.6.5-1 1-1a1 1 0 011.2 1c0 .6-.5 1-1.1 1a1.1 1.1 0 01-1.1-1"/>
	<path fill="none" stroke="#000" stroke-width=".4"
		  d="M308.8 190.9c0-.6.5-1 1-1a1 1 0 011.2 1c0 .6-.5 1-1.1 1a1.1 1.1 0 01-1.1-1z"/>
	<path fill="#fff" d="M307 187.8c0-.5.5-1 1.2-1a1 1 0 011 1c0 .6-.4 1.1-1 1.1a1.1 1.1 0 01-1.2-1"/>
	<path fill="none" stroke="#000" stroke-width=".4"
		  d="M307 187.8c0-.5.5-1 1.2-1a1 1 0 011 1c0 .6-.4 1.1-1 1.1a1.1 1.1 0 01-1.2-1z"/>
	<path fill="#fff" d="M304.7 185.4c0-.6.5-1 1.2-1a1 1 0 011 1c0 .5-.4 1-1 1a1.1 1.1 0 01-1.2-1"/>
	<path fill="none" stroke="#000" stroke-width=".4"
		  d="M304.7 185.4c0-.6.5-1 1.2-1a1 1 0 011 1c0 .5-.4 1-1 1a1.1 1.1 0 01-1.2-1z"/>
	<path fill="#fff" d="M302 183.3c0-.6.6-1 1.2-1s1.1.4 1.1 1-.5 1-1.1 1a1 1 0 01-1.1-1"/>
	<path fill="none" stroke="#000" stroke-width=".4"
		  d="M302 183.3c0-.6.6-1 1.2-1s1.1.4 1.1 1-.5 1-1.1 1a1 1 0 01-1.1-1z"/>
	<path fill="#fff" d="M298.9 181.6c0-.6.5-1 1-1 .7 0 1.2.4 1.2 1s-.5 1-1.1 1a1.1 1.1 0 01-1.1-1"/>
	<path fill="none" stroke="#000" stroke-width=".4"
		  d="M298.9 181.6c0-.6.5-1 1-1 .7 0 1.2.4 1.2 1s-.5 1-1.1 1a1.1 1.1 0 01-1.1-1z"/>
	<path fill="#fff" d="M295.5 180.4c0-.6.5-1 1.2-1a1 1 0 011 1c0 .6-.4 1-1 1a1.1 1.1 0 01-1.2-1"/>
	<path fill="none" stroke="#000" stroke-width=".4"
		  d="M295.5 180.4c0-.6.5-1 1.2-1a1 1 0 011 1c0 .6-.4 1-1 1a1.1 1.1 0 01-1.2-1z"/>
	<path fill="#fff" d="M291.8 179.8c0-.6.5-1.1 1.1-1.1.7 0 1.2.5 1.2 1 0 .7-.5 1.1-1.2 1.1a1.1 1.1 0 01-1-1"/>
	<path fill="none" stroke="#000" stroke-width=".4"
		  d="M291.8 179.8c0-.6.5-1.1 1.1-1.1.7 0 1.2.5 1.2 1 0 .7-.5 1.1-1.2 1.1a1.1 1.1 0 01-1-1z"/>
	<path fill="#fff" d="M288.3 179.6c0-.6.5-1 1.1-1a1 1 0 011.2 1c0 .6-.5 1-1.2 1a1.1 1.1 0 01-1-1"/>
	<path fill="none" stroke="#000" stroke-width=".4"
		  d="M288.3 179.6c0-.6.5-1 1.1-1a1 1 0 011.2 1c0 .6-.5 1-1.2 1a1.1 1.1 0 01-1-1z"/>
	<path fill="#fff" d="M284.9 179.7c0-.6.5-1 1-1 .7 0 1.2.4 1.2 1s-.5 1-1.1 1a1.1 1.1 0 01-1.1-1"/>
	<path fill="none" stroke="#000" stroke-width=".4"
		  d="M284.9 179.7c0-.6.5-1 1-1 .7 0 1.2.4 1.2 1s-.5 1-1.1 1a1.1 1.1 0 01-1.1-1z"/>
	<path fill="#fff" d="M281.4 179.7c0-.6.5-1 1.1-1 .6 0 1.1.4 1.1 1s-.5 1-1 1a1.1 1.1 0 01-1.2-1"/>
	<path fill="none" stroke="#000" stroke-width=".4"
		  d="M281.4 179.7c0-.6.5-1 1.1-1 .6 0 1.1.4 1.1 1s-.5 1-1 1a1.1 1.1 0 01-1.2-1z"/>
	<path fill="#fff" stroke="#000" stroke-width=".4"
		  d="M283.1 182.7c0-.6.5-1.1 1.1-1.1.7 0 1.2.5 1.2 1 0 .6-.5 1.1-1.1 1.1a1.1 1.1 0 01-1.2-1m.7 3.2c0-.6.5-1 1.2-1 .6 0 1 .4 1 1s-.4 1-1 1a1.1 1.1 0 01-1.2-1m.2 3.3c0-.6.5-1 1-1a1 1 0 011.2 1c0 .6-.5 1-1.1 1a1.1 1.1 0 01-1.1-1m-1 3c0-.6.4-1.1 1-1.1a1 1 0 011.2 1c0 .7-.5 1.1-1.1 1.1a1.1 1.1 0 01-1.2-1m-1.9 2.7c0-.6.5-1 1.2-1 .6 0 1 .4 1 1s-.4 1-1 1a1.1 1.1 0 01-1.2-1"/>
	<path fill="#fff" d="M278.8 177.6c0-.5.5-1 1.1-1 .6 0 1.1.4 1.1 1s-.5 1.1-1 1.1a1.1 1.1 0 01-1.2-1"/>
	<path fill="none" stroke="#000" stroke-width=".4"
		  d="M278.8 177.6c0-.5.5-1 1.1-1 .6 0 1.1.4 1.1 1s-.5 1.1-1 1.1a1.1 1.1 0 01-1.2-1z"/>
	<path fill="#fff" d="M275.7 176c0-.7.5-1.1 1.1-1.1.7 0 1.2.4 1.2 1s-.5 1.1-1.1 1.1a1.1 1.1 0 01-1.2-1"/>
	<path fill="none" stroke="#000" stroke-width=".4"
		  d="M275.7 176c0-.7.5-1.1 1.1-1.1.7 0 1.2.4 1.2 1s-.5 1.1-1.1 1.1a1.1 1.1 0 01-1.2-1z"/>
	<path fill="#fff" d="M272.3 175c0-.7.5-1.1 1.2-1.1.6 0 1 .4 1 1s-.4 1-1 1a1.1 1.1 0 01-1.2-1"/>
	<path fill="none" stroke="#000" stroke-width=".4"
		  d="M272.3 175c0-.7.5-1.1 1.2-1.1.6 0 1 .4 1 1s-.4 1-1 1a1.1 1.1 0 01-1.2-1z"/>
	<path fill="#fff" d="M268.8 174.3c0-.6.5-1 1.1-1 .7 0 1.2.4 1.2 1s-.5 1-1.2 1a1.1 1.1 0 01-1-1"/>
	<path fill="none" stroke="#000" stroke-width=".4"
		  d="M268.8 174.3c0-.6.5-1 1.1-1 .7 0 1.2.4 1.2 1s-.5 1-1.2 1a1.1 1.1 0 01-1-1z"/>
	<path fill="#fff" d="M265.4 174.4c0-.6.5-1 1.1-1 .6 0 1.1.4 1.1 1s-.5 1-1.1 1a1.1 1.1 0 01-1.1-1"/>
	<path fill="none" stroke="#000" stroke-width=".4"
		  d="M265.4 174.4c0-.6.5-1 1.1-1 .6 0 1.1.4 1.1 1s-.5 1-1.1 1a1.1 1.1 0 01-1.1-1z"/>
	<path fill="#fff" d="M261.8 175c0-.6.5-1 1.1-1a1 1 0 011.1 1c0 .6-.5 1-1 1a1.1 1.1 0 01-1.2-1"/>
	<path fill="none" stroke="#000" stroke-width=".4"
		  d="M261.8 175c0-.6.5-1 1.1-1a1 1 0 011.1 1c0 .6-.5 1-1 1a1.1 1.1 0 01-1.2-1z"/>
	<path fill="#fff" d="M258.5 176.1c0-.6.5-1 1.1-1 .6 0 1.1.4 1.1 1s-.5 1-1.1 1a1.1 1.1 0 01-1.1-1"/>
	<path fill="none" stroke="#000" stroke-width=".4"
		  d="M258.5 176.1c0-.6.5-1 1.1-1 .6 0 1.1.4 1.1 1s-.5 1-1.1 1a1.1 1.1 0 01-1.1-1z"/>
	<path fill="#fff" d="M202.3 203.4c0-.6.5-1 1.1-1a1 1 0 011.1 1c0 .6-.5 1.1-1 1.1a1 1 0 01-1.2-1"/>
	<path fill="none" stroke="#000" stroke-width=".4"
		  d="M202.3 203.4c0-.6.5-1 1.1-1a1 1 0 011.1 1c0 .6-.5 1.1-1 1.1a1 1 0 01-1.2-1z"/>
	<path fill="#fff" d="M200.8 200.7c0-.6.5-1 1-1 .7 0 1.2.4 1.2 1s-.5 1-1.1 1a1 1 0 01-1.1-1"/>
	<path fill="none" stroke="#000" stroke-width=".4"
		  d="M200.8 200.7c0-.6.5-1 1-1 .7 0 1.2.4 1.2 1s-.5 1-1.1 1a1 1 0 01-1.1-1z"/>
	<path fill="#fff" d="M199.7 197.6c0-.6.5-1 1.2-1a1 1 0 011 1c0 .6-.4 1-1 1a1.1 1.1 0 01-1.2-1"/>
	<path fill="none" stroke="#000" stroke-width=".4"
		  d="M199.7 197.6c0-.6.5-1 1.2-1a1 1 0 011 1c0 .6-.4 1-1 1a1.1 1.1 0 01-1.2-1z"/>
	<path fill="#fff" d="M199.6 194.2c0-.6.5-1 1.1-1 .7 0 1.2.4 1.2 1s-.5 1-1.2 1c-.6 0-1-.4-1-1"/>
	<path fill="none" stroke="#000" stroke-width=".4"
		  d="M199.6 194.2c0-.6.5-1 1.1-1 .7 0 1.2.4 1.2 1s-.5 1-1.2 1c-.6 0-1-.4-1-1z"/>
	<path fill="#fff" d="M200.4 190.9c0-.6.5-1 1.2-1 .6 0 1 .4 1 1s-.4 1-1 1a1.1 1.1 0 01-1.2-1"/>
	<path fill="none" stroke="#000" stroke-width=".4"
		  d="M200.4 190.9c0-.6.5-1 1.2-1 .6 0 1 .4 1 1s-.4 1-1 1a1.1 1.1 0 01-1.2-1z"/>
	<path fill="#fff" d="M202.2 187.8c0-.5.5-1 1-1a1 1 0 011.2 1c0 .6-.5 1.1-1.1 1.1a1.1 1.1 0 01-1.1-1"/>
	<path fill="none" stroke="#000" stroke-width=".4"
		  d="M202.2 187.8c0-.5.5-1 1-1a1 1 0 011.2 1c0 .6-.5 1.1-1.1 1.1a1.1 1.1 0 01-1.1-1z"/>
	<path fill="#fff" d="M204.5 185.4c0-.6.5-1 1.1-1 .6 0 1.1.4 1.1 1 0 .5-.5 1-1.1 1-.6 0-1.1-.4-1.1-1"/>
	<path fill="none" stroke="#000" stroke-width=".4"
		  d="M204.5 185.4c0-.6.5-1 1.1-1 .6 0 1.1.4 1.1 1 0 .5-.5 1-1.1 1-.6 0-1.1-.4-1.1-1z"/>
	<path fill="#fff" d="M207.2 183.3c0-.6.5-1 1-1 .7 0 1.2.4 1.2 1s-.5 1-1.1 1a1 1 0 01-1.2-1"/>
	<path fill="none" stroke="#000" stroke-width=".4"
		  d="M207.2 183.3c0-.6.5-1 1-1 .7 0 1.2.4 1.2 1s-.5 1-1.1 1a1 1 0 01-1.2-1z"/>
	<path fill="#fff" d="M210.3 181.6c0-.6.5-1 1.2-1a1 1 0 011 1c0 .6-.4 1-1 1a1.1 1.1 0 01-1.2-1"/>
	<path fill="none" stroke="#000" stroke-width=".4"
		  d="M210.3 181.6c0-.6.5-1 1.2-1a1 1 0 011 1c0 .6-.4 1-1 1a1.1 1.1 0 01-1.2-1z"/>
	<path fill="#fff" d="M213.7 180.4c0-.6.5-1 1-1 .7 0 1.2.4 1.2 1s-.5 1-1.1 1a1.1 1.1 0 01-1.1-1"/>
	<path fill="none" stroke="#000" stroke-width=".4"
		  d="M213.7 180.4c0-.6.5-1 1-1 .7 0 1.2.4 1.2 1s-.5 1-1.1 1a1.1 1.1 0 01-1.1-1z"/>
	<path fill="#fff" d="M217.4 179.8c0-.6.5-1.1 1.1-1.1a1 1 0 011.1 1c0 .7-.5 1.1-1.1 1.1a1.1 1.1 0 01-1.1-1"/>
	<path fill="none" stroke="#000" stroke-width=".4"
		  d="M217.4 179.8c0-.6.5-1.1 1.1-1.1a1 1 0 011.1 1c0 .7-.5 1.1-1.1 1.1a1.1 1.1 0 01-1.1-1z"/>
	<path fill="#fff" d="M220.9 179.6c0-.6.5-1 1.1-1 .6 0 1.1.4 1.1 1s-.5 1-1 1a1.1 1.1 0 01-1.2-1"/>
	<path fill="none" stroke="#000" stroke-width=".4"
		  d="M220.9 179.6c0-.6.5-1 1.1-1 .6 0 1.1.4 1.1 1s-.5 1-1 1a1.1 1.1 0 01-1.2-1z"/>
	<path fill="#fff" d="M224.3 179.7c0-.6.5-1 1.2-1a1 1 0 011 1c0 .6-.4 1-1 1a1.1 1.1 0 01-1.2-1"/>
	<path fill="none" stroke="#000" stroke-width=".4"
		  d="M224.3 179.7c0-.6.5-1 1.2-1a1 1 0 011 1c0 .6-.4 1-1 1a1.1 1.1 0 01-1.2-1z"/>
	<path fill="#fff" d="M227.8 179.7c0-.6.5-1 1.1-1 .6 0 1.2.4 1.2 1s-.5 1-1.2 1a1.1 1.1 0 01-1.1-1"/>
	<path fill="none" stroke="#000" stroke-width=".4"
		  d="M227.8 179.7c0-.6.5-1 1.1-1 .6 0 1.2.4 1.2 1s-.5 1-1.2 1a1.1 1.1 0 01-1.1-1z"/>
	<path fill="#fff" stroke="#000" stroke-width=".4"
		  d="M226 182.7c0-.6.6-1.1 1.2-1.1s1.1.5 1.1 1c0 .6-.5 1.1-1.1 1.1a1.1 1.1 0 01-1.1-1m-.7 3.2c0-.6.5-1 1-1 .7 0 1.2.4 1.2 1s-.5 1-1.1 1c-.6 0-1.1-.4-1.1-1m-.2 3.3c0-.6.5-1 1.2-1 .6 0 1 .4 1 1s-.4 1-1 1a1.1 1.1 0 01-1.2-1m1 3c0-.6.6-1.1 1.2-1.1a1 1 0 011.1 1c0 .7-.5 1.1-1.1 1.1a1.1 1.1 0 01-1.1-1m1.9 2.7c0-.6.5-1 1-1 .7 0 1.2.4 1.2 1s-.5 1-1.1 1a1.1 1.1 0 01-1.1-1"/>
	<path fill="#fff" d="M230.4 177.6c0-.5.5-1 1.1-1 .7 0 1.2.4 1.2 1s-.5 1.1-1.2 1.1a1.1 1.1 0 01-1-1"/>
	<path fill="none" stroke="#000" stroke-width=".4"
		  d="M230.4 177.6c0-.5.5-1 1.1-1 .7 0 1.2.4 1.2 1s-.5 1.1-1.2 1.1a1.1 1.1 0 01-1-1z"/>
	<path fill="#fff" d="M233.5 176c0-.7.5-1.1 1.1-1.1.6 0 1.1.4 1.1 1s-.5 1.1-1 1.1a1.1 1.1 0 01-1.2-1"/>
	<path fill="none" stroke="#000" stroke-width=".4"
		  d="M233.5 176c0-.7.5-1.1 1.1-1.1.6 0 1.1.4 1.1 1s-.5 1.1-1 1.1a1.1 1.1 0 01-1.2-1z"/>
	<path fill="#fff" d="M236.9 175c0-.7.5-1.1 1-1.1s1.2.4 1.2 1-.5 1-1.1 1a1.1 1.1 0 01-1.1-1"/>
	<path fill="none" stroke="#000" stroke-width=".4"
		  d="M236.9 175c0-.7.5-1.1 1-1.1s1.2.4 1.2 1-.5 1-1.1 1a1.1 1.1 0 01-1.1-1z"/>
	<path fill="#fff" d="M240.4 174.3c0-.6.5-1 1.1-1a1 1 0 011.1 1c0 .6-.5 1-1 1a1.1 1.1 0 01-1.2-1"/>
	<path fill="none" stroke="#000" stroke-width=".4"
		  d="M240.4 174.3c0-.6.5-1 1.1-1a1 1 0 011.1 1c0 .6-.5 1-1 1a1.1 1.1 0 01-1.2-1z"/>
	<path fill="#fff" d="M243.8 174.4c0-.6.5-1 1.2-1a1 1 0 011 1c0 .6-.4 1-1 1a1 1 0 01-1.2-1"/>
	<path fill="none" stroke="#000" stroke-width=".4"
		  d="M243.8 174.4c0-.6.5-1 1.2-1a1 1 0 011 1c0 .6-.4 1-1 1a1 1 0 01-1.2-1z"/>
	<path fill="#fff" d="M247.4 175c0-.6.5-1 1.1-1a1 1 0 011.2 1c0 .6-.5 1-1.2 1a1.1 1.1 0 01-1-1"/>
	<path fill="none" stroke="#000" stroke-width=".4"
		  d="M247.4 175c0-.6.5-1 1.1-1a1 1 0 011.2 1c0 .6-.5 1-1.2 1a1.1 1.1 0 01-1-1z"/>
	<path fill="#fff" d="M250.7 176.1c0-.6.5-1 1.2-1 .6 0 1 .4 1 1s-.4 1-1 1a1.1 1.1 0 01-1.2-1"/>
	<path fill="none" stroke="#000" stroke-width=".4"
		  d="M250.7 176.1c0-.6.5-1 1.2-1 .6 0 1 .4 1 1s-.4 1-1 1a1.1 1.1 0 01-1.2-1z"/>
	<path fill="#c8b100" stroke="#000" stroke-width=".5"
		  d="M222.3 244.1h-1v-1h-1.6v3.9h1.6v2.6h-3.5v7.5h1.9v15.2h-3.8v7.8h29v-7.8h-3.7v-15.2h1.9v-7.5h-3.6V247h1.7v-3.8h-1.7v1h-1v-1H237v1h-1.2v-1h-1.6v3.8h1.6v2.6h-3.5v-8.3h1.9v-3.8h-1.9v1h-1v-1h-1.6v1h-1v-1h-1.9v3.8h2v8.3H225V247h1.7v-3.8H225v1h-1v-1h-1.8v1zm-6.4 36h29m-29-1.9h29m-29-1.9h29m-29-1.9h29m-29-2.1h29m-25.2-1.7h21.5m-21.5-1.9h21.5m-21.5-2h21.5m-21.5-2h21.5m-21.5-1.9h21.5m-21.5-1.9h21.5m-21.5-1.9h21.5m-23.4-1.9H243m-25.3-1.8H243m-25.3-2H243m-25.3-1.8H243m-21.8-2h18.2m-10.9-1.8h3.6m-3.5-2h3.5m-3.5-1.8h3.5m-3.5-1.9h3.5m-5.4-2.4h7.3m-12.8 8h3.8m-5.4-2.3h7m-7 34.8v-1.9m0-1.9v-1.9m-2 2v1.8m3.6 0v-1.9m2 3.8v-1.9m0-1.9v-1.9m0-2.1v-1.7m0-1.9v-2m-2 7.7v-2.1m-3.5 2.1v-2.1m7.3 0v2.1m1.7-2.1v-1.7m-5.5-1.9v2m3.8-2v2m3.5-2v2m-1.8-2v-2m1.8-2v2m0-5.8v2m-1.8-3.9v2m1.8-3.8v1.8m-3.5-1.9v2m-3.8-2v2m-1.6-3.8v1.9m3.5-2v2m3.6-2v2m1.9-3.8v1.9m-3.6-2v2m-3.8-2v2m-1.6-3.8v1.9m7-2v2m-3.5-5.7v1.9m16.3-2h-3.7m5.4-2.3H234m7 34.8v-1.9m0-1.9v-1.9m2 2v1.8m-3.6 0v-1.9m-1.9 3.8v-1.9m0-1.9v-1.9m0-2.1v-1.7m0-1.9v-2m2 7.7v-2.1m3.5 2.1v-2.1m-7.3 0v2.1m-1.7-2.1v-1.7m5.4-1.9v2m-3.7-2v2m-3.6-2v2m1.9-2v-2m-1.9-2v2m0-5.8v2m1.9-3.9v2m-1.9-3.8v1.8m3.6-1.9v2m3.8-2v2m1.6-3.8v1.9m-3.5-2v2m-3.6-2v2m-1.9-3.8v1.9m3.6-2v2m3.7-2v2m1.7-3.8v1.9m-7.1-2v2m3.6-5.7v1.9m-7.4 19.1v-2m0-5.8V259m0 5.7v-1.9m0-5.7v-1.8m0-2v-1.8m0-3.8v-2m0-1.8V242m-9 5h3.8m3.6-5.7h3.5m3.6 5.7h3.7"/>
	<path fill="#c8b100" stroke="#000" stroke-width=".5"
		  d="M235.3 280.1v-5c0-1-.5-3.8-5-3.8-4.3 0-4.7 2.9-4.7 3.8v5h9.7z"/>
	<path fill="#c8b100" stroke="#000" stroke-width=".5"
		  d="M227.2 275.4l-2.3-.3c0-1 .2-2.3 1-2.8l2 1.7c-.2.2-.7.9-.7 1.4zm6.4 0l2.4-.3c0-1-.3-2.3-1-2.8l-2 1.7c.1.2.6.9.6 1.4zm-2.4-2.4l1.2-2.1a5.6 5.6 0 00-2-.5c-.6 0-1.5.2-2 .5l1.2 2.1h1.6zm-4.4-6v-5c0-1.4-1-2.6-2.6-2.6-1.7 0-2.6 1.2-2.6 2.6v5.2h5.2zm7.3 0v-5c0-1.4 1-2.6 2.6-2.6s2.6 1.2 2.6 2.6v5.2h-5.2zm-1.9-12.7l.5-4.7h-4.5l.2 4.7h3.8zm3.5 0l-.4-4.7h4.7l-.5 4.7h-3.8zm-10.6 0l.2-4.7h-4.5l.5 4.7h3.8z"/>
	<path fill="#0039f0"
		  d="M233.6 280.1v-4.3c0-.7-.4-2.8-3.3-2.8a2.9 2.9 0 00-3 2.8v4.3h6.3zm-7.3-13.5v-4.5c0-1.2-.7-2.4-2.1-2.4s-2.2 1.2-2.2 2.4v4.5h4.3zm8.3 0v-4.5c0-1.2.7-2.4 2.1-2.4s2.1 1.2 2.1 2.4v4.5h-4.2z"/>
	<path fill="#ad1519"
		  d="M239.5 287.8c0-10.4 7.5-18.8 16.6-18.8s16.7 8.4 16.7 18.7c0 10.4-7.5 18.8-16.7 18.8s-16.6-8.4-16.6-18.7"/>
	<path fill="none" stroke="#000" stroke-width=".6"
		  d="M239.5 287.8c0-10.4 7.5-18.8 16.6-18.8s16.7 8.4 16.7 18.7c0 10.4-7.5 18.8-16.7 18.8s-16.6-8.4-16.6-18.7z"/>
	<path fill="#005bbf"
		  d="M244.4 287.7c0-7.6 5.3-13.7 11.7-13.7 6.5 0 11.8 6.1 11.8 13.7s-5.3 13.7-11.7 13.7c-6.5 0-11.8-6.1-11.8-13.7"/>
	<path fill="none" stroke="#000" stroke-width=".6"
		  d="M244.4 287.7c0-7.6 5.3-13.7 11.7-13.7 6.5 0 11.8 6.1 11.8 13.7s-5.3 13.7-11.7 13.7c-6.5 0-11.8-6.1-11.8-13.7z"/>
	<path fill="#c8b100"
		  d="M250.6 278.3s-1.4 1.5-1.4 2.9.6 2.6.6 2.6a1.5 1.5 0 00-1.4-1 1.5 1.5 0 00-1.6 1.5l.3.8.5 1c.2-.4.5-.6 1-.6.6 0 1 .5 1 1v.3h-1.2v1h1.1l-.8 1.7 1-.4 1 1 .8-1 1 .4-.7-1.6h1v-1.1h-1.2a1 1 0 010-.3c0-.5.5-1 1-1s1 .2 1 .6l.6-1 .2-.8c0-.8-.6-1.5-1.5-1.5-.7 0-1.2.4-1.4 1 0 0 .5-1.2.5-2.6 0-1.4-1.4-3-1.4-3"/>
	<path fill="none" stroke="#000" stroke-linejoin="round" stroke-width=".3"
		  d="M250.6 278.3s-1.4 1.5-1.4 2.9.6 2.6.6 2.6a1.5 1.5 0 00-1.4-1 1.5 1.5 0 00-1.6 1.5l.3.8.5 1c.2-.4.5-.6 1-.6.6 0 1 .5 1 1v.3h-1.2v1h1.1l-.8 1.7 1-.4 1 1 .8-1 1 .4-.7-1.6h1v-1.1h-1.2a1 1 0 010-.3c0-.5.5-1 1-1s1 .2 1 .6l.6-1 .2-.8c0-.8-.6-1.5-1.5-1.5-.7 0-1.2.4-1.4 1 0 0 .5-1.2.5-2.6 0-1.4-1.4-3-1.4-3z"/>
	<path fill="#c8b100" d="M248.4 287.9h4.5v-1.1h-4.5v1z"/>
	<path fill="none" stroke="#000" stroke-width=".3" d="M248.4 287.9h4.5v-1.1h-4.5v1z"/>
	<path fill="#c8b100"
		  d="M261.5 278.3s-1.4 1.5-1.4 2.9.6 2.6.6 2.6c-.2-.6-.8-1-1.4-1-.9 0-1.6.7-1.6 1.5l.3.8.5 1c.1-.4.5-.6 1-.6a1 1 0 011 1 1 1 0 010 .3h-1.2v1h1.1l-.8 1.7 1-.4.9 1 .9-1 1 .4-.8-1.6h1.1v-1.1h-1.2a.9.9 0 010-.3c0-.5.5-1 1-1s.9.2 1 .6l.6-1 .2-.8c0-.8-.7-1.5-1.5-1.5-.7 0-1.3.4-1.5 1 0 0 .6-1.2.6-2.6 0-1.4-1.4-3-1.4-3"/>
	<path fill="none" stroke="#000" stroke-linejoin="round" stroke-width=".3"
		  d="M261.5 278.3s-1.4 1.5-1.4 2.9.6 2.6.6 2.6c-.2-.6-.8-1-1.4-1-.9 0-1.6.7-1.6 1.5l.3.8.5 1c.1-.4.5-.6 1-.6a1 1 0 011 1 1 1 0 010 .3h-1.2v1h1.1l-.8 1.7 1-.4.9 1 .9-1 1 .4-.8-1.6h1.1v-1.1h-1.2a.9.9 0 010-.3c0-.5.5-1 1-1s.9.2 1 .6l.6-1 .2-.8c0-.8-.7-1.5-1.5-1.5-.7 0-1.3.4-1.5 1 0 0 .6-1.2.6-2.6 0-1.4-1.4-3-1.4-3z"/>
	<path fill="#c8b100" d="M259.3 287.9h4.5v-1.1h-4.5v1z"/>
	<path fill="none" stroke="#000" stroke-width=".3" d="M259.3 287.9h4.5v-1.1h-4.5v1z"/>
	<path fill="#c8b100"
		  d="M256 287.6s-1.3 1.5-1.3 3c0 1.4.6 2.6.6 2.6a1.5 1.5 0 00-1.5-1 1.5 1.5 0 00-1.5 1.4l.2.8.5 1c.2-.3.6-.5 1-.5.6 0 1.1.4 1.1 1a1 1 0 010 .3h-1.2v1h1l-.8 1.7 1.1-.5.9 1 .8-1 1.1.5-.8-1.7h1.1v-1h-1.2a1 1 0 010-.3c0-.6.4-1 1-1 .5 0 .9.2 1 .5l.5-1c.1-.2.3-.5.3-.8 0-.8-.7-1.4-1.6-1.4a1.5 1.5 0 00-1.4 1s.6-1.2.6-2.7c0-1.4-1.4-2.9-1.4-2.9"/>
	<path fill="none" stroke="#000" stroke-linejoin="round" stroke-width=".3"
		  d="M256 287.6s-1.3 1.5-1.3 3c0 1.4.6 2.6.6 2.6a1.5 1.5 0 00-1.5-1 1.5 1.5 0 00-1.5 1.4l.2.8.5 1c.2-.3.6-.5 1-.5.6 0 1.1.4 1.1 1a1 1 0 010 .3h-1.2v1h1l-.8 1.7 1.1-.5.9 1 .8-1 1.1.5-.8-1.7h1.1v-1h-1.2a1 1 0 010-.3c0-.6.4-1 1-1 .5 0 .9.2 1 .5l.5-1c.1-.2.3-.5.3-.8 0-.8-.7-1.4-1.6-1.4a1.5 1.5 0 00-1.4 1s.6-1.2.6-2.7c0-1.4-1.4-2.9-1.4-2.9z"/>
	<path fill="#c8b100" d="M253.8 297.2h4.5v-1h-4.5v1z"/>
	<path fill="none" stroke="#000" stroke-width=".3" d="M253.8 297.2h4.5v-1h-4.5v1z"/>
	<path fill="#c8b100"
		  d="M289.4 238.3h-.3a1.6 1.6 0 01-.3.4c-.3.2-.7.3-.9 0a.5.5 0 01-.1-.4.5.5 0 01-.5 0c-.3-.1-.4-.5-.2-.8l.1-.2v-.3h-.3l-.1.3c-.3.2-.6.3-.8.1a.6.6 0 01-.1-.2h-.2c-.5.2-.7-1-.8-1.3l-.1.3v1.3a7 7 0 01-.3 1.2c.8.2 2 .8 3 1.7a9.6 9.6 0 012.5 2.5l1.2-.6c.6-.2 1.4-.2 1.4-.2l.2-.2c-.3 0-1.6.1-1.6-.4l.1-.2a.7.7 0 01-.3 0c-.2-.2-.2-.5 0-.8h.2v-.4h-.3l-.2.1c-.3.3-.7.3-.9 0a.5.5 0 010-.4.6.6 0 01-.6 0 .6.6 0 010-.9 1.6 1.6 0 01.2-.3v-.3"/>
	<path fill="none" stroke="#000" stroke-width=".3"
		  d="M289.4 238.3h-.3a1.6 1.6 0 01-.3.4c-.3.2-.7.3-.9 0a.5.5 0 01-.1-.4.5.5 0 01-.5 0c-.3-.1-.4-.5-.2-.8l.1-.2v-.3h-.3l-.1.3c-.3.2-.6.3-.8.1a.6.6 0 01-.1-.2h-.2c-.5.2-.7-1-.8-1.3l-.1.3v1.3a7 7 0 01-.3 1.2c.8.2 2 .8 3 1.7a9.6 9.6 0 012.5 2.5l1.2-.6c.6-.2 1.4-.2 1.4-.2l.2-.2c-.3 0-1.6.1-1.6-.4l.1-.2a.7.7 0 01-.3 0c-.2-.2-.2-.5 0-.8h.2v-.4h-.3l-.2.1c-.3.3-.7.3-.9 0a.5.5 0 010-.4.6.6 0 01-.6 0 .6.6 0 010-.9 1.6 1.6 0 01.2-.3v-.3z"/>
	<path d="M287 239h.3s.1.2 0 .2h-.2v-.2"/>
	<path fill="none" stroke="#000" stroke-width=".1" d="M287 239h.3s.1.2 0 .2h-.2v-.2z"/>
	<path d="M288 239.8l-.3-.2v-.2h.2l.3.3.3.2s.1.1 0 .2h-.1l-.4-.3"/>
	<path fill="none" stroke="#000" stroke-width=".1" d="M288 239.8l-.3-.2v-.2h.2l.3.3.3.2s.1.1 0 .2h-.1l-.4-.3"/>
	<path d="M286.3 238.6l-.3-.2s-.1 0 0-.1h.1l.3.1.2.2.1.1h-.2l-.2-.1"/>
	<path fill="none" stroke="#000" stroke-width=".1" d="M286.3 238.6l-.3-.2s-.1 0 0-.1h.1l.3.1.2.2.1.1h-.2l-.2-.1"/>
	<path d="M285.2 237.9h.2l.1.2h-.2l-.1-.2"/>
	<path fill="none" stroke="#000" stroke-width=".1" d="M285.2 237.9h.2l.1.2h-.2l-.1-.2z"/>
	<path d="M289.1 240.6v-.3h-.3v.3h.3"/>
	<path fill="none" stroke="#000" stroke-width=".1" d="M289.1 240.6v-.3h-.3v.3h.3z"/>
	<path d="M289.7 241.2l.2.2c0 .1.2.1.2 0l-.2-.3-.2-.2h-.2v.1l.2.2"/>
	<path fill="none" stroke="#000" stroke-width=".1" d="M289.7 241.2l.2.2c0 .1.2.1.2 0l-.2-.3-.2-.2h-.2v.1l.2.2"/>
	<path d="M290.7 242v-.2h-.3v.3h.3"/>
	<path fill="none" stroke="#000" stroke-width=".1" d="M290.7 242v-.2h-.3v.3h.3z"/>
	<path fill="#c8b100" d="M287.9 235.9h-.6l-.2.9.1.1h.2l.7-.5-.2-.5"/>
	<path fill="none" stroke="#000" stroke-width=".3" d="M287.9 235.9h-.6l-.2.9.1.1h.2l.7-.5-.2-.5"/>
	<path fill="#c8b100" d="M286.2 236.4v.5l1 .2v-.3l-.5-.7-.5.3"/>
	<path fill="none" stroke="#000" stroke-width=".3" d="M286.2 236.4v.5l1 .2v-.3l-.5-.7-.5.3"/>
	<path fill="#c8b100" d="M288.2 237.5l-.5.3-.6-.8v-.1h1.1v.6"/>
	<path fill="none" stroke="#000" stroke-width=".3" d="M288.2 237.5l-.5.3-.6-.8v-.1h1.1v.6"/>
	<path fill="#c8b100" d="M287 236.8a.3.3 0 01.3-.1.3.3 0 01.1.4.3.3 0 01-.3 0 .3.3 0 01-.2-.3"/>
	<path fill="none" stroke="#000" stroke-width=".3"
		  d="M287 236.8a.3.3 0 01.3-.1.3.3 0 01.1.4.3.3 0 01-.3 0 .3.3 0 01-.2-.3z"/>
	<path fill="#c8b100" d="M284.8 235.9l-.3-.8a2 2 0 00-.4-.4s.4-.2.9.1c.4.3 0 .9 0 .9l-.2.2"/>
	<path fill="none" stroke="#000" stroke-width=".3"
		  d="M284.8 235.9l-.3-.8a2 2 0 00-.4-.4s.4-.2.9.1c.4.3 0 .9 0 .9l-.2.2z"/>
	<path fill="#c8b100" d="M285.8 236.2l-.4.4-.7-.6v-.3h1l.1.5"/>
	<path fill="none" stroke="#000" stroke-width=".3" d="M285.8 236.2l-.4.4-.7-.6v-.3h1l.1.5"/>
	<path fill="#c8b100" d="M284.6 235.8l.3-.2c.1 0 .2.2.1.3 0 .2-.2.3-.3.3 0 0-.1-.2 0-.4"/>
	<path fill="none" stroke="#000" stroke-width=".3"
		  d="M284.6 235.8l.3-.2c.1 0 .2.2.1.3 0 .2-.2.3-.3.3 0 0-.1-.2 0-.4z"/>
	<path fill="#c8b100" d="M290.2 237.3h-.6l-.3.8v.2h.2l.9-.4-.2-.6"/>
	<path fill="none" stroke="#000" stroke-width=".3" d="M290.2 237.3h-.6l-.3.8v.2h.2l.9-.4-.2-.6"/>
	<path fill="#c8b100" d="M288.5 237.6l-.1.6.9.2h.1v-.2l-.4-.8-.5.2"/>
	<path fill="none" stroke="#000" stroke-width=".3" d="M288.5 237.6l-.1.6.9.2h.1v-.2l-.4-.8-.5.2"/>
	<path fill="#c8b100" d="M290.3 239l-.6.2-.4-.8v-.2h.1l1 .2-.1.6"/>
	<path fill="none" stroke="#000" stroke-width=".3" d="M290.3 239l-.6.2-.4-.8v-.2h.1l1 .2-.1.6"/>
	<path fill="#c8b100" d="M289.1 238.1c.1-.1.3-.1.4 0a.3.3 0 01.1.4.3.3 0 01-.4 0 .3.3 0 010-.4"/>
	<path fill="none" stroke="#000" stroke-width=".3"
		  d="M289.1 238.1c.1-.1.3-.1.4 0a.3.3 0 01.1.4.3.3 0 01-.4 0 .3.3 0 010-.4z"/>
	<path fill="#c8b100" d="M292.2 239.2l.1.6-.9.3h-.1v-.2l.3-.8.6.1"/>
	<path fill="none" stroke="#000" stroke-width=".3" d="M292.2 239.2l.1.6-.9.3h-.1v-.2l.3-.8.6.1"/>
	<path fill="#c8b100" d="M292 240.8l-.5.2-.3-.9v-.1h.2l.8.3-.1.5"/>
	<path fill="none" stroke="#000" stroke-width=".3" d="M292 240.8l-.5.2-.3-.9v-.1h.2l.8.3-.1.5"/>
	<path fill="#c8b100" d="M290.5 239.3l-.2.5.9.3h.1v-.1l-.2-.9-.6.2"/>
	<path fill="none" stroke="#000" stroke-width=".3" d="M290.5 239.3l-.2.5.9.3h.1v-.1l-.2-.9-.6.2"/>
	<path fill="#c8b100" d="M291.5 240.3a.3.3 0 000-.4.3.3 0 00-.5 0 .3.3 0 000 .3.3.3 0 00.4 0"/>
	<path fill="none" stroke="#000" stroke-width=".3"
		  d="M291.5 240.3a.3.3 0 000-.4.3.3 0 00-.5 0 .3.3 0 000 .3.3.3 0 00.4 0z"/>
	<path fill="#c8b100" d="M292.9 242.1l.8.1a2 2 0 01.5.3s.1-.5-.3-.8c-.4-.3-.9.2-.9.2l-.1.2"/>
	<path fill="none" stroke="#000" stroke-width=".3"
		  d="M292.9 242.1l.8.1a2 2 0 01.5.3s.1-.5-.3-.8c-.4-.3-.9.2-.9.2l-.1.2z"/>
	<path fill="#c8b100" d="M292.3 241.2l-.3.5.8.5v-.1h.2l-.1-1h-.6"/>
	<path fill="none" stroke="#000" stroke-width=".3" d="M292.3 241.2l-.3.5.8.5v-.1h.2l-.1-1h-.6"/>
	<path fill="#c8b100" d="M293 242.2s.2-.2.1-.3h-.4c-.1 0-.2.2-.1.3h.3"/>
	<path fill="none" stroke="#000" stroke-width=".3"
		  d="M293 242.2s.2-.2.1-.3h-.4c-.1 0-.2.2-.1.3h.3zm40.7-23.4v.6H331v-.6h1v-1.4h-.7v-.6h.6v-.5h.7v.5h.6v.6h-.6v1.4h1"/>
	<path fill="none" stroke="#000" stroke-width="0" d="M179.3 231.6v-1.3m-.3 1.3v-1.3m-.3 1.3v-1.3m-.4 1.3v-1.3"/>
	<path fill="none" stroke="#000" stroke-width=".1"
		  d="M178 231.6v-1.3m-.5 1.2v-1.2m.2 1.2v-1.2m-.7 1.2v-1.1m.2 1v-1m-.9 1v-1m.2 1v-1m.2 1v-1m-.7 1v-1m-.2.9v-.8m-.2.8v-.8m-.6.8v-.7m.3.7v-.7m-.5.6v-.6m-.2.5v-.4m-.3.3v-.3m-.3.3v-.2"/>
	<path fill="none" stroke="#000" stroke-width=".2" d="M173.8 231v-.1"/>
	<path fill="none" stroke="#000" stroke-width="0"
		  d="M180.8 231.5v-1.2m-.7 1.2v-1.2m-.4 1.3v-1.3m152.6 1.3v-1.3m-.3 1.3v-1.3m-.4 1.3v-1.3m-.4 1.3v-1.3"/>
	<path fill="none" stroke="#000" stroke-width=".1"
		  d="M331 231.6v-1.3m-.6 1.2v-1.1m.3 1.1v-1.2m-.8 1.2v-1.1m.2 1.1v-1.2m-.9 1.1v-1m.2 1v-1m.3 1v-1m-.7 1v-1m-.3 1v-.9m-.2.8v-.8m-.5.8v-.7m.2.7v-.7m-.5.6v-.5m-.2.5v-.5m-.3.4v-.4m-.2.3v-.2"/>
	<path fill="none" stroke="#000" stroke-width=".2" d="M326.7 231v-.1"/>
	<path fill="none" stroke="#000" stroke-width="0" d="M333.7 231.5v-1.2m-.6 1.3v-1.3m-.5 1.3v-1.3"/>
</svg>
