<svg xmlns:xlink="http://www.w3.org/1999/xlink" xmlns="http://www.w3.org/2000/svg" id="flag-icon-css-ht"
	 viewBox="0 0 512 512">
	<path fill="#d21034" d="M0 0h512v512H0z"/>
	<path fill="#00209f" d="M0 0h512v256H0z"/>
	<g fill="#f1b517" stroke="#000" stroke-width=".2">
		<path fill="#fff" stroke="none" d="M175.2 191.6h161.6v128.6H175.2z"/>
		<path fill="#016a16" stroke="#016a16" stroke-width=".3"
			  d="M288.5 284.6l-33 1-32.8.3s-16.8 6.3-23.7 7.7c-6.9 1.4-6 3.6-11.3 4.8-4.3 1-4.8 1.3-7.3 1.4-1.5.1-3.3 1.3-5.2 2.6v17.8h161.6v-17a31.8 31.8 0 00-5.2-2.1c-2.3-.8-4-1.7-8.2-2.7-5.3-1.2-4.4-3.4-11.3-4.8s-23.6-9-23.6-9z"/>
		<g transform="translate(-170.7) scale(1.70667)">
			<g id="a">
				<path d="M244.5 143.5h1.4l2.6 10.7-.6 3.4-3.4-14z"/>
				<path fill="#fff" d="M243 136.3l1 8.3h1l-2-8.2z"/>
				<path d="M245.7 154.6l-4.3-11.5 1.6-.1 5 14-2.3-2.4z"/>
				<path fill="#fff" d="M239.4 136.5l1.8 8h1.4l-3.2-8z"/>
				<path d="M241.9 150.6l-2.5-5.5 1-.2 4.7 9-3.2-3.3z"/>
				<path fill="#fff" d="M236 138.8l2.9 7.6h1.4l-4.2-7.6z"/>
				<path fill="#0a328c" d="M242.3 151.4l-11.5-12.5c-3.6 2.8-2.9 8-2.9 8l13 10.2 1.3-5.7z"/>
				<path fill="#d20014" d="M248.9 158.2l-8.5-8.6c-3.6.2-.8 5.5-.6 6.2l9 7.7v-5.3z"/>
				<path d="M248.1 156.8L230.6 138l-.7.5 18.6 20.6-.4-2.3zm-18.5-20l-.4-.5v-.9l-3.6-2.3 1.6 3.7 1.3.2.3.4.8-.6z"/>
				<path d="M227.7 138.1a8.4 8.4 0 012.7-2.2l1 1.5-2.2 1.8-1.5-1z"/>
				<path fill="#0a328c" stroke="#0a328c"
					  d="M225.8 141.3l.6 1c.4-.1 4-3.5 4-3.5h2.7l.7-.9c-2-2-3.7.3-3.7.3l-4.3 3z"/>
				<path fill="#d20014" stroke="#d20014"
					  d="M228 143c0-1 1.8-3.2 2-3.3 1.3.4 2.5 1.2 3.9-1.8-1.2 1.4-3.5 0-3.5 0l-1 .8v.4l-3 2.8 1.5 1.1z"/>
				<path fill="#0a328c" d="M237.3 154.7l-14.4-11.4c-2.5 2.5-.4 10.2-.4 10.2l14 7.6.7-6.4z"/>
				<path fill="#d20014" d="M249.2 164l-11.9-9.6c-4 .6-.8 6.5-.6 7.2l12.5 6.8v-4.5z"/>
				<path d="M248.7 162l-25.6-19.2-.5.6 26.8 21-.7-2.4zm-26.8-20.2l-.4-.4-.2-.8-4-1.7 2.3 3.3h1.3l.4.4.6-.8z"/>
				<path d="M220.3 143.4a8.2 8.2 0 012.3-2.6l1.2 1.3-1.8 2.1-1.7-.8z"/>
				<path fill="#0a328c" stroke="#0a328c"
					  d="M219 146.6v1.1c.4-.2 3.7-3.7 3.7-3.7l2.5-.5.6-.8c-1.8-2.1-3.7.7-3.7.7l-3.2 3.2z"/>
				<path fill="#d20014" stroke="#d20014"
					  d="M221 148.5c-.2-1 1.2-3.8 1.4-4 1.6.5 3 1.2 3.5-2-1 1.6-3.5.4-3.5.4l-.8 1v.5l-2.5 3.3 1.9.8z"/>
				<path fill="#0a328c"
					  d="M236.2 161.7a2783.3 2783.3 0 01-18.5-10.5c-1.3 2.3-.1 5.5.5 6 0 1.5-.6 2.3.7 5.5.4 2 1.3 3.9 2.7 5 1.6 6.4 8.2 6.9 10.7 1.6l4-7.6z"/>
				<path fill="#d20014" d="M248.3 168.5l-12.5-7.3c-4 .5 0 8 .3 8.7l12.2 4.3v-5.7z"/>
				<path d="M246.2 165.8l-28.3-15-.5.6 30 16.7-1.2-2.3zM216.5 150l-.5-.3-.3-.8-4.1-1 2.7 2.9 1.2-.2.6.3.4-.9z"/>
				<path d="M215.2 151.8c.4-1 .8-1.9 1.8-3l1.4 1.1-1.4 2.4-1.8-.5z"/>
				<path fill="#0a328c" stroke="#0a328c"
					  d="M214.1 155.2l.6 1.2 3-4.6 2.5-.9.5-1c-2-1.8-3.5 1.4-3.5 1.4l-3.1 3.9z"/>
				<path fill="#d20014" stroke="#d20014"
					  d="M216.8 156.8c-.2-1 .5-4.2.7-4.3 1.5.5 2.8.6 3.2-2.6-1 1.5-3.3 1-3.3 1l-.7 1 .1.4-2 4 2 .5z"/>
			</g>
			<use width="100%" height="100%" transform="matrix(-1 0 0 1 499.9 0)" xlink:href="#a"/>
		</g>
		<g transform="translate(-170.7) scale(1.70667)">
			<path fill="#016a16" stroke="#016a16" d="M248.8 125.6l-.5 9h2.9l-.4-9 3-.3-.3-3.6-7.5.3v3.2l2.8.4z"/>
			<g id="b" fill="#016a16">
				<path d="M249.8 121.9c-7.8-7.8-13.9-4-15.3-2.9 1 .2 1.8-.4 2.3-.5l-1 1.2s2.5-1 2.8-1c-.4.3-.8 1-.8 1 .2 0 1.6-1.1 1.8-1.1-.4.4-.5 1.5-.5 1.5l1.2-.5c.3.2-.1.6.1.6 2-.2 4.7 1.7 5 2.3"/>
				<path d="M247.9 123.3c-.8-1.8-15.6-5-18.6.3 1.2.3 2.3-1 2.3-1v1.2l1.9-1.6-.7 1.6 1.5-1.3v1.3l2-2-.3 1.1 1.7-.7-.2 1"/>
				<path d="M247.2 123.6c-3.8-2.5-9.6-.8-9.6-.8-3.8 2-5.8 1.7-6.2 5.6.3-.1 1.3-1.4 1.3-1.4l.8 1.5.2-2.1.6 1.7 1-2.8.2 1.9 1.4-1.9.6.6.6-1.5.6 1s1-.6 1.5-.3l1-1.2.3.9 1-1 .3.7.9-.8v.6h3"/>
				<path d="M246.4 124c-2.7 0-10.3 2.9-12.2 5.8a13.3 13.3 0 011.3-.6l.3 1.2.5-1.2.1 1c.3-.8.6-.8 1.2-.1l.2-1.1.3 1 .5-1.1s.3 1.2.5 1.2c0 0 .8-2.2 1.2-2.3l.1 1.4.5-1.4.5 1v-1.4l.6 1s.2-1 .6-1.2l.8.7 3.4-2.5"/>
				<path d="M246.9 124.7c-3.5 1.3-6.7 6.2-6.4 8.2 1.5-2 1.2-1.7 1.9.6 0 0 .2-2 .5-2.2l.5 1.4.1-1.9h.5l-.1-1.1.7.5c-.2-.7-.3-.9.4-1.5 0 0-1 .1-.2-1.5l.7.6s-.2-.7 0-1l2.6-.8"/>
				<path d="M247.2 125l-1.3 2.6.7.2-1.6 1.1 1.3-.1s-2 .7-2.2 2.7l2-1s-1.7 1.8-2 2.9l1.3-1s-1.2 1.2-1 3l.9-1c-.2 2.3-.2 2.5.8 4.2 0 0-.2-2.6 0-3l2.3 2.4-1.2-3.3s1.4 2 2.2 1.9l-1.8-2.7 1.8 1.4-2-3 1.8.6s-1.3-1.7-1.2-2.8l1.3 1.4s-.5-1.5-.4-2l.7.1-1.3-1.4.9-.2-.1-1 .6-.1v-1.1m-1.1 0c-2.2 3-1.1 7.5-2.4 9.9"/>
			</g>
			<use width="100%" height="100%" transform="matrix(-1 0 0 1 499.9 0)" xlink:href="#b"/>
			<path d="M251 166.5s1.1-10 1.1-14.2c0-3.4-.8-10.8-.8-10.8H248s-.5 7.4-.4 10.8c0 4.2 1.1 14.2 1.1 14.2h2.3z"/>
			<path d="M247.7 142h4l-.5-2.7h-2.9l-.6 2.6z"/>
			<path d="M248 139.8h3.5l-.7-2.7h-2.2l-.7 2.7z"/>
			<path d="M248.2 137.7h3l-.6-2.7h-1.9l-.5 2.7z"/>
			<path d="M250.7 134.7h-2l-.3 1h2.5l-.2-1zm.4 29.7h-2.6m2.8-2h-3m3.4-2h-3.8m4-2.1h-4m4-2.2h-4.1m4.2-2h-4.4m4.4-1.7h-4.6m4.6-2.2h-4.6m4.5-2.1h-4.5m4.3-2.2h-4.1m3.9-2h-3.7"/>
			<path fill="#0a328c" stroke="#0a328c"
				  d="M250 119c-.8-.3-2.3-1.3-1.9-1.9l.7-1.2c1-2.2 0-1.4 0-2-.2-.8 3.8-.2 3.8 1.3 0 .5-.3.2-.2 2.6l-.8 1.5a3.5 3.5 0 01-1.7-.2z"/>
			<path d="M250.4 125l-1-.9.3-7.1 1 .3-.3 7.6z"/>
			<path fill="#d20014" stroke="#d20014"
				  d="M251.7 119.3c.6-.4 1-1.5.6-2.1-1-1.3-1.7-.8-3.4-1.4-.3.4-1 1-.9 1.6 2.3 1 1.4.2 2.2.3.4 0 .6.5 1.5 1.5z"/>
		</g>
		<g transform="translate(-170.7) scale(1.70667)">
			<use width="100%" height="100%" transform="matrix(1 0 0 -1 0 320.4)" xlink:href="#c"/>
			<path fill="#016a16" stroke="#fff" stroke-linecap="round"
				  d="M238.4 161.8c0 1.2-.9 2.3-1.9 2.3s-1.8-1-1.8-2.4v-1.2h3.7v1.2z"/>
			<ellipse cx="236.5" cy="160.1" fill="#fff" stroke="none" rx="1.8" ry=".9"/>
			<path fill="#016a16" stroke="#f1b517" d="M236.1 161l-.3-3.2h1.4l-.2 3.3h-.9z"/>
			<path id="c" fill="#016a16" stroke="#fff" stroke-linecap="round"
				  d="M238.5 160.1c-.2.5-1 .9-2 .9s-1.7-.4-2-.9a.8.8 0 000 .4c0 .7.9 1.2 2 1.2 1.2 0 2.1-.5 2.1-1.2a.8.8 0 000-.4z"/>
			<g id="d">
				<path d="M246 172.8l-7-2.2-3.1-5.3-10.9-.5.4 4 9.3 1.7.8 1.6 10.7 3-.2-2.3z"/>
				<path fill="#503200" d="M238.7 174.3l-11.2-16.5-.5.5 11 16.4.7-.4z"/>
				<path fill="#fff" d="M228.6 158.5l-1.2-2c-.3-.4-.6-.5-1.1-.2-.5.2-.4.7-.2 1.1l1 1.9 1.5-.8z"/>
				<path d="M240 164.1l-22.5-2.3-.6 3.3 22.4 2.3.7-3.3z"/>
				<path d="M217 161l-.5 4.5h1l.6-4.1-1-.4zm3.8.7l-.2 4.1h.6l.5-3.5-.8-.6zm15.3 1.8l-.6 3.8h1.1l.5-3.8h-1zm3.3.1l-.7 4.4 1.2.2.4-2.3c0 .5.5.8 1 .8.6 0 1-.5 1-1 0-.6-.4-1-1-1a1 1 0 00-1 .6l.3-1.6-1.2-.1zm-8 .7l-3.2 3.5.4.4 4-2.7-1.3-1.2zM224 173l3.1-3.5-.3-.4-4 2.7 1.2 1.2zm8.1-.9l-3.7-2.9-.4.3 3 3.8 1.1-1.2zm-9.3-6.7l3.9 2.8.4-.3-3-3.8-1.3 1.3zm4.2-2.3l.4 4.6h.5l1.2-4.5-2.1-.1zm1.2 11l-.3-4.5h-.6l-.7 4.6h1.6zm5.1-6l-4.8.4v.5l4.8.6V168zm-11.4 1.5l4.7-.7v-.4l-4.8-.5v1.6z"/>
				<ellipse cx="227.7" cy="168.6" rx="1.3" ry="1.2"/>
				<path fill-rule="evenodd" stroke-linecap="round"
					  d="M234.4 168.6c0 3.5-3 6.5-6.7 6.5a6.6 6.6 0 01-6.7-6.5c0-3.6 3-6.5 6.7-6.5a6.6 6.6 0 016.7 6.5zm-1.3 0a5.3 5.3 0 01-5.4 5.2 5.3 5.3 0 01-5.4-5.3 5.3 5.3 0 015.4-5.1 5.3 5.3 0 015.4 5.2z"/>
				<path d="M223.5 165.3l-1-.8m8.5 0l1-1m1 9.2l-1.1-.9m-8.4 1.9l1-1m21.7-10.6l1.1 6-.9.4-1-6.3h.8z"/>
				<path fill="#fff"
					  d="M245.6 161.4c-.5-.3-1.2.1-2.4-1.3-1.9 1.7 0 2 .2 3.7.5.2.9-1.4 2.3-1.5l2.3-.2-.5-.7h-2z"/>
				<path fill="#fff" d="M246.4 162.5l-.2-1.7c-.3-.7-1-.1-1 .2l.2 1.7 1-.2z"/>
				<path fill-rule="evenodd"
					  d="M240.8 167.4v1.6c-.6.2-.5.6-.5 1.2v4.7c-.1.4-.7.4-1 .6-.3.3-.2.8 1 1l1 .1c1.5-.3 1.8-.8 1-1-.3-.2-.9-.4-1-.6v-1.2h1c.2 0 .7-.6.7-1.1v-2.5c0-1.4-1-1.6-1.4-1.5v-1.3h-.8zm1.6 2.7c0-.4-.6-.8-.8-.8-.2 0-.7.5-.7.9v1c0 .4.3 1.6.9 1.7.2 0 .6-.4.6-.8v-2z"/>
				<path fill="#fff"
					  d="M234.3 172.3c-.7-.2-.7 1.2-.7 1.2h1c.5.2.8.8.6 1.2-.3.2-2.2-.5-2.3 0 .3 1.9 2.9 2.6 3.8 1.8.9-.9 1.1-3-1.8-3.7l-.6-.5zm.6.6l-.3.6"/>
				<path d="M215 173l-1-4m2.1 3.8l-1.5-3.1m4 2.3l-3.3-1.8m4.8 1.4l-6.2-2.7"/>
				<path fill="#d20014" stroke="#d20014"
					  d="M210.2 166l-2.6.1c-.2.1.5.9.4 1.1-.6 1.1-4.4 1-4.7.8-.5-.5 3.5-.8 3.6-1 0-.4-.6-1.2-.5-1.7 0-.7 1.7-1 1.7-1l2.1 1.7z"/>
				<path fill="#503200" d="M213.2 168l-5-4.2s-.3-.2-.5 0 0 .4 0 .4l5.4 4.4.1-.5z"/>
				<path d="M218.2 172.2l-4.2-3.6-.3-1-.8.6c-.3.2-.6.8-.6.8h1.1l3.6 3.4 1.1-.2z"/>
				<circle cx="232.5" cy="177.1" r=".7"/>
				<circle cx="230.6" cy="175.7" r=".7"/>
				<circle cx="228.1" cy="176.6" r=".7"/>
				<circle cx="224.2" cy="177.4" r=".7"/>
				<circle cx="222.5" cy="177.6" r=".7"/>
				<circle cx="220.8" cy="177.6" r=".7"/>
				<circle cx="219.2" cy="177.6" r=".7"/>
				<circle cx="220" cy="176.3" r=".7"/>
				<circle cx="221.6" cy="176.4" r=".7"/>
				<circle cx="223.1" cy="176.2" r=".7"/>
				<circle cx="222.4" cy="175" r=".7"/>
				<circle cx="220.8" cy="174.9" r=".7"/>
				<path fill-rule="evenodd"
					  d="M236.5 178c0-.3-.8-.2-.8-.6 0-.4 1.2 0 1.3.3.7-.6 1-.2 1.4 0 .6-.8 1.3-.8 2-.2.4-.4 1.4-.3 1.7.2.7-.6 1.3-.5 1.7 0 .2-.3.5-.3.7 0 .3-.7 1.2-.5 1.6 0 .3-.4.7-.1 1.1.1.3-.2.8-.2.8 0 0 .4-.6.3-.6.6 0 .2.4 0 .4.4 0 .3-.6.4-.7 0-.3.4-1.1.2-1.2-.2a.8.8 0 01-1.2 0c-.3.2-.7.2-.8 0-.5.5-1.4.4-1.7-.2h-.3a1 1 0 01-1.5 0c-.9.6-1.4.4-1.9 0-.5.7-1.4.7-1.5 0-.4.3-1.2.4-1.2 0 0-.2.7-.1.7-.4zm1.6.1c0 .2-.2.3-.4.3s-.4-.1-.4-.3.1-.2.4-.2.4.1.4.2zm1.9-.2c0 .2-.3.3-.6.3s-.5-.1-.5-.3c0-.1.2-.3.5-.3s.5.2.5.3zm3.5.2c0 .2-.2.3-.5.3s-.4-.1-.4-.3c0-.1.2-.3.4-.3s.5.1.5.3zm-1.9 0c0 .2-.2.3-.5.3s-.4-.1-.4-.4c0-.2.2-.4.4-.4s.5.2.5.4zm4 0c0 .1-.1.3-.3.3-.3 0-.5-.2-.5-.4s.2-.3.5-.3c.2 0 .4.1.4.3zm-1.2 0c0 .2 0 .3-.2.3s-.3-.1-.3-.3.1-.2.3-.2l.2.2zm2.4.1c0 .2 0 .4-.3.4-.1 0-.3-.2-.3-.4s.2-.3.3-.3c.2 0 .3.1.3.3z"/>
			</g>
			<use width="100%" height="100%" transform="matrix(-1 0 0 1 499.9 0)" xlink:href="#d"/>
			<path fill="#0a328c" stroke="#0a328c"
				  d="M249.8 165.7c-2.5 0-4.5 1-4.5 2.1 0 .2 0 .4.2.6.5.6 2.3 1 4.4 1 2 0 3.6-.3 4.2-.9.2-.2.3-.4.3-.7 0-1.1-2-2-4.6-2z"/>
			<path d="M254.4 168v7c0 .9-2 1.5-4.5 1.5s-4.6-.6-4.6-1.5v-7c0 .8 2 1.5 4.5 1.5 2.6 0 4.6-.7 4.6-1.5z"/>
			<path fill="#d20014" stroke="#d20014"
				  d="M245.3 168v1l2.2 7 1.8-5.4 2 5.5 1.3-5.2 1.8 3.5v-1.9l-1.6-3.4a8.3 8.3 0 01-.6.2l-1 3.8-1.5-3.6a14.5 14.5 0 01-.7 0l-1.5 3.6-1.6-4.4c-.4-.2-.6-.5-.6-.7z"/>
			<path fill="#0a328c" stroke="#0a328c"
				  d="M254.4 173.7v1.3c0 .9-2 1.5-4.5 1.5s-4.6-.6-4.6-1.5v-1.3c0 .9 2 1.5 4.5 1.5 2.6 0 4.6-.6 4.6-1.5z"/>
			<path d="M251.7 175l-1.1.2v1.3l1.2-.1v-1.3zm-4.8-.1v1.3l1.1.2v-1.3a8.9 8.9 0 01-1.1-.2zm-1.6-1.2v1.3c0 .3.2.5.5.7v-1.3c-.3-.2-.5-.4-.5-.7zm9.1.2c0 .2-.4.5-.8.7v1.3c.5-.2.8-.5.8-.9v-1z"/>
			<path fill="none" d="M254.4 168v7c0 .9-2 1.5-4.5 1.5s-4.6-.6-4.6-1.5v-7"/>
			<path fill="#fff" stroke="#fff"
				  d="M253.4 167.5c0 .5-1.6 1-3.5 1-2 0-3.6-.5-3.6-1s1.6-.9 3.5-.9c2 0 3.6.4 3.6 1z"/>
			<path d="M248.7 168.2l.2 1.2h1l.1-1.2h-1.3zm4.1-.3l-1 .2.1 1.2 1-.2V168zm-5.4-2l-.7.3.1 1 .6-.2v-1zm2.4-.3h-.3l.2 1.2h.6l.2-1.2a9.7 9.7 0 00-.7 0zm2.7.4l-.1 1 .7.3v-1a5.3 5.3 0 00-.6-.3zm-6.5 2.8l.2-1.3-1-.5v1.5l.8.3zm8.4-.3v-1.3l-.8.3.8 1zm9.3-8.5c.8 0 2 1 2.1 2.5 0 1-1.7 1-1.7 1 0 .5-1 .9-1.8 1-.8 0 .2-1.5.2-1.5-.5-1.3.2-2.7.2-2.7l1-.3z"/>
			<path d="M262.5 163h.8s0 .3.2.3.3-.4.3-.4h1.2"/>
			<path fill="#d20014" stroke="#f1b517"
				  d="M264.1 160.9c.7-.5.1-1.5-.4-1.5h-1c-.6 0-1.4.6-1.3 1 0 .5.4.7.8.6.2 0 .6-.6.8-.6.3 0 1 .6 1.1.5z"/>
			<path fill-rule="evenodd"
				  d="M214.2 174.8c-.6.1-.7.8-.5 1.5-2.6.7-5 1.7-7.4 2.4-.1-.5 1.2-1.8 1.2-1.8.3.1.6.9.6.9 0-1.6 1.6-2.6 1.6-2.6-1-.2-3.7 1-4 1.4 0 0 1-.2 1.2 0 0 0-2.2 2.3-2.3 3 .4.7 4 1.3 4 1.3 0 .2-1 1-1 1 1.5.2 3.7-.8 4.3-1.4 0 0-1.7-.2-3-1.3 0 0 .2.7 0 1 0 0-2-.6-2.3-1 0 0 5-1.2 7.4-2 .1.5.6 1.3 1.2 1.1.3-.1.2-.8 0-1.4a.8.8 0 00.6.2c.4 0 .7-.3.7-.7 0-.4-.3-.7-.7-.7a.8.8 0 00-.7.5c-.1-.5-.4-1.4-.8-1.3zm2 1.6c0 .2-.2.3-.4.3a.3.3 0 01-.4-.3c0-.2.2-.4.4-.4s.3.2.3.4z"/>
			<path d="M293 177.9c.2-.4 0-2.2 0-2.2-.5 0-1 .7-1 .7.5-1.6-.8-4-.8-4 .9.1 3.9 3 4 3.6 0 0-1.3-.5-1.5-.4.3 1.5 1.3 2.2 1.7 3 0 0-1.7.3-1.6 1.8h-1.1c-.4-.5.1-1.3.1-1.3l-7.7-3.2c-.5-.2-1.6-.8-1.4-1.4.1-.5 2 .3 2.4.5l7 2.9z"/>
			<path d="M285.6 176.5l1-1.6c.3-.5-.4-1-.9-.4l-1 1.5c-.4.9.5 1.1 1 .5z"/>
		</g>
		<g fill="#fff" stroke-width=".3">
			<path d="M224.2 307.8l-.1-3-3.8.1-.2 3.4 4.1-.5z"/>
			<path d="M196.7 312.2l-5-2.8c20.7 1.9 25-5.4 30-5.8 3-.2 3.5 3.4-2.4 1.7l1.5 3.8s-14.8 8.3-29.2 5l5-2zm90.5-4.4v-3h4.7l.2 3.4-5-.4z"/>
			<path d="M315.6 311.4l4.8-2.6c-23.8.8-18.4-3.9-30.3-5.2-3-.3-5.4 3.7 2.4 1.7l-1.5 3.8h3.7a35 35 0 0026.3 4.1l-5.4-1.8z"/>
			<path d="M219.2 305.3v5.4s13.2 5 36.7 5c23.6 0 36.7-5 36.7-5v-5.4s-10 4.6-36.7 4.6c-26.6 0-36.7-4.6-36.7-4.6z"/>
		</g>
		<path fill="#000" stroke="none"
			  d="M221.1 310.8l1.2-4 .5.2-1 3.4 2 .6-.1.5-2.6-.8zm3.9-1.8v-.8l.2-.6.6.1-.2.7-.3.7h-.3zm5.6-.3l.6.2-.5 2.3c0 .4-.2.7-.4 1l-.6.4a2 2 0 01-1 0 2 2 0 01-1-.4 1.1 1.1 0 01-.3-.6v-1l.5-2.4.6.1-.5 2.3c-.1.4-.1.7 0 .8 0 .2 0 .4.2.5l.5.2h1c.2-.2.3-.5.4-1l.5-2.4zm.6 4.3l.7-4h.6l1.7 3.6.5-3.2.5.1-.7 4h-.5l-1.7-3.6-.5 3.2h-.6zm4.4.7l.6-4h.5l-.6 4h-.5zm1.6-1.8a2.2 2.2 0 01.7-1.5 2 2 0 011.6-.4c.4 0 .7.1 1 .3.3.3.5.5.6.9.1.3.2.7.1 1.1a2.4 2.4 0 01-.4 1c-.2.4-.5.6-.8.7a2.2 2.2 0 01-1 .2 2 2 0 01-1-.4c-.4-.2-.6-.5-.7-.9a2.2 2.2 0 01-.1-1zm.6 0c-.1.6 0 1 .2 1.3.3.3.6.5 1 .5s.8 0 1.1-.3c.3-.3.5-.6.5-1.2a2 2 0 000-.9 1.3 1.3 0 00-.5-.6 1.4 1.4 0 00-.7-.3c-.4 0-.7 0-1 .3-.4.2-.6.7-.6 1.3zm3.9 2.5l.3-4.1h.6l2 3.4.2-3.2h.6l-.4 4.2h-.5l-2-3.5-.3 3.2h-.5zm6 .4l.1-4.1 3 .1-.1.5h-2.3v1.2h2l-.1.5h-2v1.8h-.6zm3 .1l1.8-4h.6l1.7 4.1h-.7l-.5-1.3H252l-.5 1.3h-.6zm1.3-1.6h1.5l-.4-1.1a10.9 10.9 0 01-.3-.9c0 .3-.2.5-.3.8l-.5 1.2zm3.3 1.7v-4.1h.6v4.1h-.6zm2.6 0v-3.6h-1.4v-.5h3.3v.4h-1.4l.1 3.7h-.6zm4.2-.1l-.2-4.1h.6l.1 3.6 2.1-.1v.5h-2.6zm2.9-.1l1.3-4.2h.6l2 3.9h-.6l-.6-1.2-1.8.2-.3 1.2h-.6zm1-1.8h1.5l-.5-1.2a11 11 0 01-.4-.8 5.3 5.3 0 01-.2.8l-.3 1.2zm5 1.3l-.4-4 2.8-.4v.5l-2.2.3.1 1.2 2-.2v.5l-1.9.2.2 1.8-.5.1zm3.2-2.3c-.1-.7 0-1.3.3-1.7a2 2 0 011.4-.8 2 2 0 011 .2c.4 0 .7.3.9.6a2.5 2.5 0 01.3 2.2 1.7 1.7 0 01-.6.8c-.3.2-.7.4-1 .4a2 2 0 01-1.1-.1 1.9 1.9 0 01-.8-.7 2.3 2.3 0 01-.4-1zm.5-.1c.1.5.3.9.6 1 .3.3.7.4 1.1.4.4 0 .8-.3 1-.6.2-.3.3-.7.2-1.3a2 2 0 00-.3-.8 1.3 1.3 0 00-.6-.5 1.4 1.4 0 00-.8-.1 1.4 1.4 0 00-1 .5c-.2.3-.2.8-.1 1.4zm4.5 1.4l-.8-4 1.9-.4h.9c.2 0 .4.1.5.3.2.1.3.3.3.6a1 1 0 01-.2.7c-.1.2-.4.4-.8.5l.4.2.6.4.9 1-.7.1-.7-.7a8 8 0 00-.5-.5 1.3 1.3 0 00-.3-.2.9.9 0 00-.3 0h-1l.4 1.9h-.6zm.1-2.4l1.2-.2c.3 0 .5 0 .6-.2a.6.6 0 00.3-.6.6.6 0 00-.3-.5h-.7l-1.3.2.2 1.3zm6.7-.4h.6c0 .4-.1.8-.4 1.1-.2.3-.6.5-1 .6a2 2 0 01-1.1 0 1.7 1.7 0 01-.9-.7 2.7 2.7 0 01-.4-1v-1.1c0-.4.2-.7.5-.9a2 2 0 011-.4 1.8 1.8 0 011 0c.4.2.7.4.9.8l-.5.2a1.3 1.3 0 00-.6-.5 1.2 1.2 0 00-.7 0c-.4 0-.6.1-.8.3a1 1 0 00-.3.7 2.5 2.5 0 00.4 1.6c.2.3.4.4.6.5.3 0 .5.1.8 0 .3 0 .5-.1.7-.4.2-.2.3-.5.2-.8zm1.6 1l-1.1-3.9 3-.8v.5l-2.4.7.4 1.2 2.2-.6.2.4-2.3.6.4 1.4 2.5-.7.2.5-3 .8z"/>
	</g>
</svg>
