<svg xmlns="http://www.w3.org/2000/svg" id="flag-icon-css-nu" viewBox="0 0 512 512">
	<defs>
		<clipPath id="a">
			<path fill-opacity=".7" d="M0 0h496v496H0z"/>
		</clipPath>
	</defs>
	<g clip-path="url(#a)" transform="scale(1.0321)">
		<path fill="#fff" fill-rule="evenodd" d="M0 0h499.6v248.1H0z"/>
		<path fill="#c00" d="M0 0v18.6L119.2 80l44.9 1.3L0 0z"/>
		<path fill="#006" d="M51 0l144.6 75.5V0H51z"/>
		<path fill="#c00" d="M214.9 0v96.4H0v55h215v96.4h66v-96.4h215v-55H281V0h-66z"/>
		<path fill="#006" d="M300.2 0v71.1L441.6.6 300.2 0z"/>
		<path fill="#c00" d="M304.7 78.9l39.8-.3L498.9.6l-41 .6L304.8 79z"/>
		<path fill="#006" d="M0 167.5v52.8L99.2 168 0 167.6z"/>
		<path fill="#c00" d="M381.9 169.7l-41.4-.3 155.8 77.5-1-17.7-113.5-59.5zM38.7 248.3l146.1-76.8-38.3.3L0 248.1"/>
		<path fill="#006"
			  d="M497.9 21.8l-118 58.5 116.4.5v87.1h-99.1l98.2 53.3 1.4 27-52.4-.6-143.6-70.5v71.2H196V177L61.3 248l-60.9.2V496H992V.4L499 0M.6 28L0 79.4l104.4 1.3L.5 28z"/>
		<g fill="#ffd900" fill-rule="evenodd" stroke-width="1pt">
			<path d="M496 0h496.1v496h-496z"/>
			<path d="M0 248h523.5v248H0z"/>
		</g>
		<g fill-rule="evenodd">
			<path fill="#000067" d="M290.9 125.3a42.8 42.8 0 11-85.5 0 42.8 42.8 0 0185.5 0z"/>
			<path fill="#fff40d"
				  d="M226.8 154l8.3-24.5-21.6-15.2h26.7l8.2-24.6 8.2 24.6h26.7l-21.6 15.2L270 154l-21.6-15.3zm155.3-17l4.1-11.5-10.7-7.2h13.2l4.1-11.5 4 11.6h13.3l-10.7 7 4.1 11.5-10.7-7zm-144.7 85.5l4.1-11.5-10.7-7.1h13.3l4-11.5 4.1 11.5h13.2l-10.7 7 4.1 11.6-10.7-7.1zm0-167l4.1-11.6-10.7-7h13.3l4-11.6 4.1 11.5h13.2L254.7 44l4.1 11.5-10.7-7zM92.3 136.8l4.1-11.5-10.7-7h13.2l4.1-11.6 4 11.5h13.3l-10.7 7.1 4 11.5-10.6-7z"/>
		</g>
	</g>
</svg>
