<svg xmlns="http://www.w3.org/2000/svg" id="flag-icon-css-br" viewBox="0 0 640 480">
	<g stroke-width="1pt">
		<path fill="#229e45" fill-rule="evenodd" d="M0 0h640v480H0z"/>
		<path fill="#f8e509" fill-rule="evenodd" d="M321.4 436l301.5-195.7L319.6 44 17.1 240.7 321.4 436z"/>
		<path fill="#2b49a3" fill-rule="evenodd"
			  d="M452.8 240c0 70.3-57.1 127.3-127.6 127.3A127.4 127.4 0 11452.8 240z"/>
		<path fill="#ffffef" fill-rule="evenodd"
			  d="M283.3 316.3l-4-2.3-4 2 .9-4.5-3.2-3.4 4.5-.5 2.2-4 1.9 4.2 4.4.8-3.3 3m86 26.3l-3.9-2.3-4 2 .8-4.5-3.1-3.3 4.5-.5 2.1-4.1 2 4.2 4.4.8-3.4 3.1m-36.2-30l-3.4-2-3.5 1.8.8-3.9-2.8-2.9 4-.4 1.8-3.6 1.6 3.7 3.9.7-3 2.7m87-8.5l-3.4-2-3.5 1.8.8-3.9-2.7-2.8 3.9-.4 1.8-3.5 1.6 3.6 3.8.7-2.9 2.6m-87.3-22l-4-2.2-4 2 .8-4.6-3.1-3.3 4.5-.5 2.1-4.1 2 4.2 4.4.8-3.4 3.2m-104.6-35l-4-2.2-4 2 1-4.6-3.3-3.3 4.6-.5 2-4.1 2 4.2 4.4.8-3.3 3.1m13.3 57.2l-4-2.3-4 2 .9-4.5-3.2-3.3 4.5-.6 2.1-4 2 4.2 4.4.8-3.3 3.1m132-67.3l-3.6-2-3.6 1.8.8-4-2.8-3 4-.5 1.9-3.6 1.7 3.8 4 .7-3 2.7m-6.7 38.3l-2.7-1.6-2.9 1.4.6-3.2-2.2-2.3 3.2-.4 1.5-2.8 1.3 3 3 .5-2.2 2.2m-142.2 50.4l-2.7-1.5-2.7 1.3.6-3-2.1-2.2 3-.4 1.4-2.7 1.3 2.8 3 .6-2.3 2M419 299.8l-2.2-1.1-2.2 1 .5-2.3-1.7-1.6 2.4-.3 1.2-2 1 2 2.5.5-1.9 1.5"/>
		<path fill="#ffffef" fill-rule="evenodd"
			  d="M219.3 287.6l-2.7-1.5-2.7 1.3.6-3-2.1-2.2 3-.4 1.4-2.7 1.3 2.8 3 .6-2.3 2"/>
		<path fill="#ffffef" fill-rule="evenodd"
			  d="M219.3 287.6l-2.7-1.5-2.7 1.3.6-3-2.1-2.2 3-.4 1.4-2.7 1.3 2.8 3 .6-2.3 2m42.3 3l-2.6-1.4-2.7 1.3.6-3-2.1-2.2 3-.4 1.4-2.7 1.3 2.8 3 .5-2.3 2.1m-4.8 17l-2.6-1.5-2.7 1.4.6-3-2.1-2.3 3-.4 1.4-2.7 1.3 2.8 3 .6-2.3 2m87.4-22.2l-2.6-1.6-2.8 1.4.6-3-2-2.3 3-.3 1.4-2.7 1.2 2.8 3 .5-2.2 2.1m-25.1 3l-2.7-1.5-2.7 1.4.6-3-2-2.3 3-.3 1.4-2.8 1.2 2.9 3 .5-2.2 2.1m-68.8-5.8l-1.7-1-1.7.8.4-1.9-1.3-1.4 1.9-.2.8-1.7.8 1.8 1.9.3-1.4 1.3m167.8 45.4l-2.6-1.5-2.7 1.4.6-3-2.1-2.3 3-.4 1.4-2.7 1.3 2.8 3 .6-2.3 2m-20.8 6l-2.2-1.4-2.3 1.2.5-2.6-1.7-1.8 2.5-.3 1.2-2.3 1 2.4 2.5.4-1.9 1.8m10.4 2.3l-2-1.2-2.1 1 .4-2.3-1.6-1.7 2.3-.3 1.1-2 1 2 2.3.5-1.7 1.6m29.1-22.8l-2-1-2 1 .5-2.3-1.6-1.7 2.3-.3 1-2 1 2.1 2.1.4-1.6 1.6m-38.8 41.8l-2.5-1.4-2.7 1.2.6-2.8-2-2 3-.3 1.3-2.5 1.2 2.6 3 .5-2.3 1.9m.6 14.2l-2.4-1.4-2.4 1.3.6-2.8-1.9-2 2.7-.4 1.2-2.5 1.1 2.6 2.7.5-2 2m-19-23.1l-1.9-1.2-2 1 .4-2.2-1.5-1.7 2.2-.2 1-2 1 2 2.2.4-1.6 1.6m-17.8 2.3l-2-1.2-2 1 .5-2.2-1.6-1.7 2.3-.2 1-2 1 2 2.1.4-1.6 1.6m-30.4-24.6l-2-1.1-2 1 .5-2.3-1.6-1.6 2.2-.3 1-2 1 2 2.2.5-1.6 1.5m3.7 57l-1.6-.9-1.8.9.4-2-1.3-1.4 1.9-.2.9-1.7.8 1.8 1.9.3-1.4 1.3m-46.2-86.6l-4-2.3-4 2 .9-4.5-3.2-3.3 4.5-.6 2.2-4 1.9 4.2 4.4.8-3.3 3.1"/>
		<path fill="#fff" fill-rule="evenodd"
			  d="M444.4 285.8a124.6 124.6 0 005.8-19.8c-67.8-59.5-143.3-90-238.7-83.7a124.5 124.5 0 00-8.5 20.9c113-10.8 196 39.2 241.4 82.6z"/>
		<path fill="#309e3a"
			  d="M414 252.4l2.3 1.3a3.4 3.4 0 00-.3 2.2 3 3 0 001.4 1.7c.7.5 1.4.8 2 .7.6 0 1-.3 1.3-.7a1.3 1.3 0 00.2-.9 2.3 2.3 0 00-.5-1c-.2-.3-.7-1-1.5-1.8a7.7 7.7 0 01-1.8-3 3.7 3.7 0 012-4.4 3.8 3.8 0 012.3-.2 7 7 0 012.6 1.2c1.4 1 2.3 2 2.6 3.2a4.1 4.1 0 01-.6 3.3l-2.4-1.5c.3-.6.4-1.2.2-1.7-.1-.5-.5-1-1.2-1.4a3.2 3.2 0 00-1.8-.7 1 1 0 00-.9.5c-.2.3-.2.6-.1 1s.6 1.2 1.6 2.2c1 1 1.6 1.9 2 2.5a3.9 3.9 0 01-.3 4.2 4.1 4.1 0 01-1.9 1.5 4 4 0 01-2.4.3c-.9-.2-1.8-.6-2.8-1.3-1.5-1-2.4-2.1-2.7-3.3a5.4 5.4 0 01.6-4zm-11.6-7.6l2.5 1.3a3.4 3.4 0 00-.2 2.2 3 3 0 001.4 1.6c.8.5 1.4.7 2 .6.6 0 1-.3 1.3-.8a1.3 1.3 0 00.2-.8c0-.3-.2-.7-.5-1a34.6 34.6 0 00-1.6-1.8c-1.1-1.1-1.8-2-2-2.8a3.7 3.7 0 01.4-3.1 3.6 3.6 0 011.6-1.4 3.8 3.8 0 012.2-.3 7 7 0 012.6 1c1.5 1 2.4 2 2.7 3.1a4.1 4.1 0 01-.4 3.4l-2.5-1.4c.3-.7.4-1.2.2-1.7s-.6-1-1.3-1.4a3.2 3.2 0 00-1.9-.6 1 1 0 00-.8.5c-.2.3-.2.6-.1 1s.7 1.2 1.7 2.2c1 1 1.7 1.8 2 2.4a3.9 3.9 0 010 4.2 4.2 4.2 0 01-1.8 1.6 4 4 0 01-2.4.3 8 8 0 01-2.9-1.1 6 6 0 01-2.8-3.2 5.4 5.4 0 01.4-4zm-14.2-3.8l7.3-12 8.8 5.5-1.2 2-6.4-4-1.6 2.7 6 3.7-1.3 2-6-3.7-2 3.3 6.7 4-1.2 2-9-5.5zm-20.7-17l1.1-2 5.4 2.7-2.5 5c-.8.2-1.8.3-3 .2a9.4 9.4 0 01-3.3-1 7.7 7.7 0 01-3-2.6 6 6 0 01-1-3.5 8.6 8.6 0 011-3.7 8 8 0 012.6-3 6.2 6.2 0 013.6-1.1c1 0 2 .3 3.2 1 1.6.7 2.6 1.7 3.1 2.8a5 5 0 01.3 3.5l-2.7-.8a3 3 0 00-.2-2c-.3-.6-.8-1-1.6-1.4a3.8 3.8 0 00-3.1-.3c-1 .3-1.9 1.2-2.6 2.6-.7 1.4-1 2.7-.7 3.8a3.7 3.7 0 002 2.4c.5.3 1.1.5 1.7.5a6 6 0 001.8 0l.8-1.6-2.9-1.5zm-90.2-22.3l2-14 4.2.7 1.1 9.8 3.9-9 4.2.6-2 13.8-2.7-.4 1.7-10.9-4.4 10.5-2.7-.4-1.1-11.3-1.6 11-2.6-.4zm-14.1-1.7l1.3-14 10.3 1-.2 2.4-7.5-.7-.3 3 7 .7-.3 2.4-7-.7-.3 3.8 7.8.7-.2 2.4-10.6-1z"/>
		<g stroke-opacity=".5">
			<path fill="#309e3a"
				  d="M216.5 191.3c0-1.5.3-2.6.7-3.6a6.7 6.7 0 011.4-1.9 5.4 5.4 0 011.8-1.2c1-.3 2-.5 3-.5 2.1 0 3.7.8 5 2a7.4 7.4 0 011.6 5.5c0 2.2-.7 4-2 5.3a6.5 6.5 0 01-5 1.7 6.6 6.6 0 01-4.8-2 7.3 7.3 0 01-1.7-5.3z"/>
			<path fill="#f7ffff"
				  d="M219.4 191.3c0 1.5.3 2.7 1 3.6.7.8 1.6 1.3 2.8 1.3a3.5 3.5 0 002.8-1.1c.7-.8 1-2 1.1-3.7 0-1.6-.2-2.8-1-3.6a3.5 3.5 0 00-2.7-1.3 3.6 3.6 0 00-2.8 1.2c-.8.8-1.1 2-1.2 3.6z"/>
		</g>
		<g stroke-opacity=".5">
			<path fill="#309e3a"
				  d="M233 198.5l.2-14h6c1.5 0 2.5.2 3.2.5.7.2 1.2.7 1.6 1.3s.6 1.4.6 2.3a3.8 3.8 0 01-1 2.6 4.5 4.5 0 01-2.7 1.2l1.5 1.2c.4.4.9 1.2 1.5 2.3l1.7 2.8h-3.4l-2-3.2-1.4-2a2.1 2.1 0 00-.9-.6 5 5 0 00-1.4-.2h-.6v5.8H233z"/>
			<path fill="#fff"
				  d="M236 190.5h2c1.4 0 2.3 0 2.6-.2.3 0 .6-.3.8-.5s.3-.7.3-1c0-.6-.1-1-.4-1.2-.2-.3-.6-.5-1-.6h-2l-2.3-.1v3.5z"/>
		</g>
		<g stroke-opacity=".5">
			<path fill="#309e3a"
				  d="M249 185.2l5.2.3c1.1 0 2 .1 2.6.3a4.7 4.7 0 012 1.4 6 6 0 011.2 2.4c.3.9.4 2 .3 3.3a9.3 9.3 0 01-.5 3c-.4 1-1 1.8-1.7 2.4a5 5 0 01-2 1c-.6.2-1.5.2-2.5.2l-5.3-.3.7-14z"/>
			<path fill="#fff"
				  d="M251.7 187.7l-.5 9.3h3.8c.5 0 .9-.2 1.2-.5.3-.3.6-.7.8-1.3.2-.6.4-1.5.4-2.6l-.1-2.5a3.2 3.2 0 00-.8-1.4 2.7 2.7 0 00-1.2-.7 13 13 0 00-2.3-.3h-1.3z"/>
		</g>
		<g stroke-opacity=".5">
			<path fill="#309e3a"
				  d="M317.6 210.2l3.3-13.6 4.4 1 3.2 1c.7.4 1.3 1 1.6 1.9.4.8.4 1.7.2 2.8-.2.8-.5 1.5-1 2a3.9 3.9 0 01-3 1.4c-.7 0-1.7-.2-3-.5l-1.7-.5-1.2 5.2-2.8-.7z"/>
			<path fill="#fff"
				  d="M323 199.6l-.8 3.8 1.5.4c1 .2 1.8.4 2.2.3a1.9 1.9 0 001.6-1.5c0-.5 0-.9-.2-1.3a2 2 0 00-1-.9l-1.9-.5-1.3-.3z"/>
		</g>
		<g stroke-opacity=".5">
			<path fill="#309e3a"
				  d="M330.6 214.1l4.7-13.2 5.5 2c1.5.5 2.4 1 3 1.4.5.5.9 1 1 1.8s.2 1.5 0 2.3c-.4 1-1 1.7-1.8 2.2-.8.4-1.8.5-3 .3.4.5.8 1 1 1.6l.8 2.7.6 3.1-3.1-1.1-1-3.6a19.5 19.5 0 00-.7-2.4 2.1 2.1 0 00-.6-.8c-.2-.3-.6-.5-1.3-.7l-.5-.2-2 5.6-2.6-1z"/>
			<path fill="#fff"
				  d="M336 207.4l1.9.7c1.3.5 2.1.7 2.5.7.3 0 .6 0 .9-.3.3-.2.5-.5.6-.9.2-.4.2-.8 0-1.2a1.7 1.7 0 00-.8-.9l-2-.7-2-.7-1.2 3.3z"/>
		</g>
		<g stroke-opacity=".5">
			<path fill="#309e3a"
				  d="M347 213.6a9 9 0 011.7-3.2 6.6 6.6 0 011.8-1.5 6 6 0 012-.7c1 0 2 0 3.1.4a6.5 6.5 0 014.2 3.3c.8 1.6.8 3.5.2 5.7a7.4 7.4 0 01-3.4 4.5c-1.5.9-3.3 1-5.2.4a6.6 6.6 0 01-4.2-3.3 7.3 7.3 0 01-.2-5.6z"/>
			<path fill="#fff"
				  d="M349.8 214.4c-.4 1.5-.5 2.8 0 3.8s1.2 1.6 2.3 2c1 .3 2 .2 3-.4 1-.5 1.6-1.6 2.1-3.2.5-1.5.5-2.7 0-3.7a3.5 3.5 0 00-2.2-2 3.6 3.6 0 00-3 .3c-1 .6-1.7 1.6-2.2 3.2z"/>
		</g>
		<g stroke-opacity=".5">
			<path fill="#309e3a"
				  d="M374.3 233.1l6.4-12.4 5.3 2.7a10 10 0 012.7 1.9c.5.5.8 1.1.8 1.9s0 1.5-.4 2.2a3.8 3.8 0 01-2 2c-1 .2-2 .2-3.1-.2.4.6.6 1.2.8 1.7.2.6.3 1.5.4 2.8l.2 3.2-3-1.5-.4-3.7a20 20 0 00-.3-2.5 2 2 0 00-.5-1l-1.2-.7-.5-.3-2.7 5.2-2.5-1.3z"/>
			<path fill="#fff"
				  d="M380.5 227.2l1.9 1c1.2.6 2 1 2.3 1 .3 0 .7 0 1-.2.3-.1.5-.4.7-.8.2-.4.3-.8.2-1.2a2 2 0 00-.7-1 23.7 23.7 0 00-1.8-1l-2-1-1.6 3.2z"/>
		</g>
		<g stroke-opacity=".5">
			<path fill="#309e3a"
				  d="M426.1 258.7a8.9 8.9 0 012.5-2.6 6.6 6.6 0 012.2-.9 5.5 5.5 0 012.2 0c1 .2 1.9.6 2.8 1.2a6.6 6.6 0 013 4.4c.3 1.7-.2 3.6-1.4 5.5a7.3 7.3 0 01-4.5 3.3 6.5 6.5 0 01-5.2-1.1 6.6 6.6 0 01-3-4.4c-.3-1.8.2-3.6 1.4-5.4z"/>
			<path fill="#fff"
				  d="M428.6 260.3c-1 1.3-1.3 2.5-1.1 3.6a3.6 3.6 0 001.6 2.5c1 .7 2 .9 3 .6 1-.3 2-1 2.9-2.4.9-1.4 1.3-2.6 1.1-3.6-.1-1-.7-1.9-1.6-2.6s-2-.8-3-.5c-1 .2-2 1-3 2.4z"/>
		</g>
		<path fill="#309e3a"
			  d="M301.8 204.5l2.3-9.8 7.2 1.7-.3 1.6-5.3-1.2-.5 2.2 4.9 1.1-.4 1.7-4.9-1.2-.6 2.7 5.5 1.3-.4 1.6-7.5-1.7z"/>
	</g>
</svg>
