<svg xmlns:xlink="http://www.w3.org/1999/xlink" xmlns="http://www.w3.org/2000/svg" id="flag-icon-css-nz"
	 viewBox="0 0 640 480">
	<defs>
		<clipPath id="nz-c">
			<path d="M0 0h600v300H0z"/>
		</clipPath>
		<clipPath id="nz-d">
			<path d="M0 0l300 150H0zm300 0h300L300 150zm0 150h300v150zm0 0v150H0z"/>
		</clipPath>
		<g id="b">
			<g id="a">
				<path d="M0 0v.5L1 0z" transform="translate(0 -.3)"/>
				<path d="M0 0v-.5L1 0z" transform="rotate(-36 .5 -.2)"/>
			</g>
			<use transform="scale(-1 1)" xlink:href="#a"/>
			<use transform="rotate(72 0 0)" xlink:href="#a"/>
			<use transform="rotate(-72 0 0)" xlink:href="#a"/>
			<use transform="scale(-1 1) rotate(72)" xlink:href="#a"/>
		</g>
	</defs>
	<path fill="#00247d" fill-rule="evenodd" d="M0 0h640v480H0z"/>
	<g transform="translate(-93 36.1) scale(.66825)">
		<use width="100%" height="100%" fill="#fff" transform="matrix(45.4 0 0 45.4 900 120)" xlink:href="#b"/>
		<use width="100%" height="100%" fill="#cc142b" transform="matrix(30 0 0 30 900 120)" xlink:href="#b"/>
	</g>
	<g transform="rotate(82 534.2 125) scale(.66825)">
		<use width="100%" height="100%" fill="#fff" transform="rotate(-82 519 -457.7) scale(40.4)" xlink:href="#b"/>
		<use width="100%" height="100%" fill="#cc142b" transform="rotate(-82 519 -457.7) scale(25)" xlink:href="#b"/>
	</g>
	<g transform="rotate(82 534.2 125) scale(.66825)">
		<use width="100%" height="100%" fill="#fff" transform="rotate(-82 668.6 -327.7) scale(45.4)" xlink:href="#b"/>
		<use width="100%" height="100%" fill="#cc142b" transform="rotate(-82 668.6 -327.7) scale(30)" xlink:href="#b"/>
	</g>
	<g transform="translate(-93 36.1) scale(.66825)">
		<use width="100%" height="100%" fill="#fff" transform="matrix(50.4 0 0 50.4 900 480)" xlink:href="#b"/>
		<use width="100%" height="100%" fill="#cc142b" transform="matrix(35 0 0 35 900 480)" xlink:href="#b"/>
	</g>
	<path stroke="#fff" stroke-width="60" d="M0 0l600 300M0 300L600 0" clip-path="url(#nz-c)"
		  transform="scale(.60681 .73139)"/>
	<path stroke="#cc142b" stroke-width="40" d="M0 0l600 300M0 300L600 0" clip-path="url(#nz-d)"
		  transform="scale(.60681 .73139)"/>
	<path fill="#fff" d="M151.7 0v79.4H0V140h151.7v79.4h60.7v-79.3H364V79.4H212.4V0z" clip-path="url(#nz-c)"
		  color="#000" font-family="sans-serif" font-weight="400" overflow="visible"
		  style="line-height:normal;text-indent:0;text-align:start;text-decoration-line:none;text-decoration-style:solid;text-decoration-color:#000;text-transform:none;block-progression:tb;isolation:auto;mix-blend-mode:normal"/>
	<path fill="#cc142b" d="M163.8 0v91.5H0v36.4h163.8v91.5h36.4V128h163.9V91.5H200.2V0z" color="#000"
		  font-family="sans-serif" font-weight="400" overflow="visible"
		  style="line-height:normal;text-indent:0;text-align:start;text-decoration-line:none;text-decoration-style:solid;text-decoration-color:#000;text-transform:none;block-progression:tb;isolation:auto;mix-blend-mode:normal"/>
</svg>
