<svg xmlns="http://www.w3.org/2000/svg" id="flag-icon-css-xk" viewBox="0 0 640 480">
	<path fill="#244AA5" d="M0 0h640v480H0z"/>
	<path fill="#D0A650"
		  d="M253 224.8s1.2-.8 1.6-.9c.5 0 2-.6 2-.6s1-.5 1.5-.5c.6 0 1.6.6 2 1.1.3.5 2 1.4 2 1.4s1.2.4 1.5 0c.2-.4.7-.7 1.3-.7.5 0 .6-.5.6-.9s.2-.9.6-1.4c.5-.5 1.3-.8 1.3-.8s1.2-.5 1.3-1.2c.2-.7 1.3-1.2 2-1.3.7 0 0-.4 1.8-.2 1.7.2 2-.4 2-.9.1-.5 0-1 1.1-1 1.1.2 1.6.2 1.6-.4 0-.6 1-1-.7-1.4-1.8-.5-1.6-.1-1.8-1 0-.7 0-.6-1.1-.7-1.2-.1-.6-.7-.7-1.3-.1-.6-.4-1-.6-1.3-.3-.4-.9-.4-.9-1s-.1-1-.7-1c-.7 0-1 0-1-.5 0-.6.2-1 .8-1 .7 0 1-.6 1-1.2-.2-.6-.2-1.9-.2-1.9l.9-1s2.6-2.1 2.8-2.5c.2-.4 1.1-.7 1.5.1.4.8.6 1 1 1.4.3.4 1.3.1 1.5-.3.2-.4.3-1.9.9-2.7.6-.7 1-1.1 1.1-1.8s.5-1.2 1.2-1.2c.6 0 1-.9 1-1.4 0-.5.4-1 1.2-1.2.8-.1 1.3-.6 1.6.2s.6.7 1.1 1c.6.3 1.4.6 1.8.3.5-.4.7-1 1.3-.7.6.4 1 0 1.2-.7l.3-1.9s.1-.5 1.1-.5.3-.6.8-1c.6-.4.6-.8 1.3-.6.7.3 1.8-.3 1.3-1-.6-.6-1.8-1.6-1.1-2.4.7-.8 1-2 .3-2.2-.7-.1-1.8.1-1.9-.6-.1-.8-.4-1.4.5-1.5.8-.1 2.2-.1 2.7-.5.4-.4 1.8-.7 1.8-1.8 0-1.2.4-1.3.6-2 .1-.6.1-2-.5-2.6-.6-.7-1.4-1.6-1.5-2-.2-.4-.7-1-1.6-1.3-.8-.2-1.6-.4-1.6-1 0-.7.6.1.6-1.6 0-1.7-1.1-2-1.1-2l-1.7-1s-3-.8-3.8-.8-1.8-.8-.9-1.4c1-.5 1.2-1.5.9-2.2-.4-.7-.6-1.3-1.9-1.6-1.3-.3-1.6-.6-1-1.4.5-.7.7-1.3 1.4-.7.6.5 1.8.7 2.7.3 1-.4 1.3-.8 1.8-.3.4.4 1 .8 1.7.2.7-.7 2-.8 2.6-.5.5.4 2 .3 2.4 0 .4-.2 1.4-1 1.4-1.3s.6-1.2 1.1-1.5c.6-.4 1.3-1.4 1.9-1.4.6 0 .8-.7.8-1 0-.5.5-1.4.6-1.7 0-.3 1.2-.8 2 0 .9.5 2 .8 2 .8s1 .2 1.7 0a2 2 0 012.1 0c.9.6 2 .6 2 .6l.3-1.3c0-.4.2-1.2-.3-1.5-.4-.3-1-.7-.1-1.4 1-.6 1-.5 1.9-.5l2.2.1c.7 0 1.8.7 1.8 1.3 0 .6.5 1 1 1.4.6.3 1.3.6 1 1.2-.1.5-.1 1 .6.8.7-.1.9.3.9.9 0 .5.2.8 1 1 .6.2 1 .7 1 1.2s-.2.9 0 1.4l1 1.4s1.3 1.5-.4.7c-1.6-.7-2-1-2.5-1l-1 .5-1.3.2c-.6 0-1.2 1.2-.2 1.4.9.2 1.2.4 1.2 1.2s-.3.5-.8 1c-.4.6-.8.2-1.6.2s-1 .7-1 1.3.3.6.6 1c.4.6 1 .7 1.6.2.5-.5 1-.9 1.3.1.4 1 .9 1 1.5 1 .7 0 1 0 1.6-.4.5-.3 1.2 0 1.3.9.2.8.7 1 1.3 1.3.6.3 1 .5 1 1 .2.6.5.8 1.1.5.6-.4 1.5-.6 1.9-.1l.9 1.2v1.1l2.3.8.2 1c0 .3.4.6 1 .4h1.6s.8-.3.8-1c0-.6.3-.8 1-.8.5 0 1.8.5 2.1-.2.4-.6 1.4-.8 2.2-.5l3 1.2s-.3 0 .4 1.1 2 1.1 2 1.1 0 1 .3 1.4c.2.4 1.3.6 1.8.2.6-.4 1.4-1 2.1-1s1.2 0 1.2-.4-.7-.7-.7-1.4.7-.6.8-1.3c.1-.6.8 0 1.3.4s1 .8 1 1.2c0 .5 1 2 1.5 2.2.6.2 2.1.3 2.6-.2.4-.6 1.6-.8 1.5.5-.1 1.3-.4 1.4.4 1.8.8.4 1 2 .3 2.4-.7.4-1 .5-1 1.2s-.2 1.6.4 2c.6.5 1 .8 1 1.2 0 .5.6 2.4.6 2.4s.4 1.9.2 2.3c0 .5-.3 1.2.7 1.1 1-.1 1.3-.1 1.3.7s.4 1.2-.2 1.5c-.6.4-1 1.4-.4 1.6.6.2 1 .6 1.2 1 .1.4 1 1.2 1.6.7.6-.4.7-.6 1.2-.7.4-.1.8-.4.3-1-.4-.5-.6-1-.1-1.4.5-.3.7-1.3.7-1.3s.7-1 1.5 0 1 .6 1.5.6.8.5.8 1c0 .6 1.2.5 1.2 1.3l.2 3s0 1.1.7 1.5c.7.5.6.6.2 1-.3.6-.2 1.5-.2 2s.2.5-.3 1c-.6.4-.9 1-.5 1.6.3.6.2 1 1.1 1.8 1 .7.9 1 .9 1.6 0 .5.9 1.3.9 1.8s.7 1.2 1.3 1.3 1.2 1 1.2 1.6l.1 1.9s0 .3.6.3c.7 0 1.2.8 1.4 0 .2-1 1-1 1.4-1.3s1.4-.6 1.9-.3 1 .3 1.5.3l2.6.1s.6 0 1 .8c.3.8 1.3 1.8.8 2.2-.6.5-.6 1.3 0 1.3s1.5 0 1.5.5c0 .6 0 1 .7.7.5-.3.9-.4 1.1 0 .3.4.7.4 1.3.7.6.4.8.1 1.2-.3.3-.4 1.7-.8 1.7-.8s1.8-.5 2.5-.3l1.7.7s.4 1 .2 1.7c-.2.6-.5.5-.2 1.5.2 1-.3 1-.7 1-.5-.2-1-.2-1 .7 0 .8-.4 1-.4 1.8s0 .6-.5 1c-.4.3-.6.8.1 1 .7 0 .5.8.5 1.2l-.1 1.4s0 .5-.7.5-1.5 0-1.6.5c-.2.5-1 1.3-.3 1.9.8.5.6.8.1 1-.4.3-.8 1.3.2 1.6.9.4.8.7.2 1.1-.6.4-1.7.8-1.7 1.4s-.3.6-1 .7c-.7.1-1 1-.2 2 .8 1.1 1 1 1.6 1 .6 0 .6-1 .6-1l2.5.2c.6 0 1.4 0 1.9-.3.5-.4 1.7-.9 1.7 0 0 1 .3 1 .8 1.3.6.5.7.1 1.2.8.5.6.6 0 1-.7.3-.7 1-1.4 1.6-.6.5.9.5.6 1.2.6s1 .4 1 .9.6.5 1.5.4c.8 0 .9.5 1.2 1s.5.4 1 .4c.4 0 .9 0 1.2-.4.4-.4.8-1 1.3-.3.5.6 1.4.5 1.6-.2.3-.8 1.3-1.4 1.9-.6.6.9 1 .9 1.6 1 .6 0 1.4 0 1.7.6.4.6 1.5 1.4.7 2-.8.7-1.7 1.5-1 1.8a3 3 0 011.6 1c.5.4 2 .7 2.7.8.7 0 1.2.2 2-.5.9-.6 1.7-.6 1.6.3-.1.8.3 1.8.3 1.8s.6 1.4.6 1.9-.1.6 1 1.3c1 .6.8 1 1.7.4.8-.6 1-1 1-1.5v-1.7s1.2-.2 1.6-.5c.5-.4 2.3-1.3 2.8-.9s1 .3 1.5.1c.5-.2 1.4-.2 1.9-.2.4 0 1.2.1 2.2-.6.9-.8.9-.6 1.5 0 .5.5.5 1.1.2 1.6-.4.4 0 1.3.8 1.3s1 .5 1 1l.3 1.7c0 .4 0 .7 1.4 1 1.2.3 1 1 1.2 1.6.3.5.3 1-.4 1s-1 .3-1 .8c-.2.5-1.2.7-1.2.7l-1-.2s-.8 0-1.1.4c-.4.5-1 1.3-.6 2 .5.8.5 1.2 0 1.6-.4.3-.7 1.9-1.1 1.6-.5-.4-1 0-1.5.3-.5.2-.4 1.7.5 2.2 1 .6 1.2 1.3 1.2 1.3l1 1.6s-.3.3-.5.9c-.3.5-1 1.6-.3 1.8.7.2.4 1.4-.3 1.4s-1.5-.4-1.6.5-.5.6-1.2.5c-.7 0-2.4-.5-2.9.3-.5.9-.6 1.2-1.4 1.1-.8 0-.5 1.3-.2 1.8l1 1.3s.7.5.7 1.6c0 1-.5 1-1 .2-.4-.7-1.3-.6-1.4.2-.1.9-.3 2.2-1 2.2-.9 0-1.2.2-1.6.6-.3.4-.9 1.2-.9 1.6s-.1.9-.7 1-.7 1.2-.7 1.2-1.4.3-1.5.8c-.1.5.1 1.4-1 1.5a3 3 0 00-2.2 1.4c-.4.5-.5 1 0 1.5s.8 2.2 1.4 2.5c.5.3 1 .5.9 1.3-.1.9-.8 1.5.1 1.5 1 0 1.5.2 1.2 1-.4.7-.4.8-1 1.1-.8.4-1.1.4-1.1 1.2s.2.9-.4 1.2-.6.7-.6 1.4-.2.4-.9 1.1c-.7.8-1.6.8-2.2.6s-.7-.2-.8-.9c-.1-.6-1.1-.6-1.7-.5-.6 0-1.4.7-1.4.7s-1 .7-.6 1.2c.5.5.2 1.4-.6 1.3-.8-.1-2.6.8-3.2-.1-.6-1-2.2-1.6-2.5-.3-.2 1.2.7 1.1.6 2.4 0 1.3-.3 1.3-.8 1.7-.4.4-.4.8-.6 1.3 0 .5-.2 1.7.6 2.1.8.5 1.2 1.6 1.2 2.3 0 .6 0 1.3.8 1.3s1.5-.2 1.6-.9c.1-.7 1.7-1.2 1.9.3 0 1.5 0 2.3.7 2.9.5.6 1 1.5 1.5 1.8.4.3 1.2 3 1.2 3-1.1.3-1.4 1.8-2.1 2-.4.2-.9 0-1.3.3-.2.3-.2.7-.6.8-.9.4-.7-.9-1.8-.4-.9.4-1 1.5-2.3 1-.7-.2-1.1-3-1.3-3.6l-1.1-1.8c-.8-1.2-2.3 0-2.8-.4-.8-.5-.5-1.4-1.7-1.5-2.4-.2-.7 1.5-1.7 1.8-2 .7-2-1.8-3.4-.6-.5.4 1 .7.6 1.4-.3.6-1.7 1.6-1.7 2.3.2 1 1.2 1.3 1.5 2 1 2.3-.5 3.8-2.7 2-1.2-.9-1.5-2.7-3.3-2.5-.5 0-.6.4-1 .5-.5 0-.8-.4-1.3-.3-.7.3 0 .8-.2 1.2 0 0-1 .7-1 1-.6.6-.4 1.2-1.2 1.8-.6.5-1.1.2-1.8 1-.7.7-.8 1.9-1.7 2.6-.5.4-.8-1.1-1.4-.1l-.2.4c-.2.3-.2.4 0 .7 1.2 2.4-1.4 3.2-2.2 4.9-.3.7.6 1.3.3 1.9l-1.5 1.7c0 .2-.2.8-.4 1-.2.2-1 0-1 .4s.8.7 1 .9c.2.3-.2.7 0 .8 1.2 1.3.5.9 1.1 2 .1.2.5-.1.7.3.1.4-.4.4-.2.8 0 .2 1 1.4 1 1.4 0 .4-1.8 1.2-2.2 1.2-1.1 0 1-2.2-.8-2.2-.8 0-.9 1.7-1 2h-1c-1.2 0-2 1.4-2.4 1.5-.3.1-1-.2-1.5 0-.4 0-1 .5-1.4.5-.3 0-.4-.2-.7-.4-.5-.3-1.5-.4-2-.6-.4 0-1 .4-1.2.3-.3-.2.3-1-.6-1.4l-.7-1.7c.3-1 .6-2 .5-3.1-.2-1.1-2-2-2.4-3-.3-.6-.6-2.4-1.3-2.8a6.2 6.2 0 01-1.8-2.2c0-.2.3-.6 0-1-.3-.3-.8-.5-1-1-.1-.4 0-1.8-.5-2.1-.5-.3-4-.8-5-.9-.4 0-.7 0-1-.3l-.6-.7-1 .2c-.3 0-.8-.2-1 0-1.1.7-1.4 1.7-2.5 2.6-1.1.8-2.3.8-3.4 1.7-.7.6-1.2 2.1-1.9 2.8-.3.3-.7 0-.8.1-.6.7-1.4 1.2-2 1.8-.1.2 0 .4-.2.5l-1.3.4h-1.2c-.5.2-.5.8-2.5 1.2l-.5.3-.6.5h-.9c-.5 0-.8.5-1.2.5-1 .2-2.8-.5-3.6-.1-.5.1-1.8 1.7-2.3 1.8-.3.1-.6 0-1-.1l-.6 2.2-2.4 2.1c-.3.3-.4.7-.8 1-.2.3-.6.5-1 .5s-1.1-.4-1.6-.4c-.8-.2-3.3-.3-4-.1-.9.1-.6 2.4-2.6 2.6l-3.3.4c-.1 0-.8-.4-1.5-.3-.3.1-1.1 1-1.1 1.2v.5l.2.4c-.4.5-1.4 1.3-1.7 2l-.4.4c-.2.2-1.6.7-1.7.9-.3.8 1 1.6.8 1.9-.3 1-1.7 2-2.2 3-.1.4.5 1.7.5 2.1-.2 1.3-.6 2.9-.5 4.1l.2 1.7.7.5 1.8 3.6c.3 2.2-3 1.4-1 3.6.2.4.4.7.8 1l2.8 2.3c0 .4-2 .7-2.3 1-1 1-1.7 2.6-2.6 3.6-.6.5-1-.1-1.8 1.3-.2.5 0 1.6-.3 2-.5.4-.8-.2-1.3 0-.2 0-.3.7-.5.8-.5.5-5.2 3-5.6 2.7-.2-.1-.5-.9-.5-1.1 0-.3-.4-.9-.6-1-1.2-1-3-1.3-4.2 0-.3.3-.3.8-.7 1l-2 1.6-.5.5c-.5 0-1.6-1.3-2-1.7-.4-.6-2-2-2.1-2.7 0-2.4-1.9-4.9-2.6-7.2h1.1c1.3-.9 1-3 3.3-2.2.3-.4.3-.8.8-1 .2-.2.6-.3.7-.5.8-1.2 1.7-5.8.9-7-.7-1-1.5-1-2-2.7-.2-.5 0-1 0-1.6l-1-3.1c-.2-.3-.7-.5-.7-.7l-.2-3.1c-.7-2.2-3.4-3.5-3.5-3.8l-1-1.7c-.4-.7-.4-1-.6-1.6-.1-.3-.6-.6-.6-.9 0-.6 1.6-1.7 1.5-2.7 0-.3-1-1.3-.8-1.8.2-.6 1.2-1.8 1.2-2.5 0-.8-1.6-2.6-1.8-3.4-.1-.5.6-.8.4-1.1-.2-.4-1.8-1.9-2-2.3-.3-.3.5-.7 0-1.3-.6-.5-.1-.4-.3-.8-.2-.5-.7-1-1-1.5-.2-.5-1.6-5.5-1.5-5.8-.3-.3-.7-.6-.9-1l-.4-1.2s-1.6-.5-1.9-1c-.2-.3-.3-1.6-.7-2.2-.2-.3-.5-.2-.7-.4-.2-.2-.2-.5-.3-.7-.5-.6-1.4 0-2-2.4-1-.6-1.7-1-2.4-1.8l-.4-.4c-.6-.2-1.5-.3-2-.7-.3 0-1.8 0-2-.2l-.4-.8c-.8-.1-2.2 0-2.9-.6-.5-.5-.6-2.8-1.6-2.5a.7.7 0 00-.4 0c-.7-1-2.9-1-3.8-1.6-.2-.1-1 0-1-.2l.1-1.3-1.1-1.4c-.9-.2-.6-.3-1-.6-1.5 0-1.7.2-2.6 1-.2.2-.7.3-1 .4-.5.3-.6 1.2-1.3.8l-.6-.5c-.4-.4-.6-.2-.8-.8-1.2-.7-4.5 1.5-5.2 0-.6-.3-1 0-1.5-.4-.2-.2.7-3-1.7-4l1.6-1.1c.2-.3 0-.8 0-1 0-.5.3-1.4.2-1.7 0-.3-.4-.6-.5-1-.2-.3 0-.8-.2-1.2l-.8-.4c-.6-.5-1.2-.8-1.7-1.4l-.4-.5c-.4-.3-1.8-.8-1.8-1.4 0-.2.4-.3.4-.5.1-.3 0-.6.3-.8.6-1 2.1-.5 1.9-2.2-.1-.8-.7-1.4-.8-2.2-.3-.2-.3-.5-.5-.7-1.5-.1-1.3-1.6-1.8-2-1.5-1-2.7-.4-1-2.4.2-.7-1.5-1.8-1.8-2.1-.6-.6-.3-1.9-.6-2.5 0-.3-1.1-.9-1.4-1.3l-.5-1v-.1c.3-.3.2-.8 0-1-.1-.3-.6-.2-.7-.4-1.4-1.2-3-1.8-4.9-2.5-.5-.2-.3-.6-.8-.8l-3-1.2c-.2 0-.4-1.1-.6-1.5l-.9-1c0-1-.6-1-1.4-1.6v-.6l.6-2.1c.1-.4.6-.8.5-1.2l-.4-2.3c-.8-2-1.7-1.8-1.2-4.5 0-.6-.1-.9.3-1.4l.2-.3 1.2-.9c.4-.6.7-1.9 1.2-2.3l1.8-1.2c.2-.2.4-.9.3-1.2-.4-.2-.8-.1-1.2-.2-.2 0-.7-.4-1.1-.4-.1-.2-.3-.3-.3-.5l-.2-.2c-.5 0-1-.3-1.4-.5-.5-.2-1.2-.2-1.7-.5-1-.5-2-2-2.9-2.2-1.2-.3-2 .1-3.2.2-.7 0-.7-.4-1.3-.6-.8-.3-.2.4-2-.2-.3-.2 0-.8 0-1h-1c-1.4-.4-.9-1.8-1.3-2.7-.1-.2-.8-.2-1-.2-.2 0-.2-.2-.2-.2l.2-.1c.2-.4-.7-1.4-.7-1.6.1-.3 2-.6 2.2-.6.1-.3-.1-.5-.2-.7 0-.5.3-1.2.5-1.7v-.2c-.6-.3-.7-.7-1.2-1 0-.3.3-.4.4-.7.9-2.5 2.3-.5 3.5-2.8.1-.2.5-.7.6-1.1h.2c.2 0 .6.2.8 0 .2-.2.5-.2.8-.3h.5c2.2-.4 1.7-1.2 3-2.1.4-.3 1.4-.4 1.8-.6.5.3 1.2 1 2.1 1.4.7.2 3 .7 3.4 1 .5.2.6.8 1 1 1.3.8.5-.4 1.8-.2 1.3.3 2.3 1.4 3.5 1.9l1-.1c.3-.1 2.3-.5 2.5-.4l.8.3c.3.1.5-.5.8-.5.8.2.8.5 2 .4 0 0 .6-3.3 1.2-3.4.3-.1 1.2.7 1.4.8.4.1 0-.7 0-.7-.2-.3-.8-2.3-.7-2.5 0 0 .5.2.8.1.6-.2 1.5-.4 2-.9l1-1.5c.1-.2-.2-.8 0-1l.9-.6c.4-.4.4-1 1-1.3 2-.2 2.7-1.8 4.6-2h.6l.4.6c0 .1 1.3.9 1.5.8.2 0 .3-.3.5-.4.3.1 1.4-.5 1.5-.9 0 0-.2-.3-.1-.6a12 12 0 011.6-1.2h1.4c.2.2.2.6.5.6h1.2c.2 0 .3-.5.7-.5z"/>
	<g id="h" fill="#FFF">
		<path id="star" d="M351.9 73.4L368 123l-42.2-30.7H378L335.8 123l16-49.6z"/>
		<path id="star_1_" d="M414.7 84.5l16 49.6-42.1-30.7h52.1l-42.2 30.7 16.2-49.6z"/>
		<path id="star_2_" d="M474.6 106.3l16 49.6-42.1-30.7h52.1L458.4 156l16.2-49.6z"/>
	</g>
	<g id="h_1_">
		<path id="star_3_" fill="#FFF" d="M288.1 73.4L272 123l42.2-30.7H262l42.2 30.7-16-49.6z"/>
		<path id="star_4_" fill="#FFF" d="M225.3 84.5l-16 49.6 42.1-30.7h-52.1l42.2 30.7-16.2-49.6z"/>
		<g transform="scale(-1 1)">
			<path id="star_5_" fill="#FFF" d="M-165.7 106.3l-16.2 49.6 42.2-30.7h-52.1l42.2 30.7-16.1-49.6z"/>
		</g>
	</g>
</svg>
